wave.vcd
$version Generated by VerilatedVcd $end
$timescale 1s $end

 $scope module TOP $end
  $var wire  1 j clk $end
  $var wire  1 k reset $end
  $scope module top $end
   $var wire 32 0 addr_load [31:0] $end
   $var wire 32 0 addr_store [31:0] $end
   $var wire  4 ' alu_cnt [3:0] $end
   $var wire  1 4 auipc $end
   $var wire  1 3 br_taken $end
   $var wire  1 j clk $end
   $var wire 32 1 data_load [31:0] $end
   $var wire 32 . data_store [31:0] $end
   $var wire  1 6 ebreak $end
   $var wire 32 # ifu_pc [31:0] $end
   $var wire 32 2 imm [31:0] $end
   $var wire  6 ( ins_cnt [5:0] $end
   $var wire 32 $ inst [31:0] $end
   $var wire  1 9 jal $end
   $var wire  1 8 jalr $end
   $var wire  1 7 load $end
   $var wire  4 % lsu_cnt [3:0] $end
   $var wire  1 5 lui $end
   $var wire  1 & mem_cnt $end
   $var wire  4 ) pc_cnt [3:0] $end
   $var wire  5 * raddr1 [4:0] $end
   $var wire  5 + raddr2 [4:0] $end
   $var wire 32 - rdata1 [31:0] $end
   $var wire 32 . rdata2 [31:0] $end
   $var wire  1 k reset $end
   $var wire  5 , waddr [4:0] $end
   $var wire 32 / wdata [31:0] $end
   $scope module exu_t0 $end
    $var wire  1 ; BType $end
    $var wire  1 < IType $end
    $var wire  1 9 JType $end
    $var wire  1 > RType $end
    $var wire  1 = SType $end
    $var wire  1 : UType $end
    $var wire 32 ? alu_a [31:0] $end
    $var wire 32 @ alu_b [31:0] $end
    $var wire  4 ' alu_cnt [3:0] $end
    $var wire 32 / alu_result [31:0] $end
    $var wire  1 4 auipc $end
    $var wire  1 3 br_taken $end
    $var wire 32 1 data_load [31:0] $end
    $var wire 32 2 imm [31:0] $end
    $var wire  6 ( ins_cnt [5:0] $end
    $var wire  1 9 jal $end
    $var wire  1 8 jalr $end
    $var wire  1 7 load $end
    $var wire  1 5 lui $end
    $var wire  4 ) pc_cnt [3:0] $end
    $var wire 32 # pc_in [31:0] $end
    $var wire 32 - rdata1 [31:0] $end
    $var wire 32 . rdata2 [31:0] $end
   $upscope $end
   $scope module idu_t0 $end
    $var wire  1 ; BType $end
    $var wire  1 < IType $end
    $var wire  1 D I_imm $end
    $var wire  1 9 JType $end
    $var wire  1 > RType $end
    $var wire  1 = SType $end
    $var wire  1 : UType $end
    $var wire  4 ' alu_cnt [3:0] $end
    $var wire  1 4 auipc $end
    $var wire  1 6 ebreak $end
    $var wire  3 B fun3 [2:0] $end
    $var wire  7 C fun7 [6:0] $end
    $var wire 32 2 imm [31:0] $end
    $var wire  6 ( ins_cnt [5:0] $end
    $var wire 32 $ inst [31:0] $end
    $var wire  1 9 jal $end
    $var wire  1 8 jalr $end
    $var wire  1 7 load $end
    $var wire  4 % lsu_cnt [3:0] $end
    $var wire  1 5 lui $end
    $var wire  1 & mem_cnt $end
    $var wire  7 A opcode [6:0] $end
    $var wire  4 ) pc_cnt [3:0] $end
    $var wire  5 , rd [4:0] $end
    $var wire  5 * rs1 [4:0] $end
    $var wire  5 + rs2 [4:0] $end
   $upscope $end
   $scope module ifu_t0 $end
    $var wire  1 3 br_taken $end
    $var wire  1 G bxx $end
    $var wire  1 j clk $end
    $var wire 32 2 imm [31:0] $end
    $var wire 32 $ inst [31:0] $end
    $var wire  1 F jal $end
    $var wire  1 E jalr $end
    $var wire  4 ) pc_cnt [3:0] $end
    $var wire 32 # pc_out [31:0] $end
    $var wire  1 k reset $end
    $var wire 32 - ret [31:0] $end
   $upscope $end
   $scope module lsu_t0 $end
    $var wire 32 0 addr_load [31:0] $end
    $var wire 32 0 addr_store [31:0] $end
    $var wire 32 1 data_load [31:0] $end
    $var wire 32 . data_store [31:0] $end
    $var wire  4 % lsu_cnt [3:0] $end
    $var wire 32 H temp [31:0] $end
   $upscope $end
   $scope module mem_t0 $end
    $var wire  1 j clk $end
    $var wire  1 6 ebreak $end
    $var wire  1 & mem_cnt $end
    $var wire 32 # pc_in [31:0] $end
    $var wire  5 * raddr1 [4:0] $end
    $var wire  5 + raddr2 [4:0] $end
    $var wire 32 - rdata1 [31:0] $end
    $var wire 32 . rdata2 [31:0] $end
    $var wire  1 k reset $end
    $var wire 32 I rf[0] [31:0] $end
    $var wire 32 S rf[10] [31:0] $end
    $var wire 32 T rf[11] [31:0] $end
    $var wire 32 U rf[12] [31:0] $end
    $var wire 32 V rf[13] [31:0] $end
    $var wire 32 W rf[14] [31:0] $end
    $var wire 32 X rf[15] [31:0] $end
    $var wire 32 Y rf[16] [31:0] $end
    $var wire 32 Z rf[17] [31:0] $end
    $var wire 32 [ rf[18] [31:0] $end
    $var wire 32 \ rf[19] [31:0] $end
    $var wire 32 J rf[1] [31:0] $end
    $var wire 32 ] rf[20] [31:0] $end
    $var wire 32 ^ rf[21] [31:0] $end
    $var wire 32 _ rf[22] [31:0] $end
    $var wire 32 ` rf[23] [31:0] $end
    $var wire 32 a rf[24] [31:0] $end
    $var wire 32 b rf[25] [31:0] $end
    $var wire 32 c rf[26] [31:0] $end
    $var wire 32 d rf[27] [31:0] $end
    $var wire 32 e rf[28] [31:0] $end
    $var wire 32 f rf[29] [31:0] $end
    $var wire 32 K rf[2] [31:0] $end
    $var wire 32 g rf[30] [31:0] $end
    $var wire 32 h rf[31] [31:0] $end
    $var wire 32 L rf[3] [31:0] $end
    $var wire 32 M rf[4] [31:0] $end
    $var wire 32 N rf[5] [31:0] $end
    $var wire 32 O rf[6] [31:0] $end
    $var wire 32 P rf[7] [31:0] $end
    $var wire 32 Q rf[8] [31:0] $end
    $var wire 32 R rf[9] [31:0] $end
    $var wire  5 , waddr [4:0] $end
    $var wire 32 / wdata [31:0] $end
    $var wire  1 & wen $end
    $scope module unnamedblk1 $end
     $var wire 32 i i [31:0] $end
    $upscope $end
   $upscope $end
  $upscope $end
 $upscope $end
$enddefinitions $end


#1
b00000000000000000000000000000000 #
b00000000000000000000000000000000 $
b0000 %
0&
b0000 '
b000000 (
b0000 )
b00000 *
b00000 +
b00000 ,
b00000000000000000000000000000000 -
b00000000000000000000000000000000 .
b00000000000000000000000000000000 /
b00000000000000000000000000000000 0
b00000000000000000000000000000000 1
b00000000000000000000000000000000 2
03
04
05
06
07
08
09
0:
0;
0<
0=
0>
b00000000000000000000000000000000 ?
b00000000000000000000000000000000 @
b0000000 A
b000 B
b0000000 C
0D
0E
0F
0G
b00000000000000000000000000000000 H
b00000000000000000000000000000000 I
b00000000000000000000000000000000 J
b00000000000000000000000000000000 K
b00000000000000000000000000000000 L
b00000000000000000000000000000000 M
b00000000000000000000000000000000 N
b00000000000000000000000000000000 O
b00000000000000000000000000000000 P
b00000000000000000000000000000000 Q
b00000000000000000000000000000000 R
b00000000000000000000000000000000 S
b00000000000000000000000000000000 T
b00000000000000000000000000000000 U
b00000000000000000000000000000000 V
b00000000000000000000000000000000 W
b00000000000000000000000000000000 X
b00000000000000000000000000000000 Y
b00000000000000000000000000000000 Z
b00000000000000000000000000000000 [
b00000000000000000000000000000000 \
b00000000000000000000000000000000 ]
b00000000000000000000000000000000 ^
b00000000000000000000000000000000 _
b00000000000000000000000000000000 `
b00000000000000000000000000000000 a
b00000000000000000000000000000000 b
b00000000000000000000000000000000 c
b00000000000000000000000000000000 d
b00000000000000000000000000000000 e
b00000000000000000000000000000000 f
b00000000000000000000000000000000 g
b00000000000000000000000000000000 h
b00000000000000000000000000000000 i
1j
1k
#2
0j
#3
b10000000000000000000000000000000 #
b00000000000000000000010000010011 $
1&
b0001 '
b000100 (
b01000 ,
1<
b0010011 A
1D
b00000000000000000000000000100000 i
1j
#4
0j
#5
b10000000000000000000000000000100 #
b00000000000000001001000100010111 $
b0000 '
b100000 (
b00001 *
b00010 ,
b00000000000000001001000000000000 0
b00000000000000001001000000000000 2
14
1:
0<
b10000000000000000000000000000100 ?
b00000000000000001001000000000000 @
b0010111 A
b001 B
0D
1j
0k
#6
0j
#7
b10000000000000000000000000001000 #
b11111111110000010000000100010011 $
b0001 '
b000100 (
b00010 *
b11100 +
b11111111111111111111111111111100 /
b11111111111111111111111111111100 0
b11111111111111111111111111111100 2
04
0:
1<
b00000000000000000000000000000000 ?
b11111111111111111111111111111100 @
b0010011 A
b000 B
b1111111 C
1D
1j
#8
0j
#9
b10000000000000000000000000001100 #
b00000000110000000000000011101111 $
b010000 (
b0111 )
b00000 *
b01100 +
b00001 ,
b10000000000000000000000000010000 /
b00000000000000000000000000001100 0
b00000000000000000000000000001100 2
19
0<
b10000000000000000000000000001100 ?
b00000000000000000000000000000100 @
b1101111 A
b0000000 C
0D
1F
b11111111111111111111111111111100 K
1j
#10
0j
#11
b10000000000000000000000000011000 #
b11111111010000010000000100010011 $
b000100 (
b0000 )
b00010 *
b10100 +
b00010 ,
b11111111111111111111111111111100 -
b11111111111111111111111111110000 /
b11111111111111111111111111110000 0
b11111111111111111111111111110100 2
09
1<
b11111111111111111111111111111100 ?
b11111111111111111111111111110100 @
b0010011 A
b1111111 C
1D
0F
b10000000000000000000000000010000 J
1j
#12
0j
#13
b10000000000000000000000000011100 #
b00000000000000000000010100010111 $
b0000 '
b100000 (
b00000 *
b00000 +
b01010 ,
b00000000000000000000000000000000 -
b00000000000000000000000000000000 /
b00000000000000000000000000000000 0
b00000000000000000000000000000000 2
14
1:
0<
b10000000000000000000000000011100 ?
b00000000000000000000000000000000 @
b0010111 A
b0000000 C
0D
b11111111111111111111111111110000 K
1j
#14
0j
#15
b10000000000000000000000000100000 #
b00000001110001010000010100010011 $
b0001 '
b000100 (
b01010 *
b11100 +
b00000000000000000000000000011100 /
b00000000000000000000000000011100 0
b00000000000000000000000000011100 2
04
0:
1<
b00000000000000000000000000000000 ?
b00000000000000000000000000011100 @
b0010011 A
1D
1j
#16
0j
#17
b10000000000000000000000000100100 #
b00000000000100010010010000100011 $
b0011 %
0&
b0000 '
b000010 (
b00010 *
b00001 +
b01000 ,
b11111111111111111111111111110000 -
b10000000000000000000000000010000 .
b00000000000000000000000000000000 /
b11111111111111111111111111111000 0
b00000000000000000000000000001000 2
0<
1=
b11111111111111111111111111110000 ?
b10000000000000000000000000010000 @
b0100011 A
b010 B
0D
b00000000000000000000000000011100 S
1j
#18
0j
#19
b10000000000000000000000000101000 #
b11111110100111111111000011101111 $
b0000 %
1&
b0001 '
b010000 (
b0111 )
b11111 *
b01001 +
b00001 ,
b00000000000000000000000000000000 -
b00000000000000000000000000000000 .
b10000000000000000000000000101100 /
b11111111111111111111111111101000 0
b11111111111111111111111111101000 2
19
0=
b10000000000000000000000000101000 ?
b00000000000000000000000000000100 @
b1101111 A
b111 B
b1111111 C
1F
1j
#20
0j
#21
b10000000000000000000000000010000 #
b00000000000000000000010100010011 $
b000100 (
b0000 )
b00000 *
b00000 +
b01010 ,
b00000000000000000000000000000000 /
b00000000000000000000000000000000 0
b00000000000000000000000000000000 2
09
1<
b00000000000000000000000000000000 ?
b00000000000000000000000000000000 @
b0010011 A
b000 B
b0000000 C
1D
0F
b10000000000000000000000000101100 J
1j
#22
0j
#23
b10000000000000000000000000010100 #
b00000000000000001000000001100111 $
b1000 )
b00001 *
b00000 ,
b10000000000000000000000000101100 -
b10000000000000000000000000010100 /
b10000000000000000000000000101100 0
18
b10000000000000000000000000010100 ?
b1100111 A
0D
1E
b00000000000000000000000000000000 S
1j
#24
0j
#25
b10000000000000000000000000101100 #
b00000000000001010000010100010011 $
b0000 )
b01010 *
b01010 ,
b00000000000000000000000000000000 -
b00000000000000000000000000000000 /
b00000000000000000000000000000000 0
08
b00000000000000000000000000000000 ?
b0010011 A
1D
0E
1j
#26
0j
#27
b10000000000000000000000000110000 #
b00000000000100000000000001110011 $
0&
b0000 '
b000000 (
b00000 *
b00001 +
b00000 ,
b10000000000000000000000000101100 .
16
0<
b1110011 A
0D
1j
