wave.vcd
$version Generated by VerilatedVcd $end
$timescale 1s $end

 $scope module TOP $end
  $var wire  1 j clk $end
  $var wire 32 l ifu_idu_inst [31:0] $end
  $var wire 32 m lsu_pc [31:0] $end
  $var wire  1 k reset $end
  $scope module top $end
   $var wire 32 + addr_load [31:0] $end
   $var wire 32 + addr_store [31:0] $end
   $var wire  4 $ alu_cnt [3:0] $end
   $var wire  1 t auipc $end
   $var wire  1 j clk $end
   $var wire 32 , data_load [31:0] $end
   $var wire 32 * data_store [31:0] $end
   $var wire  1 v ebreak $end
   $var wire  1 4 exu_idu_ready $end
   $var wire  1 5 exu_mem_valid $end
   $var wire 32 ; exu_pc [31:0] $end
   $var wire  1 3 idu_exu_valid $end
   $var wire  1 2 idu_ifu_ready $end
   $var wire 32 : idu_pc [31:0] $end
   $var wire 32 l ifu_idu_inst [31:0] $end
   $var wire  1 1 ifu_idu_valid $end
   $var wire 32 9 ifu_pc [31:0] $end
   $var wire 32 & imm [31:0] $end
   $var wire  6 o ins_cnt [5:0] $end
   $var wire  1 w load $end
   $var wire  4 # lsu_cnt [3:0] $end
   $var wire  1 8 lsu_mem_ready $end
   $var wire 32 m lsu_pc [31:0] $end
   $var wire  1 u lui $end
   $var wire  1 n mem_cnt $end
   $var wire  1 6 mem_exu_ready $end
   $var wire  1 7 mem_lsu_valid $end
   $var wire 32 < mem_pc [31:0] $end
   $var wire  4 % pc_cnt [3:0] $end
   $var wire  5 p raddr1 [4:0] $end
   $var wire  5 q raddr2 [4:0] $end
   $var wire 32 ) rdata1 [31:0] $end
   $var wire 32 * rdata2 [31:0] $end
   $var wire  1 k reset $end
   $var wire  5 r waddr [4:0] $end
   $var wire 32 s wdata [31:0] $end
   $scope module exu_t0 $end
    $var wire  1 y BType $end
    $var wire  1 #! IDLE [0:0] $end
    $var wire  1 ( IType $end
    $var wire  1 x JType $end
    $var wire  1 $! READY [0:0] $end
    $var wire  1 { RType $end
    $var wire  1 z SType $end
    $var wire  1 ' UType $end
    $var wire 32 - alu_a [31:0] $end
    $var wire 32 . alu_b [31:0] $end
    $var wire  4 $ alu_cnt [3:0] $end
    $var wire 32 s alu_result [31:0] $end
    $var wire  1 t auipc $end
    $var wire  1 / br_taken $end
    $var wire  1 5 c_state $end
    $var wire  1 j clk $end
    $var wire 32 , data_load [31:0] $end
    $var wire  1 v ebreak $end
    $var wire  1 4 exu_idu_ready $end
    $var wire  1 5 exu_mem_valid $end
    $var wire  1 3 idu_exu_valid $end
    $var wire 32 & imm [31:0] $end
    $var wire  6 o ins_cnt [5:0] $end
    $var wire  1 w load $end
    $var wire  1 u lui $end
    $var wire  1 6 mem_exu_ready $end
    $var wire  1 = n_state $end
    $var wire  4 % pc_cnt [3:0] $end
    $var wire 32 > pc_exu [31:0] $end
    $var wire 32 : pc_in [31:0] $end
    $var wire 32 ; pc_out [31:0] $end
    $var wire 32 ) rdata1 [31:0] $end
    $var wire 32 * rdata2 [31:0] $end
    $var wire  1 k reset $end
   $upscope $end
   $scope module idu_t0 $end
    $var wire  1 y BType $end
    $var wire  1 #! IDLE [0:0] $end
    $var wire  1 ( IType $end
    $var wire  1 "! I_imm $end
    $var wire  1 x JType $end
    $var wire  1 $! READY [0:0] $end
    $var wire  1 { RType $end
    $var wire  1 z SType $end
    $var wire  1 ' UType $end
    $var wire  4 $ alu_cnt [3:0] $end
    $var wire  1 t auipc $end
    $var wire  1 3 c_state $end
    $var wire  1 j clk $end
    $var wire  1 v ebreak $end
    $var wire  1 4 exu_idu_ready $end
    $var wire  3 } fun3 [2:0] $end
    $var wire  7 ~ fun7 [6:0] $end
    $var wire  1 3 idu_exu_valid $end
    $var wire  1 2 idu_ifu_ready $end
    $var wire  1 1 ifu_idu_valid $end
    $var wire 32 & imm [31:0] $end
    $var wire  6 o ins_cnt [5:0] $end
    $var wire 32 l inst [31:0] $end
    $var wire  1 !! jalr $end
    $var wire  1 w load $end
    $var wire  4 # lsu_cnt [3:0] $end
    $var wire  1 u lui $end
    $var wire  1 n mem_cnt $end
    $var wire  1 @ n_state $end
    $var wire  7 | opcode [6:0] $end
    $var wire  4 % pc_cnt [3:0] $end
    $var wire 32 ? pc_idu [31:0] $end
    $var wire 32 9 pc_in [31:0] $end
    $var wire 32 : pc_out [31:0] $end
    $var wire  5 r rd [4:0] $end
    $var wire  1 k reset $end
    $var wire  5 p rs1 [4:0] $end
    $var wire  5 q rs2 [4:0] $end
   $upscope $end
   $scope module ifu_t0 $end
    $var wire  1 #! IDLE [0:0] $end
    $var wire  1 $! READY [0:0] $end
    $var wire  1 1 c_state $end
    $var wire  1 j clk $end
    $var wire  1 2 idu_ifu_ready $end
    $var wire  1 1 ifu_idu_valid $end
    $var wire  1 B n_state $end
    $var wire 32 A pc_ifu [31:0] $end
    $var wire 32 m pc_in [31:0] $end
    $var wire 32 9 pc_out [31:0] $end
    $var wire  1 k reset $end
   $upscope $end
   $scope module lsu_t0 $end
    $var wire  1 #! IDLE [0:0] $end
    $var wire  1 $! READY [0:0] $end
    $var wire 32 + addr_load [31:0] $end
    $var wire 32 + addr_store [31:0] $end
    $var wire  1 D c_state $end
    $var wire  1 j clk $end
    $var wire 32 , data_load [31:0] $end
    $var wire 32 * data_store [31:0] $end
    $var wire  4 # lsu_cnt [3:0] $end
    $var wire  1 8 lsu_mem_ready $end
    $var wire  1 7 mem_lsu_valid $end
    $var wire  1 E n_state $end
    $var wire 32 < pc_in [31:0] $end
    $var wire 32 C pc_lsu [31:0] $end
    $var wire 32 m pc_out [31:0] $end
    $var wire  1 k reset $end
    $var wire 32 0 temp [31:0] $end
   $upscope $end
   $scope module mem_t0 $end
    $var wire  2 %! IDLE [1:0] $end
    $var wire  2 '! READY [1:0] $end
    $var wire  2 &! WORK [1:0] $end
    $var wire  2 g c_state [1:0] $end
    $var wire  1 j clk $end
    $var wire  1 5 exu_mem_valid $end
    $var wire  1 8 lsu_mem_ready $end
    $var wire  1 n mem_cnt $end
    $var wire  1 6 mem_exu_ready $end
    $var wire  1 7 mem_lsu_valid $end
    $var wire  2 h n_state [1:0] $end
    $var wire 32 ; pc_in [31:0] $end
    $var wire 32 F pc_mem [31:0] $end
    $var wire 32 < pc_out [31:0] $end
    $var wire  5 p raddr1 [4:0] $end
    $var wire  5 q raddr2 [4:0] $end
    $var wire 32 ) rdata1 [31:0] $end
    $var wire 32 * rdata2 [31:0] $end
    $var wire  1 k reset $end
    $var wire 32 G rf[0] [31:0] $end
    $var wire 32 Q rf[10] [31:0] $end
    $var wire 32 R rf[11] [31:0] $end
    $var wire 32 S rf[12] [31:0] $end
    $var wire 32 T rf[13] [31:0] $end
    $var wire 32 U rf[14] [31:0] $end
    $var wire 32 V rf[15] [31:0] $end
    $var wire 32 W rf[16] [31:0] $end
    $var wire 32 X rf[17] [31:0] $end
    $var wire 32 Y rf[18] [31:0] $end
    $var wire 32 Z rf[19] [31:0] $end
    $var wire 32 H rf[1] [31:0] $end
    $var wire 32 [ rf[20] [31:0] $end
    $var wire 32 \ rf[21] [31:0] $end
    $var wire 32 ] rf[22] [31:0] $end
    $var wire 32 ^ rf[23] [31:0] $end
    $var wire 32 _ rf[24] [31:0] $end
    $var wire 32 ` rf[25] [31:0] $end
    $var wire 32 a rf[26] [31:0] $end
    $var wire 32 b rf[27] [31:0] $end
    $var wire 32 c rf[28] [31:0] $end
    $var wire 32 d rf[29] [31:0] $end
    $var wire 32 I rf[2] [31:0] $end
    $var wire 32 e rf[30] [31:0] $end
    $var wire 32 f rf[31] [31:0] $end
    $var wire 32 J rf[3] [31:0] $end
    $var wire 32 K rf[4] [31:0] $end
    $var wire 32 L rf[5] [31:0] $end
    $var wire 32 M rf[6] [31:0] $end
    $var wire 32 N rf[7] [31:0] $end
    $var wire 32 O rf[8] [31:0] $end
    $var wire 32 P rf[9] [31:0] $end
    $var wire  5 r waddr [4:0] $end
    $var wire 32 s wdata [31:0] $end
    $var wire  1 n wen $end
    $scope module unnamedblk1 $end
     $var wire 32 i i [31:0] $end
    $upscope $end
   $upscope $end
  $upscope $end
 $upscope $end
$enddefinitions $end


#1
b0000 #
b0000 $
b0000 %
b00000000000000000000000000000000 &
0'
0(
b00000000000000000000000000000000 )
b00000000000000000000000000000000 *
b00000000000000000000000000000000 +
b00000000000000000000000000000000 ,
b00000000000000000000000000000000 -
b00000000000000000000000000000000 .
0/
b00000000000000000000000000000000 0
01
12
03
14
05
16
07
18
b00000000000000000000000000000000 9
b00000000000000000000000000000000 :
b00000000000000000000000000000000 ;
b00000000000000000000000000000000 <
0=
b00000000000000000000000000000000 >
b00000000000000000000000000000000 ?
0@
b00000000000000000000000000000000 A
1B
b00000000000000000000000000000000 C
0D
0E
b00000000000000000000000000000000 F
b00000000000000000000000000000000 G
b00000000000000000000000000000000 H
b00000000000000000000000000000000 I
b00000000000000000000000000000000 J
b00000000000000000000000000000000 K
b00000000000000000000000000000000 L
b00000000000000000000000000000000 M
b00000000000000000000000000000000 N
b00000000000000000000000000000000 O
b00000000000000000000000000000000 P
b00000000000000000000000000000000 Q
b00000000000000000000000000000000 R
b00000000000000000000000000000000 S
b00000000000000000000000000000000 T
b00000000000000000000000000000000 U
b00000000000000000000000000000000 V
b00000000000000000000000000000000 W
b00000000000000000000000000000000 X
b00000000000000000000000000000000 Y
b00000000000000000000000000000000 Z
b00000000000000000000000000000000 [
b00000000000000000000000000000000 \
b00000000000000000000000000000000 ]
b00000000000000000000000000000000 ^
b00000000000000000000000000000000 _
b00000000000000000000000000000000 `
b00000000000000000000000000000000 a
b00000000000000000000000000000000 b
b00000000000000000000000000000000 c
b00000000000000000000000000000000 d
b00000000000000000000000000000000 e
b00000000000000000000000000000000 f
b00 g
b00 h
b00000000000000000000000000000000 i
1j
1k
b00000000000000000000000000000000 l
b00000000000000000000000000000000 m
0n
b000000 o
b00000 p
b00000 q
b00000 r
b00000000000000000000000000000000 s
0t
0u
0v
0w
0x
0y
0z
0{
b0000000 |
b000 }
b0000000 ~
0!!
0"!
0#!
1$!
b00 %!
b01 &!
b10 '!
#2
0j
#3
b10000000000000000000000000000000 >
b10000000000000000000000000000000 ?
b10000000000000000000000000000000 A
b10000000000000000000000000000000 C
b10000000000000000000000000000000 F
b00000000000000000000000000100000 i
1j
#4
0j
#5
11
1@
b00000000000000000000000000000000 A
0B
1j
0k
#6
0j
#7
01
02
13
1=
b00000000000000000000000000000000 ?
0@
1j
#8
0j
#9
12
03
04
15
0=
b00000000000000000000000000000100 >
1B
b10 h
1j
#10
0j
#11
11
14
05
06
17
b00000000000000000000000000000100 ;
1@
0B
1E
b00000000000000000000000000000000 F
b10 g
b00 h
1j
#12
0j
#13
01
02
13
16
07
08
1=
0@
b00000000000000000000000000000000 C
1D
0E
b00 g
1j
#14
0j
#15
12
03
04
15
18
0=
1B
0D
b10 h
1j
#16
0j
#17
11
14
05
06
17
1@
0B
1E
b00000000000000000000000000000100 F
b10 g
b00 h
1j
#18
0j
#19
01
02
13
16
07
08
b00000000000000000000000000000100 <
1=
0@
1D
0E
b00 g
1j
#20
0j
#21
12
03
04
15
18
0=
1B
0D
b10 h
1j
#22
0j
#23
11
14
05
06
17
1@
0B
1E
b10 g
b00 h
1j
#24
0j
#25
01
02
13
16
07
08
1=
0@
b00000000000000000000000000000100 C
1D
0E
b00 g
1j
#26
0j
#27
12
03
04
15
18
0=
1B
0D
b10 h
1j
b00000000000000000000000000000100 m
#28
0j
#29
11
14
05
06
17
1@
b00000000000000000000000000000100 A
0B
1E
b10 g
b00 h
1j
#30
0j
#31
01
02
13
16
07
08
b00000000000000000000000000000100 9
1=
0@
1D
0E
b00 g
1j
#32
0j
#33
12
03
04
15
18
0=
1B
0D
b10 h
1j
#34
0j
#35
11
14
05
06
17
1@
0B
1E
b10 g
b00 h
1j
#36
0j
#37
01
02
13
16
07
08
1=
b00000000000000000000000000000100 ?
0@
1D
0E
b00 g
1j
#38
0j
#39
12
03
04
15
18
b00000000000000000000000000000100 :
0=
1B
0D
b10 h
1j
#40
0j
#41
11
14
05
06
17
1@
0B
1E
b10 g
b00 h
1j
#42
0j
#43
01
02
13
16
07
08
1=
0@
1D
0E
b00 g
1j
#44
0j
#45
12
03
04
15
18
0=
b00000000000000000000000000001000 >
1B
0D
b10 h
1j
#46
0j
#47
11
14
05
06
17
b00000000000000000000000000001000 ;
1@
0B
1E
b10 g
b00 h
1j
#48
0j
#49
01
02
13
16
07
08
1=
0@
1D
0E
b00 g
1j
#50
0j
#51
12
03
04
15
18
0=
1B
0D
b10 h
1j
#52
0j
#53
11
14
05
06
17
1@
0B
1E
b00000000000000000000000000001000 F
b10 g
b00 h
1j
#54
0j
#55
01
02
13
16
07
08
b00000000000000000000000000001000 <
1=
0@
1D
0E
b00 g
1j
#56
0j
#57
12
03
04
15
18
0=
1B
0D
b10 h
1j
#58
0j
#59
11
14
05
06
17
1@
0B
1E
b10 g
b00 h
1j
#60
0j
#61
01
02
13
16
07
08
1=
0@
b00000000000000000000000000001000 C
1D
0E
b00 g
1j
#62
0j
#63
12
03
04
15
18
0=
1B
0D
b10 h
1j
b00000000000000000000000000001000 m
#64
0j
#65
11
14
05
06
17
1@
b00000000000000000000000000001000 A
0B
1E
b10 g
b00 h
1j
#66
0j
#67
01
02
13
16
07
08
b00000000000000000000000000001000 9
1=
0@
1D
0E
b00 g
1j
#68
0j
#69
12
03
04
15
18
0=
1B
0D
b10 h
1j
#70
0j
#71
11
14
05
06
17
1@
0B
1E
b10 g
b00 h
1j
#72
0j
#73
01
02
13
16
07
08
1=
b00000000000000000000000000001000 ?
0@
1D
0E
b00 g
1j
#74
0j
#75
12
03
04
15
18
b00000000000000000000000000001000 :
0=
1B
0D
b10 h
1j
#76
0j
#77
11
14
05
06
17
1@
0B
1E
b10 g
b00 h
1j
#78
0j
#79
01
02
13
16
07
08
1=
0@
1D
0E
b00 g
1j
#80
0j
#81
12
03
04
15
18
0=
b00000000000000000000000000001100 >
1B
0D
b10 h
1j
#82
0j
#83
11
14
05
06
17
b00000000000000000000000000001100 ;
1@
0B
1E
b10 g
b00 h
1j
#84
0j
#85
01
02
13
16
07
08
1=
0@
1D
0E
b00 g
1j
#86
0j
#87
12
03
04
15
18
0=
1B
0D
b10 h
1j
#88
0j
#89
11
14
05
06
17
1@
0B
1E
b00000000000000000000000000001100 F
b10 g
b00 h
1j
#90
0j
#91
01
02
13
16
07
08
b00000000000000000000000000001100 <
1=
0@
1D
0E
b00 g
1j
#92
0j
#93
12
03
04
15
18
0=
1B
0D
b10 h
1j
#94
0j
#95
11
14
05
06
17
1@
0B
1E
b10 g
b00 h
1j
#96
0j
#97
01
02
13
16
07
08
1=
0@
b00000000000000000000000000001100 C
1D
0E
b00 g
1j
#98
0j
#99
12
03
04
15
18
0=
1B
0D
b10 h
1j
b00000000000000000000000000001100 m
