wave.vcd
$version Generated by VerilatedVcd $end
$timescale 1s $end

 $scope module TOP $end
  $var wire  1 k clk $end
  $var wire  1 l reset $end
  $scope module top $end
   $var wire 32 0 addr_load [31:0] $end
   $var wire 32 0 addr_store [31:0] $end
   $var wire  4 ' alu_cnt [3:0] $end
   $var wire  1 4 auipc $end
   $var wire  1 3 br_taken $end
   $var wire  1 k clk $end
   $var wire 32 1 data_load [31:0] $end
   $var wire 32 . data_store [31:0] $end
   $var wire  1 6 ebreak $end
   $var wire 32 # ifu_pc [31:0] $end
   $var wire 32 2 imm [31:0] $end
   $var wire  6 ( ins_cnt [5:0] $end
   $var wire 32 $ inst [31:0] $end
   $var wire  1 9 jal $end
   $var wire  1 8 jalr $end
   $var wire  1 7 load $end
   $var wire  4 % lsu_cnt [3:0] $end
   $var wire  1 5 lui $end
   $var wire  1 & mem_cnt $end
   $var wire  4 ) pc_cnt [3:0] $end
   $var wire  5 * raddr1 [4:0] $end
   $var wire  5 + raddr2 [4:0] $end
   $var wire 32 - rdata1 [31:0] $end
   $var wire 32 . rdata2 [31:0] $end
   $var wire  1 l reset $end
   $var wire  5 , waddr [4:0] $end
   $var wire 32 / wdata [31:0] $end
   $scope module exu_t0 $end
    $var wire  1 ; BType $end
    $var wire  1 < IType $end
    $var wire  1 9 JType $end
    $var wire  1 > RType $end
    $var wire  1 = SType $end
    $var wire  1 : UType $end
    $var wire 32 ? alu_a [31:0] $end
    $var wire 32 @ alu_b [31:0] $end
    $var wire  4 ' alu_cnt [3:0] $end
    $var wire 32 / alu_result [31:0] $end
    $var wire  1 4 auipc $end
    $var wire  1 3 br_taken $end
    $var wire 32 1 data_load [31:0] $end
    $var wire 32 2 imm [31:0] $end
    $var wire  6 ( ins_cnt [5:0] $end
    $var wire  1 9 jal $end
    $var wire  1 8 jalr $end
    $var wire  1 7 load $end
    $var wire  1 5 lui $end
    $var wire  4 ) pc_cnt [3:0] $end
    $var wire 32 # pc_in [31:0] $end
    $var wire 32 - rdata1 [31:0] $end
    $var wire 32 . rdata2 [31:0] $end
   $upscope $end
   $scope module idu_t0 $end
    $var wire  1 ; BType $end
    $var wire  1 < IType $end
    $var wire  1 D I_imm $end
    $var wire  1 9 JType $end
    $var wire  1 > RType $end
    $var wire  1 = SType $end
    $var wire  1 : UType $end
    $var wire  4 ' alu_cnt [3:0] $end
    $var wire  1 4 auipc $end
    $var wire  1 6 ebreak $end
    $var wire  3 B fun3 [2:0] $end
    $var wire  7 C fun7 [6:0] $end
    $var wire 32 2 imm [31:0] $end
    $var wire  6 ( ins_cnt [5:0] $end
    $var wire 32 $ inst [31:0] $end
    $var wire  1 9 jal $end
    $var wire  1 8 jalr $end
    $var wire  1 7 load $end
    $var wire  4 % lsu_cnt [3:0] $end
    $var wire  1 5 lui $end
    $var wire  1 & mem_cnt $end
    $var wire  7 A opcode [6:0] $end
    $var wire  4 ) pc_cnt [3:0] $end
    $var wire  5 , rd [4:0] $end
    $var wire  5 * rs1 [4:0] $end
    $var wire  5 + rs2 [4:0] $end
   $upscope $end
   $scope module ifu_t0 $end
    $var wire  1 3 br_taken $end
    $var wire  1 G bxx $end
    $var wire  1 k clk $end
    $var wire 32 2 imm [31:0] $end
    $var wire 32 $ inst [31:0] $end
    $var wire  1 F jal $end
    $var wire  1 E jalr $end
    $var wire  4 ) pc_cnt [3:0] $end
    $var wire 32 # pc_out [31:0] $end
    $var wire  1 l reset $end
    $var wire 32 - ret [31:0] $end
    $var wire 32 H target_pc [31:0] $end
   $upscope $end
   $scope module lsu_t0 $end
    $var wire 32 0 addr_load [31:0] $end
    $var wire 32 0 addr_store [31:0] $end
    $var wire 32 1 data_load [31:0] $end
    $var wire 32 . data_store [31:0] $end
    $var wire  4 % lsu_cnt [3:0] $end
    $var wire 32 I temp [31:0] $end
   $upscope $end
   $scope module mem_t0 $end
    $var wire  1 k clk $end
    $var wire  1 6 ebreak $end
    $var wire  1 & mem_cnt $end
    $var wire 32 # pc_in [31:0] $end
    $var wire  5 * raddr1 [4:0] $end
    $var wire  5 + raddr2 [4:0] $end
    $var wire 32 - rdata1 [31:0] $end
    $var wire 32 . rdata2 [31:0] $end
    $var wire  1 l reset $end
    $var wire 32 J rf[0] [31:0] $end
    $var wire 32 T rf[10] [31:0] $end
    $var wire 32 U rf[11] [31:0] $end
    $var wire 32 V rf[12] [31:0] $end
    $var wire 32 W rf[13] [31:0] $end
    $var wire 32 X rf[14] [31:0] $end
    $var wire 32 Y rf[15] [31:0] $end
    $var wire 32 Z rf[16] [31:0] $end
    $var wire 32 [ rf[17] [31:0] $end
    $var wire 32 \ rf[18] [31:0] $end
    $var wire 32 ] rf[19] [31:0] $end
    $var wire 32 K rf[1] [31:0] $end
    $var wire 32 ^ rf[20] [31:0] $end
    $var wire 32 _ rf[21] [31:0] $end
    $var wire 32 ` rf[22] [31:0] $end
    $var wire 32 a rf[23] [31:0] $end
    $var wire 32 b rf[24] [31:0] $end
    $var wire 32 c rf[25] [31:0] $end
    $var wire 32 d rf[26] [31:0] $end
    $var wire 32 e rf[27] [31:0] $end
    $var wire 32 f rf[28] [31:0] $end
    $var wire 32 g rf[29] [31:0] $end
    $var wire 32 L rf[2] [31:0] $end
    $var wire 32 h rf[30] [31:0] $end
    $var wire 32 i rf[31] [31:0] $end
    $var wire 32 M rf[3] [31:0] $end
    $var wire 32 N rf[4] [31:0] $end
    $var wire 32 O rf[5] [31:0] $end
    $var wire 32 P rf[6] [31:0] $end
    $var wire 32 Q rf[7] [31:0] $end
    $var wire 32 R rf[8] [31:0] $end
    $var wire 32 S rf[9] [31:0] $end
    $var wire  5 , waddr [4:0] $end
    $var wire 32 / wdata [31:0] $end
    $var wire  1 & wen $end
    $scope module unnamedblk1 $end
     $var wire 32 j i [31:0] $end
    $upscope $end
   $upscope $end
  $upscope $end
 $upscope $end
$enddefinitions $end


#1
b00000000000000000000000000000000 #
b00000000000000000000000000000000 $
b0000 %
0&
b0000 '
b000000 (
b0000 )
b00000 *
b00000 +
b00000 ,
b00000000000000000000000000000000 -
b00000000000000000000000000000000 .
b00000000000000000000000000000000 /
b00000000000000000000000000000000 0
b00000000000000000000000000000000 1
b00000000000000000000000000000000 2
03
04
05
06
07
08
09
0:
0;
0<
0=
0>
b00000000000000000000000000000000 ?
b00000000000000000000000000000000 @
b0000000 A
b000 B
b0000000 C
0D
0E
0F
0G
b00000000000000000000000000000100 H
b00000000000000000000000000000000 I
b00000000000000000000000000000000 J
b00000000000000000000000000000000 K
b00000000000000000000000000000000 L
b00000000000000000000000000000000 M
b00000000000000000000000000000000 N
b00000000000000000000000000000000 O
b00000000000000000000000000000000 P
b00000000000000000000000000000000 Q
b00000000000000000000000000000000 R
b00000000000000000000000000000000 S
b00000000000000000000000000000000 T
b00000000000000000000000000000000 U
b00000000000000000000000000000000 V
b00000000000000000000000000000000 W
b00000000000000000000000000000000 X
b00000000000000000000000000000000 Y
b00000000000000000000000000000000 Z
b00000000000000000000000000000000 [
b00000000000000000000000000000000 \
b00000000000000000000000000000000 ]
b00000000000000000000000000000000 ^
b00000000000000000000000000000000 _
b00000000000000000000000000000000 `
b00000000000000000000000000000000 a
b00000000000000000000000000000000 b
b00000000000000000000000000000000 c
b00000000000000000000000000000000 d
b00000000000000000000000000000000 e
b00000000000000000000000000000000 f
b00000000000000000000000000000000 g
b00000000000000000000000000000000 h
b00000000000000000000000000000000 i
b00000000000000000000000000000000 j
1k
1l
#2
0k
#3
b10000000000000000000000000000000 #
b00000000000000000000010000010011 $
1&
b0001 '
b000100 (
b01000 ,
1<
b0010011 A
1D
b10000000000000000000000000000100 H
b00000000000000000000000000100000 j
1k
#4
0k
#5
b10000000000000000000000000000100 #
b00000000000000001001000100010111 $
b100000 (
b00001 *
b00010 ,
b10000000000000001001000000000100 /
b00000000000000001001000000000000 0
b00000000000000001001000000000000 2
14
1:
0<
b10000000000000000000000000000100 ?
b00000000000000001001000000000000 @
b0010111 A
b001 B
0D
b10000000000000000000000000001000 H
1k
0l
#6
0k
#7
b10000000000000000000000000001000 #
b11111111110000010000000100010011 $
b000100 (
b00010 *
b11100 +
b10000000000000001001000000000100 -
b10000000000000001001000000000000 /
b10000000000000001001000000000000 0
b11111111111111111111111111111100 2
04
0:
1<
b10000000000000001001000000000100 ?
b11111111111111111111111111111100 @
b0010011 A
b000 B
b1111111 C
1D
b10000000000000000000000000001100 H
b10000000000000001001000000000100 L
1k
#8
0k
#9
b10000000000000000000000000001100 #
b00001111110000000000000011101111 $
b010000 (
b0111 )
b00000 *
b00001 ,
b00000000000000000000000000000000 -
b10000000000000000000000000010000 /
b00000000000000000000000011111100 0
b00000000000000000000000011111100 2
19
0<
b10000000000000000000000000001100 ?
b00000000000000000000000000000100 @
b1101111 A
b0000111 C
0D
1F
b10000000000000000000000100001000 H
b10000000000000001001000000000000 L
1k
#10
0k
#11
b10000000000000000000000100001000 #
b11111111000000010000000100010011 $
b000100 (
b0000 )
b00010 *
b10000 +
b00010 ,
b10000000000000001001000000000000 -
b10000000000000001000111111110000 /
b10000000000000001000111111110000 0
b11111111111111111111111111110000 2
09
1<
b10000000000000001001000000000000 ?
b11111111111111111111111111110000 @
b0010011 A
b1111111 C
1D
0F
b10000000000000000000000100001100 H
b10000000000000000000000000010000 K
1k
#12
0k
#13
b10000000000000000000000100001100 #
b00000000000000000000010100010111 $
b100000 (
b00000 *
b00000 +
b01010 ,
b00000000000000000000000000000000 -
b10000000000000000000000100001100 /
b00000000000000000000000000000000 0
b00000000000000000000000000000000 2
14
1:
0<
b10000000000000000000000100001100 ?
b00000000000000000000000000000000 @
b0010111 A
b0000000 C
0D
b10000000000000000000000100010000 H
b10000000000000001000111111110000 L
1k
#14
0k
#15
b10000000000000000000000100010000 #
b00000001110001010000010100010011 $
b000100 (
b01010 *
b11100 +
b10000000000000000000000100001100 -
b10000000000000000000000100101000 /
b10000000000000000000000100101000 0
b00000000000000000000000000011100 2
04
0:
1<
b00000000000000000000000000011100 @
b0010011 A
1D
b10000000000000000000000100010100 H
b10000000000000000000000100001100 T
1k
#16
0k
#17
b10000000000000000000000100010100 #
b00000000000100010010011000100011 $
b0011 %
0&
b0000 '
b000010 (
b00010 *
b00001 +
b01100 ,
b10000000000000001000111111110000 -
b10000000000000000000000000010000 .
b00000000000000000000000000000000 /
b10000000000000001000111111111100 0
b00000000000000000000000000001100 2
0<
1=
b10000000000000001000111111110000 ?
b10000000000000000000000000010000 @
b0100011 A
b010 B
0D
b10000000000000000000000100011000 H
b10000000000000000000000100101000 T
1k
#18
0k
#19
b10000000000000000000000100011000 #
b11110001000111111111000011101111 $
b0000 %
1&
b0001 '
b010000 (
b0111 )
b11111 *
b10001 +
b00001 ,
b00000000000000000000000000000000 -
b00000000000000000000000000000000 .
b10000000000000000000000100011100 /
b11111111111111111111111100010000 0
b11111111111111111111111100010000 2
19
0=
b10000000000000000000000100011000 ?
b00000000000000000000000000000100 @
b1101111 A
b111 B
b1111000 C
1F
b10000000000000000000000000101000 H
1k
#20
0k
#21
b10000000000000000000000000101000 #
b11111101000000010000000100010011 $
b000100 (
b0000 )
b00010 *
b10000 +
b00010 ,
b10000000000000001000111111110000 -
b10000000000000001000111111000000 /
b10000000000000001000111111000000 0
b11111111111111111111111111010000 2
09
1<
b10000000000000001000111111110000 ?
b11111111111111111111111111010000 @
b0010011 A
b000 B
b1111110 C
1D
0F
b10000000000000000000000000101100 H
b10000000000000000000000100011100 K
1k
#22
0k
#23
b10000000000000000000000000101100 #
b00000001011100010010011000100011 $
b0011 %
0&
b0000 '
b000010 (
b10111 +
b01100 ,
b10000000000000001000111111000000 -
b00000000000000000000000000000000 /
b10000000000000001000111111001100 0
b00000000000000000000000000001100 2
0<
1=
b10000000000000001000111111000000 ?
b00000000000000000000000000000000 @
b0100011 A
b010 B
b0000000 C
0D
b10000000000000000000000000110000 H
b10000000000000001000111111000000 L
1k
#24
0k
#25
b10000000000000000000000000110000 #
b00000000000000000000101110010111 $
b0000 %
1&
b0001 '
b100000 (
b00000 *
b00000 +
b10111 ,
b00000000000000000000000000000000 -
b10000000000000000000000000110000 /
b00000000000000000000000000000000 0
b00000000000000000000000000000000 2
14
1:
0=
b10000000000000000000000000110000 ?
b0010111 A
b000 B
b10000000000000000000000000110100 H
1k
#26
0k
#27
b10000000000000000000000000110100 #
b00011111110010111000101110010011 $
b000100 (
b10111 *
b11100 +
b10000000000000000000000000110000 -
b10000000000000000000001000101100 /
b10000000000000000000001000101100 0
b00000000000000000000000111111100 2
04
0:
1<
b00000000000000000000000111111100 @
b0010011 A
b0001111 C
1D
b10000000000000000000000000111000 H
b10000000000000000000000000110000 a
1k
#28
0k
#29
b10000000000000000000000000111000 #
b00000001001100010010111000100011 $
b0011 %
0&
b0000 '
b000010 (
b00010 *
b10011 +
b11100 ,
b10000000000000001000111111000000 -
b00000000000000000000000000000000 /
b10000000000000001000111111011100 0
b00000000000000000000000000011100 2
0<
1=
b10000000000000001000111111000000 ?
b00000000000000000000000000000000 @
b0100011 A
b010 B
b0000000 C
0D
b10000000000000000000000000111100 H
b10000000000000000000001000101100 a
1k
#30
0k
#31
b10000000000000000000000000111100 #
b00000001010000010010110000100011 $
b10100 +
b11000 ,
b10000000000000001000111111011000 0
b00000000000000000000000000011000 2
b10000000000000000000000001000000 H
1k
#32
0k
#33
b10000000000000000000000001000000 #
b00000001010100010010101000100011 $
b10101 +
b10100 ,
b10000000000000001000111111010100 0
b00000000000000000000000000010100 2
b10000000000000000000000001000100 H
1k
#34
0k
#35
b10000000000000000000000001000100 #
b00000001011000010010100000100011 $
b10110 +
b10000 ,
b10000000000000001000111111010000 0
b00000000000000000000000000010000 2
b10000000000000000000000001001000 H
1k
#36
0k
#37
b10000000000000000000000001001000 #
b00000001100000010010010000100011 $
b11000 +
b01000 ,
b10000000000000001000111111001000 0
b00000000000000000000000000001000 2
b10000000000000000000000001001100 H
1k
#38
0k
#39
b10000000000000000000000001001100 #
b00000010000100010010011000100011 $
b00001 +
b01100 ,
b10000000000000000000000100011100 .
b10000000000000001000111111101100 0
b00000000000000000000000000101100 2
b10000000000000000000000100011100 @
b0000001 C
b10000000000000000000000001010000 H
1k
#40
0k
#41
b10000000000000000000000001010000 #
b00000010100000010010010000100011 $
b01000 +
b01000 ,
b00000000000000000000000000000000 .
b10000000000000001000111111101000 0
b00000000000000000000000000101000 2
b00000000000000000000000000000000 @
b10000000000000000000000001010100 H
1k
#42
0k
#43
b10000000000000000000000001010100 #
b00000010100100010010001000100011 $
b01001 +
b00100 ,
b10000000000000001000111111100100 0
b00000000000000000000000000100100 2
b10000000000000000000000001011000 H
1k
#44
0k
#45
b10000000000000000000000001011000 #
b00000011001000010010000000100011 $
b10010 +
b00000 ,
b10000000000000001000111111100000 0
b00000000000000000000000000100000 2
b10000000000000000000000001011100 H
1k
#46
0k
#47
b10000000000000000000000001011100 #
b00000000000000000000101100010111 $
b0000 %
1&
b0001 '
b100000 (
b00000 *
b00000 +
b10110 ,
b00000000000000000000000000000000 -
b10000000000000000000000001011100 /
b00000000000000000000000000000000 0
b00000000000000000000000000000000 2
14
1:
0=
b10000000000000000000000001011100 ?
b0010111 A
b000 B
b0000000 C
b10000000000000000000000001100000 H
1k
#48
0k
#49
b10000000000000000000000001100000 #
b00001101000010110000101100010011 $
b000100 (
b10110 *
b10000 +
b10000000000000000000000001011100 -
b10000000000000000000000100101100 /
b10000000000000000000000100101100 0
b00000000000000000000000011010000 2
04
0:
1<
b00000000000000000000000011010000 @
b0010011 A
b0000110 C
1D
b10000000000000000000000001100100 H
b10000000000000000000000001011100 `
1k
#50
0k
#51
b10000000000000000000000001100100 #
b00000000000010111000101010010011 $
b10111 *
b00000 +
b10101 ,
b10000000000000000000001000101100 -
b10000000000000000000001000101100 /
b10000000000000000000001000101100 0
b00000000000000000000000000000000 2
b10000000000000000000001000101100 ?
b00000000000000000000000000000000 @
b0000000 C
b10000000000000000000000001101000 H
b10000000000000000000000100101100 `
1k
#52
0k
#53
b10000000000000000000000001101000 #
b00000000000000000000101000010011 $
b00000 *
b10100 ,
b00000000000000000000000000000000 -
b00000000000000000000000000000000 /
b00000000000000000000000000000000 0
b00000000000000000000000000000000 ?
b10000000000000000000000001101100 H
b10000000000000000000001000101100 _
1k
#54
0k
#55
b10000000000000000000000001101100 #
b00000000000000000000100110010111 $
b100000 (
b10011 ,
b10000000000000000000000001101100 /
14
1:
0<
b10000000000000000000000001101100 ?
b0010111 A
0D
b10000000000000000000000001110000 H
1k
#56
0k
#57
b10000000000000000000000001110000 #
b00011110000010011000100110010011 $
b000100 (
b10011 *
b10000000000000000000000001101100 -
b10000000000000000000001001001100 /
b10000000000000000000001001001100 0
b00000000000000000000000111100000 2
04
0:
1<
b00000000000000000000000111100000 @
b0010011 A
b0001111 C
1D
b10000000000000000000000001110100 H
b10000000000000000000000001101100 ]
1k
#58
0k
#59
b10000000000000000000000001110100 #
b00000100000000000000110000010011 $
b00000 *
b11000 ,
b00000000000000000000000000000000 -
b00000000000000000000000001000000 /
b00000000000000000000000001000000 0
b00000000000000000000000001000000 2
b00000000000000000000000000000000 ?
b00000000000000000000000001000000 @
b0000010 C
b10000000000000000000000001111000 H
b10000000000000000000001001001100 ]
1k
#60
0k
#61
b10000000000000000000000001111000 #
b00000000000010101010100100000011 $
b0110 %
b0000 '
b10101 *
b10010 ,
b10000000000000000000001000101100 -
b00000000000000000000000000000000 /
b10000000000000000000001000101100 0
b00000000000000000000000000000000 2
17
b10000000000000000000001000101100 ?
b00000000000000000000000000000000 @
b0000011 A
b010 B
b0000000 C
0D
b10000000000000000000000001111100 H
b00000000000000000000000001000000 b
1k
#62
0k
#63
b10000000000000000000000001111100 #
b00000000000010110000010010010011 $
b0000 %
b0001 '
b10110 *
b01001 ,
b10000000000000000000000100101100 -
b10000000000000000000000100101100 /
b10000000000000000000000100101100 0
07
b10000000000000000000000100101100 ?
b0010011 A
b000 B
1D
b10000000000000000000000010000000 H
1k
#64
0k
#65
b10000000000000000000000010000000 #
b00000000000010111000010000010011 $
b10111 *
b01000 ,
b10000000000000000000001000101100 -
b10000000000000000000001000101100 /
b10000000000000000000001000101100 0
b10000000000000000000001000101100 ?
b10000000000000000000000010000100 H
b10000000000000000000000100101100 S
1k
#66
0k
#67
b10000000000000000000000010000100 #
b00000000000001000010010100000011 $
b0110 %
b0000 '
b01000 *
b01010 ,
b00000000000000000000000000000000 /
17
b0000011 A
b010 B
0D
b10000000000000000000000010001000 H
b10000000000000000000001000101100 R
1k
#68
0k
#69
b10000000000000000000000010001000 #
b00000000000001001010011110000011 $
b01001 *
b01111 ,
b10000000000000000000000100101100 -
b10000000000000000000000100101100 0
b10000000000000000000000100101100 ?
b10000000000000000000000010001100 H
b00000000000000000000000000000000 T
1k
#70
0k
#71
b10000000000000000000000010001100 #
b00000000010001000000010000010011 $
b0000 %
b0001 '
b01000 *
b00100 +
b01000 ,
b10000000000000000000001000101100 -
b10000000000000000000001000110000 /
b10000000000000000000001000110000 0
b00000000000000000000000000000100 2
07
b10000000000000000000001000101100 ?
b00000000000000000000000000000100 @
b0010011 A
b000 B
1D
b10000000000000000000000010010000 H
1k
#72
0k
#73
b10000000000000000000000010010000 #
b00000000101010010000010100110011 $
b000001 (
b10010 *
b01010 +
b01010 ,
b00000000000000000000000000000000 -
b00000000000000000000000000000000 /
b00000000000000000000000000000000 0
b00000000000000000000000000000000 2
0<
1>
b00000000000000000000000000000000 ?
b00000000000000000000000000000000 @
b0110011 A
0D
b10000000000000000000000010010100 H
b10000000000000000000001000110000 R
1k
#74
0k
#75
b10000000000000000000000010010100 #
b01000000111101010000010100110011 $
b0010 '
b01010 *
b01111 +
b0100000 C
b10000000000000000000000010011000 H
1k
#76
0k
#77
b10000000000000000000000010011000 #
b00000000000101010011010100010011 $
b0100 '
b000100 (
b00001 +
b10000000000000000000000100011100 .
b00000000000000000000000000000001 /
b00000000000000000000000000000001 0
b00000000000000000000000000000001 2
1<
0>
b00000000000000000000000000000001 @
b0010011 A
b011 B
b0000000 C
1D
b10000000000000000000000010011100 H
1k
#78
0k
#79
b10000000000000000000000010011100 #
b11110111010111111111000011101111 $
b0001 '
b010000 (
b0111 )
b11111 *
b10101 +
b00001 ,
b10000000000000000000001000101100 .
b10000000000000000000000010100000 /
b11111111111111111111111101110100 0
b11111111111111111111111101110100 2
19
0<
b10000000000000000000000010011100 ?
b00000000000000000000000000000100 @
b1101111 A
b111 B
b1111011 C
0D
1F
b10000000000000000000000000010000 H
b00000000000000000000000000000001 T
1k
#80
0k
#81
b10000000000000000000000000010000 #
b00000000000001010000010001100011 $
0&
b0000 '
b001000 (
b0001 )
b01010 *
b00000 +
b01000 ,
b00000000000000000000000000000001 -
b00000000000000000000000000000000 .
b00000000000000000000000000000000 /
b00000000000000000000000000001001 0
b00000000000000000000000000001000 2
09
1;
b00000000000000000000000000000001 ?
b00000000000000000000000000000000 @
b1100011 A
b000 B
b0000000 C
0F
1G
b10000000000000000000000000010100 H
b10000000000000000000000010100000 K
1k
#82
0k
#83
b10000000000000000000000000010100 #
b00000000000000001000000001100111 $
1&
b0001 '
b000100 (
b1000 )
b00001 *
b00000 ,
b10000000000000000000000010100000 -
b10000000000000000000000000010100 /
b10000000000000000000000010100000 0
b00000000000000000000000000000000 2
18
0;
1<
b10000000000000000000000000010100 ?
b1100111 A
1E
0G
b10000000000000000000000010100000 H
1k
#84
0k
#85
b10000000000000000000000010100000 #
b00000000010001001000010010010011 $
b0000 )
b01001 *
b00100 +
b01001 ,
b10000000000000000000000100101100 -
b10000000000000000000000100110000 /
b10000000000000000000000100110000 0
b00000000000000000000000000000100 2
08
b10000000000000000000000100101100 ?
b00000000000000000000000000000100 @
b0010011 A
1D
0E
b10000000000000000000000010100100 H
1k
#86
0k
#87
b10000000000000000000000010100100 #
b11111110100010011001000011100011 $
0&
b0000 '
b001000 (
b0010 )
b10011 *
b01000 +
b00001 ,
b10000000000000000000001001001100 -
b10000000000000000000001000110000 .
b00000000000000000000000000000000 /
b10000000000000000000001000101100 0
b11111111111111111111111111100000 2
13
1;
0<
b10000000000000000000001001001100 ?
b10000000000000000000001000110000 @
b1100011 A
b001 B
b1111111 C
0D
1G
b10000000000000000000000010000100 H
b10000000000000000000000100110000 S
1k
#88
0k
#89
b10000000000000000000000010000100 #
b00000000000001000010010100000011 $
b0110 %
1&
b000100 (
b0000 )
b01000 *
b00000 +
b01010 ,
b10000000000000000000001000110000 -
b00000000000000000000000000000000 .
b00000000000000000000000000000001 /
b10000000000000000000001000110000 0
b00000000000000000000000000000001 1
b00000000000000000000000000000000 2
03
17
0;
1<
b10000000000000000000001000110000 ?
b00000000000000000000000000000000 @
b0000011 A
b010 B
b0000000 C
0G
b10000000000000000000000010001000 H
b00000000000000000000000000000001 I
1k
#90
0k
#91
b10000000000000000000000010001000 #
b00000000000001001010011110000011 $
b01001 *
b01111 ,
b10000000000000000000000100110000 -
b10000000000000000000000100110000 0
b10000000000000000000000100110000 ?
b10000000000000000000000010001100 H
1k
#92
0k
#93
b10000000000000000000000010001100 #
b00000000010001000000010000010011 $
b0000 %
b0001 '
b01000 *
b00100 +
b01000 ,
b10000000000000000000001000110000 -
b10000000000000000000001000110100 /
b10000000000000000000001000110100 0
b00000000000000000000000000000000 1
b00000000000000000000000000000100 2
07
b10000000000000000000001000110000 ?
b00000000000000000000000000000100 @
b0010011 A
b000 B
1D
b10000000000000000000000010010000 H
b00000000000000000000000000000000 I
b00000000000000000000000000000001 Y
1k
#94
0k
#95
b10000000000000000000000010010000 #
b00000000101010010000010100110011 $
b000001 (
b10010 *
b01010 +
b01010 ,
b00000000000000000000000000000000 -
b00000000000000000000000000000001 .
b00000000000000000000000000000001 /
b00000000000000000000000000000000 0
b00000000000000000000000000000000 2
0<
1>
b00000000000000000000000000000000 ?
b00000000000000000000000000000001 @
b0110011 A
0D
b10000000000000000000000010010100 H
b10000000000000000000001000110100 R
1k
#96
0k
#97
b10000000000000000000000010010100 #
b01000000111101010000010100110011 $
b0010 '
b01010 *
b01111 +
b00000000000000000000000000000001 -
b00000000000000000000000000000000 /
b00000000000000000000000000000001 0
b00000000000000000000000000000001 ?
b0100000 C
b10000000000000000000000010011000 H
1k
#98
0k
#99
b10000000000000000000000010011000 #
b00000000000101010011010100010011 $
b0100 '
b000100 (
b00001 +
b00000000000000000000000000000000 -
b10000000000000000000000010100000 .
b00000000000000000000000000000001 /
b00000000000000000000000000000001 2
1<
0>
b00000000000000000000000000000000 ?
b0010011 A
b011 B
b0000000 C
1D
b10000000000000000000000010011100 H
b00000000000000000000000000000000 T
1k
#100
0k
#101
b10000000000000000000000010011100 #
b11110111010111111111000011101111 $
b0001 '
b010000 (
b0111 )
b11111 *
b10101 +
b00001 ,
b10000000000000000000001000101100 .
b10000000000000000000000010100000 /
b11111111111111111111111101110100 0
b11111111111111111111111101110100 2
19
0<
b10000000000000000000000010011100 ?
b00000000000000000000000000000100 @
b1101111 A
b111 B
b1111011 C
0D
1F
b10000000000000000000000000010000 H
b00000000000000000000000000000001 T
1k
#102
0k
#103
b10000000000000000000000000010000 #
b00000000000001010000010001100011 $
0&
b0000 '
b001000 (
b0001 )
b01010 *
b00000 +
b01000 ,
b00000000000000000000000000000001 -
b00000000000000000000000000000000 .
b00000000000000000000000000000000 /
b00000000000000000000000000001001 0
b00000000000000000000000000001000 2
09
1;
b00000000000000000000000000000001 ?
b00000000000000000000000000000000 @
b1100011 A
b000 B
b0000000 C
0F
1G
b10000000000000000000000000010100 H
1k
#104
0k
#105
b10000000000000000000000000010100 #
b00000000000000001000000001100111 $
1&
b0001 '
b000100 (
b1000 )
b00001 *
b00000 ,
b10000000000000000000000010100000 -
b10000000000000000000000000010100 /
b10000000000000000000000010100000 0
b00000000000000000000000000000000 2
18
0;
1<
b10000000000000000000000000010100 ?
b1100111 A
1E
0G
b10000000000000000000000010100000 H
1k
#106
0k
#107
b10000000000000000000000010100000 #
b00000000010001001000010010010011 $
b0000 )
b01001 *
b00100 +
b01001 ,
b10000000000000000000000100110000 -
b10000000000000000000000100110100 /
b10000000000000000000000100110100 0
b00000000000000000000000000000100 2
08
b10000000000000000000000100110000 ?
b00000000000000000000000000000100 @
b0010011 A
1D
0E
b10000000000000000000000010100100 H
1k
#108
0k
#109
b10000000000000000000000010100100 #
b11111110100010011001000011100011 $
0&
b0000 '
b001000 (
b0010 )
b10011 *
b01000 +
b00001 ,
b10000000000000000000001001001100 -
b10000000000000000000001000110100 .
b00000000000000000000000000000000 /
b10000000000000000000001000101100 0
b11111111111111111111111111100000 2
13
1;
0<
b10000000000000000000001001001100 ?
b10000000000000000000001000110100 @
b1100011 A
b001 B
b1111111 C
0D
1G
b10000000000000000000000010000100 H
b10000000000000000000000100110100 S
1k
#110
0k
#111
b10000000000000000000000010000100 #
b00000000000001000010010100000011 $
b0110 %
1&
b000100 (
b0000 )
b01000 *
b00000 +
b01010 ,
b10000000000000000000001000110100 -
b00000000000000000000000000000000 .
b00000000000000000000000000000010 /
b10000000000000000000001000110100 0
b00000000000000000000000000000010 1
b00000000000000000000000000000000 2
03
17
0;
1<
b10000000000000000000001000110100 ?
b00000000000000000000000000000000 @
b0000011 A
b010 B
b0000000 C
0G
b10000000000000000000000010001000 H
b00000000000000000000000000000010 I
1k
#112
0k
#113
b10000000000000000000000010001000 #
b00000000000001001010011110000011 $
b01001 *
b01111 ,
b10000000000000000000000100110100 -
b10000000000000000000000100110100 0
b10000000000000000000000100110100 ?
b10000000000000000000000010001100 H
b00000000000000000000000000000010 T
1k
#114
0k
#115
b10000000000000000000000010001100 #
b00000000010001000000010000010011 $
b0000 %
b0001 '
b01000 *
b00100 +
b01000 ,
b10000000000000000000001000110100 -
b10000000000000000000001000111000 /
b10000000000000000000001000111000 0
b00000000000000000000000000000000 1
b00000000000000000000000000000100 2
07
b10000000000000000000001000110100 ?
b00000000000000000000000000000100 @
b0010011 A
b000 B
1D
b10000000000000000000000010010000 H
b00000000000000000000000000000000 I
b00000000000000000000000000000010 Y
1k
#116
0k
#117
b10000000000000000000000010010000 #
b00000000101010010000010100110011 $
b000001 (
b10010 *
b01010 +
b01010 ,
b00000000000000000000000000000000 -
b00000000000000000000000000000010 .
b00000000000000000000000000000010 /
b00000000000000000000000000000000 0
b00000000000000000000000000000000 2
0<
1>
b00000000000000000000000000000000 ?
b00000000000000000000000000000010 @
b0110011 A
0D
b10000000000000000000000010010100 H
b10000000000000000000001000111000 R
1k
#118
0k
#119
b10000000000000000000000010010100 #
b01000000111101010000010100110011 $
b0010 '
b01010 *
b01111 +
b00000000000000000000000000000010 -
b00000000000000000000000000000000 /
b00000000000000000000000000000010 0
b00000000000000000000000000000010 ?
b0100000 C
b10000000000000000000000010011000 H
1k
#120
0k
#121
b10000000000000000000000010011000 #
b00000000000101010011010100010011 $
b0100 '
b000100 (
b00001 +
b00000000000000000000000000000000 -
b10000000000000000000000010100000 .
b00000000000000000000000000000001 /
b00000000000000000000000000000001 0
b00000000000000000000000000000001 2
1<
0>
b00000000000000000000000000000000 ?
b00000000000000000000000000000001 @
b0010011 A
b011 B
b0000000 C
1D
b10000000000000000000000010011100 H
b00000000000000000000000000000000 T
1k
#122
0k
#123
b10000000000000000000000010011100 #
b11110111010111111111000011101111 $
b0001 '
b010000 (
b0111 )
b11111 *
b10101 +
b00001 ,
b10000000000000000000001000101100 .
b10000000000000000000000010100000 /
b11111111111111111111111101110100 0
b11111111111111111111111101110100 2
19
0<
b10000000000000000000000010011100 ?
b00000000000000000000000000000100 @
b1101111 A
b111 B
b1111011 C
0D
1F
b10000000000000000000000000010000 H
b00000000000000000000000000000001 T
1k
#124
0k
