wave.vcd
$version Generated by VerilatedVcd $end
$timescale 1s $end

 $scope module TOP $end
  $var wire  1 m clk $end
  $var wire  1 n reset $end
  $scope module top $end
   $var wire 32 0 addr_load [31:0] $end
   $var wire 32 0 addr_store [31:0] $end
   $var wire  4 ' alu_cnt [3:0] $end
   $var wire  1 4 auipc $end
   $var wire  1 3 br_taken $end
   $var wire  1 m clk $end
   $var wire 32 1 data_load [31:0] $end
   $var wire 32 . data_store [31:0] $end
   $var wire  1 6 ebreak $end
   $var wire 32 # ifu_pc [31:0] $end
   $var wire 32 2 imm [31:0] $end
   $var wire  6 ( ins_cnt [5:0] $end
   $var wire 32 $ inst [31:0] $end
   $var wire  1 9 jal $end
   $var wire  1 8 jalr $end
   $var wire  1 7 load $end
   $var wire  4 % lsu_cnt [3:0] $end
   $var wire  1 5 lui $end
   $var wire  1 & mem_cnt $end
   $var wire  4 ) pc_cnt [3:0] $end
   $var wire  5 * raddr1 [4:0] $end
   $var wire  5 + raddr2 [4:0] $end
   $var wire 32 - rdata1 [31:0] $end
   $var wire 32 . rdata2 [31:0] $end
   $var wire  1 n reset $end
   $var wire  5 , waddr [4:0] $end
   $var wire 32 / wdata [31:0] $end
   $scope module exu_t0 $end
    $var wire  1 ; BType $end
    $var wire  1 < IType $end
    $var wire  1 9 JType $end
    $var wire  1 > RType $end
    $var wire  1 = SType $end
    $var wire  1 : UType $end
    $var wire 32 ? alu_a [31:0] $end
    $var wire 32 @ alu_b [31:0] $end
    $var wire  4 ' alu_cnt [3:0] $end
    $var wire 32 / alu_result [31:0] $end
    $var wire  1 4 auipc $end
    $var wire  1 3 br_taken $end
    $var wire 32 1 data_load [31:0] $end
    $var wire 32 2 imm [31:0] $end
    $var wire  6 ( ins_cnt [5:0] $end
    $var wire  1 9 jal $end
    $var wire  1 8 jalr $end
    $var wire  1 7 load $end
    $var wire  1 5 lui $end
    $var wire  4 ) pc_cnt [3:0] $end
    $var wire 32 # pc_in [31:0] $end
    $var wire 32 - rdata1 [31:0] $end
    $var wire 32 . rdata2 [31:0] $end
    $var wire 64 A shift_temp [63:0] $end
   $upscope $end
   $scope module idu_t0 $end
    $var wire  1 ; BType $end
    $var wire  1 < IType $end
    $var wire  1 F I_imm $end
    $var wire  1 9 JType $end
    $var wire  1 > RType $end
    $var wire  1 = SType $end
    $var wire  1 : UType $end
    $var wire  4 ' alu_cnt [3:0] $end
    $var wire  1 4 auipc $end
    $var wire  1 6 ebreak $end
    $var wire  3 D fun3 [2:0] $end
    $var wire  7 E fun7 [6:0] $end
    $var wire 32 2 imm [31:0] $end
    $var wire  6 ( ins_cnt [5:0] $end
    $var wire 32 $ inst [31:0] $end
    $var wire  1 9 jal $end
    $var wire  1 8 jalr $end
    $var wire  1 7 load $end
    $var wire  4 % lsu_cnt [3:0] $end
    $var wire  1 5 lui $end
    $var wire  1 & mem_cnt $end
    $var wire  7 C opcode [6:0] $end
    $var wire  4 ) pc_cnt [3:0] $end
    $var wire  5 , rd [4:0] $end
    $var wire  5 * rs1 [4:0] $end
    $var wire  5 + rs2 [4:0] $end
   $upscope $end
   $scope module ifu_t0 $end
    $var wire  1 3 br_taken $end
    $var wire  1 I bxx $end
    $var wire  1 m clk $end
    $var wire 32 2 imm [31:0] $end
    $var wire 32 $ inst [31:0] $end
    $var wire  1 H jal $end
    $var wire  1 G jalr $end
    $var wire  4 ) pc_cnt [3:0] $end
    $var wire 32 # pc_out [31:0] $end
    $var wire  1 n reset $end
    $var wire 32 - ret [31:0] $end
    $var wire 32 J target_pc [31:0] $end
   $upscope $end
   $scope module lsu_t0 $end
    $var wire 32 0 addr_load [31:0] $end
    $var wire 32 0 addr_store [31:0] $end
    $var wire 32 1 data_load [31:0] $end
    $var wire 32 . data_store [31:0] $end
    $var wire  4 % lsu_cnt [3:0] $end
    $var wire 32 K temp [31:0] $end
   $upscope $end
   $scope module mem_t0 $end
    $var wire  1 m clk $end
    $var wire  1 6 ebreak $end
    $var wire  1 & mem_cnt $end
    $var wire 32 # pc_in [31:0] $end
    $var wire  5 * raddr1 [4:0] $end
    $var wire  5 + raddr2 [4:0] $end
    $var wire 32 - rdata1 [31:0] $end
    $var wire 32 . rdata2 [31:0] $end
    $var wire  1 n reset $end
    $var wire 32 L rf[0] [31:0] $end
    $var wire 32 V rf[10] [31:0] $end
    $var wire 32 W rf[11] [31:0] $end
    $var wire 32 X rf[12] [31:0] $end
    $var wire 32 Y rf[13] [31:0] $end
    $var wire 32 Z rf[14] [31:0] $end
    $var wire 32 [ rf[15] [31:0] $end
    $var wire 32 \ rf[16] [31:0] $end
    $var wire 32 ] rf[17] [31:0] $end
    $var wire 32 ^ rf[18] [31:0] $end
    $var wire 32 _ rf[19] [31:0] $end
    $var wire 32 M rf[1] [31:0] $end
    $var wire 32 ` rf[20] [31:0] $end
    $var wire 32 a rf[21] [31:0] $end
    $var wire 32 b rf[22] [31:0] $end
    $var wire 32 c rf[23] [31:0] $end
    $var wire 32 d rf[24] [31:0] $end
    $var wire 32 e rf[25] [31:0] $end
    $var wire 32 f rf[26] [31:0] $end
    $var wire 32 g rf[27] [31:0] $end
    $var wire 32 h rf[28] [31:0] $end
    $var wire 32 i rf[29] [31:0] $end
    $var wire 32 N rf[2] [31:0] $end
    $var wire 32 j rf[30] [31:0] $end
    $var wire 32 k rf[31] [31:0] $end
    $var wire 32 O rf[3] [31:0] $end
    $var wire 32 P rf[4] [31:0] $end
    $var wire 32 Q rf[5] [31:0] $end
    $var wire 32 R rf[6] [31:0] $end
    $var wire 32 S rf[7] [31:0] $end
    $var wire 32 T rf[8] [31:0] $end
    $var wire 32 U rf[9] [31:0] $end
    $var wire  5 , waddr [4:0] $end
    $var wire 32 / wdata [31:0] $end
    $var wire  1 & wen $end
    $scope module unnamedblk1 $end
     $var wire 32 l i [31:0] $end
    $upscope $end
   $upscope $end
  $upscope $end
 $upscope $end
$enddefinitions $end


#1
b00000000000000000000000000000000 #
b00000000000000000000000000000000 $
b0000 %
0&
b0000 '
b000000 (
b0000 )
b00000 *
b00000 +
b00000 ,
b00000000000000000000000000000000 -
b00000000000000000000000000000000 .
b00000000000000000000000000000000 /
b00000000000000000000000000000000 0
b00000000000000000000000000000000 1
b00000000000000000000000000000000 2
03
04
05
06
07
08
09
0:
0;
0<
0=
0>
b00000000000000000000000000000000 ?
b00000000000000000000000000000000 @
b0000000000000000000000000000000000000000000000000000000000000000 A
b0000000 C
b000 D
b0000000 E
0F
0G
0H
0I
b00000000000000000000000000000100 J
b00000000000000000000000000000000 K
b00000000000000000000000000000000 L
b00000000000000000000000000000000 M
b00000000000000000000000000000000 N
b00000000000000000000000000000000 O
b00000000000000000000000000000000 P
b00000000000000000000000000000000 Q
b00000000000000000000000000000000 R
b00000000000000000000000000000000 S
b00000000000000000000000000000000 T
b00000000000000000000000000000000 U
b00000000000000000000000000000000 V
b00000000000000000000000000000000 W
b00000000000000000000000000000000 X
b00000000000000000000000000000000 Y
b00000000000000000000000000000000 Z
b00000000000000000000000000000000 [
b00000000000000000000000000000000 \
b00000000000000000000000000000000 ]
b00000000000000000000000000000000 ^
b00000000000000000000000000000000 _
b00000000000000000000000000000000 `
b00000000000000000000000000000000 a
b00000000000000000000000000000000 b
b00000000000000000000000000000000 c
b00000000000000000000000000000000 d
b00000000000000000000000000000000 e
b00000000000000000000000000000000 f
b00000000000000000000000000000000 g
b00000000000000000000000000000000 h
b00000000000000000000000000000000 i
b00000000000000000000000000000000 j
b00000000000000000000000000000000 k
b00000000000000000000000000000000 l
1m
1n
#2
0m
#3
b10000000000000000000000000000000 #
b00000000000000000000010000010011 $
1&
b0001 '
b000100 (
b01000 ,
1<
b0010011 C
1F
b10000000000000000000000000000100 J
b00000000000000000000000000100000 l
1m
#4
0m
#5
b10000000000000000000000000000100 #
b00000000000000001001000100010111 $
b100000 (
b00001 *
b00010 ,
b10000000000000001001000000000100 /
b00000000000000001001000000000000 0
b00000000000000001001000000000000 2
14
1:
0<
b10000000000000000000000000000100 ?
b00000000000000001001000000000000 @
b1111111111111111111111111111111110000000000000000000000000000100 A
b0010111 C
b001 D
0F
b10000000000000000000000000001000 J
1m
0n
#6
0m
#7
b10000000000000000000000000001000 #
b11111111110000010000000100010011 $
b000100 (
b00010 *
b11100 +
b10000000000000001001000000000100 -
b10000000000000001001000000000000 /
b10000000000000001001000000000000 0
b11111111111111111111111111111100 2
04
0:
1<
b10000000000000001001000000000100 ?
b11111111111111111111111111111100 @
b0000000000000000000000000000111111111111111111111111111111111000 A
b0010011 C
b000 D
b1111111 E
1F
b10000000000000000000000000001100 J
b10000000000000001001000000000100 N
1m
#8
0m
#9
b10000000000000000000000000001100 #
b00001111110000000000000011101111 $
b010000 (
b0111 )
b00000 *
b00001 ,
b00000000000000000000000000000000 -
b10000000000000000000000000010000 /
b00000000000000000000000011111100 0
b00000000000000000000000011111100 2
19
0<
b10000000000000000000000000001100 ?
b00000000000000000000000000000100 @
b0000111111111111111111111111111111111000000000000000000000000000 A
b1101111 C
b0000111 E
0F
1H
b10000000000000000000000100001000 J
b10000000000000001001000000000000 N
1m
#10
0m
#11
b10000000000000000000000100001000 #
b11111111000000010000000100010011 $
b000100 (
b0000 )
b00010 *
b10000 +
b00010 ,
b10000000000000001001000000000000 -
b10000000000000001000111111110000 /
b10000000000000001000111111110000 0
b11111111111111111111111111110000 2
09
1<
b10000000000000001001000000000000 ?
b11111111111111111111111111110000 @
b0000000000000000111111111111111111111111111111111000000000000000 A
b0010011 C
b1111111 E
1F
0H
b10000000000000000000000100001100 J
b10000000000000000000000000010000 M
1m
#12
0m
#13
b10000000000000000000000100001100 #
b00000000000000000000010100010111 $
b100000 (
b00000 *
b00000 +
b01010 ,
b00000000000000000000000000000000 -
b10000000000000000000000100001100 /
b00000000000000000000000000000000 0
b00000000000000000000000000000000 2
14
1:
0<
b10000000000000000000000100001100 ?
b00000000000000000000000000000000 @
b1111111111111111111111111111111110000000000000000000000100001100 A
b0010111 C
b0000000 E
0F
b10000000000000000000000100010000 J
b10000000000000001000111111110000 N
1m
#14
0m
#15
b10000000000000000000000100010000 #
b00000001110001010000010100010011 $
b000100 (
b01010 *
b11100 +
b10000000000000000000000100001100 -
b10000000000000000000000100101000 /
b10000000000000000000000100101000 0
b00000000000000000000000000011100 2
04
0:
1<
b00000000000000000000000000011100 @
b0000000000000000000000000000111111111111111111111111111111111000 A
b0010011 C
1F
b10000000000000000000000100010100 J
b10000000000000000000000100001100 V
1m
#16
0m
#17
b10000000000000000000000100010100 #
b00000000000100010010011000100011 $
b0011 %
0&
b0000 '
b000010 (
b00010 *
b00001 +
b01100 ,
b10000000000000001000111111110000 -
b10000000000000000000000000010000 .
b00000000000000000000000000000000 /
b10000000000000001000111111111100 0
b00000000000000000000000000001100 2
0<
1=
b10000000000000001000111111110000 ?
b10000000000000000000000000010000 @
b0000000000000000111111111111111111111111111111111000000000000000 A
b0100011 C
b010 D
0F
b10000000000000000000000100011000 J
b10000000000000000000000100101000 V
1m
#18
0m
#19
b10000000000000000000000100011000 #
b11110001000111111111000011101111 $
b0000 %
1&
b0001 '
b010000 (
b0111 )
b11111 *
b10001 +
b00001 ,
b00000000000000000000000000000000 -
b00000000000000000000000000000000 .
b10000000000000000000000100011100 /
b11111111111111111111111100010000 0
b11111111111111111111111100010000 2
19
0=
b10000000000000000000000100011000 ?
b00000000000000000000000000000100 @
b0000111111111111111111111111111111111000000000000000000000010001 A
b1101111 C
b111 D
b1111000 E
1H
b10000000000000000000000000101000 J
1m
#20
0m
#21
b10000000000000000000000000101000 #
b11111101000000010000000100010011 $
b000100 (
b0000 )
b00010 *
b10000 +
b00010 ,
b10000000000000001000111111110000 -
b10000000000000001000111111000000 /
b10000000000000001000111111000000 0
b11111111111111111111111111010000 2
09
1<
b10000000000000001000111111110000 ?
b11111111111111111111111111010000 @
b0000000000000000111111111111111111111111111111111000000000000000 A
b0010011 C
b000 D
b1111110 E
1F
0H
b10000000000000000000000000101100 J
b10000000000000000000000100011100 M
1m
#22
0m
#23
b10000000000000000000000000101100 #
b00000001011100010010011000100011 $
b0011 %
0&
b0000 '
b000010 (
b10111 +
b01100 ,
b10000000000000001000111111000000 -
b00000000000000000000000000000000 /
b10000000000000001000111111001100 0
b00000000000000000000000000001100 2
0<
1=
b10000000000000001000111111000000 ?
b00000000000000000000000000000000 @
b1111111111111111111111111111111110000000000000001000111111000000 A
b0100011 C
b010 D
b0000000 E
0F
b10000000000000000000000000110000 J
b10000000000000001000111111000000 N
1m
#24
0m
#25
b10000000000000000000000000110000 #
b00000000000000000000101110010111 $
b0000 %
1&
b0001 '
b100000 (
b00000 *
b00000 +
b10111 ,
b00000000000000000000000000000000 -
b10000000000000000000000000110000 /
b00000000000000000000000000000000 0
b00000000000000000000000000000000 2
14
1:
0=
b10000000000000000000000000110000 ?
b1111111111111111111111111111111110000000000000000000000000110000 A
b0010111 C
b000 D
b10000000000000000000000000110100 J
1m
#26
0m
#27
b10000000000000000000000000110100 #
b00011111110010111000101110010011 $
b000100 (
b10111 *
b11100 +
b10000000000000000000000000110000 -
b10000000000000000000001000101100 /
b10000000000000000000001000101100 0
b00000000000000000000000111111100 2
04
0:
1<
b00000000000000000000000111111100 @
b0000000000000000000000000000111111111111111111111111111111111000 A
b0010011 C
b0001111 E
1F
b10000000000000000000000000111000 J
b10000000000000000000000000110000 c
1m
#28
0m
#29
b10000000000000000000000000111000 #
b00000001001100010010111000100011 $
b0011 %
0&
b0000 '
b000010 (
b00010 *
b10011 +
b11100 ,
b10000000000000001000111111000000 -
b00000000000000000000000000000000 /
b10000000000000001000111111011100 0
b00000000000000000000000000011100 2
0<
1=
b10000000000000001000111111000000 ?
b00000000000000000000000000000000 @
b1111111111111111111111111111111110000000000000001000111111000000 A
b0100011 C
b010 D
b0000000 E
0F
b10000000000000000000000000111100 J
b10000000000000000000001000101100 c
1m
#30
0m
#31
b10000000000000000000000000111100 #
b00000001010000010010110000100011 $
b10100 +
b11000 ,
b10000000000000001000111111011000 0
b00000000000000000000000000011000 2
b10000000000000000000000001000000 J
1m
#32
0m
#33
b10000000000000000000000001000000 #
b00000001010100010010101000100011 $
b10101 +
b10100 ,
b10000000000000001000111111010100 0
b00000000000000000000000000010100 2
b10000000000000000000000001000100 J
1m
#34
0m
#35
b10000000000000000000000001000100 #
b00000001011000010010100000100011 $
b10110 +
b10000 ,
b10000000000000001000111111010000 0
b00000000000000000000000000010000 2
b10000000000000000000000001001000 J
1m
#36
0m
#37
b10000000000000000000000001001000 #
b00000001100000010010010000100011 $
b11000 +
b01000 ,
b10000000000000001000111111001000 0
b00000000000000000000000000001000 2
b10000000000000000000000001001100 J
1m
#38
0m
#39
b10000000000000000000000001001100 #
b00000010000100010010011000100011 $
b00001 +
b01100 ,
b10000000000000000000000100011100 .
b10000000000000001000111111101100 0
b00000000000000000000000000101100 2
b10000000000000000000000100011100 @
b0000000000000000000000000000111111111111111111111111111111111000 A
b0000001 E
b10000000000000000000000001010000 J
1m
#40
0m
#41
b10000000000000000000000001010000 #
b00000010100000010010010000100011 $
b01000 +
b01000 ,
b00000000000000000000000000000000 .
b10000000000000001000111111101000 0
b00000000000000000000000000101000 2
b00000000000000000000000000000000 @
b1111111111111111111111111111111110000000000000001000111111000000 A
b10000000000000000000000001010100 J
1m
#42
0m
#43
b10000000000000000000000001010100 #
b00000010100100010010001000100011 $
b01001 +
b00100 ,
b10000000000000001000111111100100 0
b00000000000000000000000000100100 2
b10000000000000000000000001011000 J
1m
#44
0m
#45
b10000000000000000000000001011000 #
b00000011001000010010000000100011 $
b10010 +
b00000 ,
b10000000000000001000111111100000 0
b00000000000000000000000000100000 2
b10000000000000000000000001011100 J
1m
#46
0m
#47
b10000000000000000000000001011100 #
b00000000000000000000101100010111 $
b0000 %
1&
b0001 '
b100000 (
b00000 *
b00000 +
b10110 ,
b00000000000000000000000000000000 -
b10000000000000000000000001011100 /
b00000000000000000000000000000000 0
b00000000000000000000000000000000 2
14
1:
0=
b10000000000000000000000001011100 ?
b1111111111111111111111111111111110000000000000000000000001011100 A
b0010111 C
b000 D
b0000000 E
b10000000000000000000000001100000 J
1m
#48
0m
#49
b10000000000000000000000001100000 #
b00001101000010110000101100010011 $
b000100 (
b10110 *
b10000 +
b10000000000000000000000001011100 -
b10000000000000000000000100101100 /
b10000000000000000000000100101100 0
b00000000000000000000000011010000 2
04
0:
1<
b00000000000000000000000011010000 @
b0000000000000000111111111111111111111111111111111000000000000000 A
b0010011 C
b0000110 E
1F
b10000000000000000000000001100100 J
b10000000000000000000000001011100 b
1m
#50
0m
#51
b10000000000000000000000001100100 #
b00000000000010111000101010010011 $
b10111 *
b00000 +
b10101 ,
b10000000000000000000001000101100 -
b10000000000000000000001000101100 /
b10000000000000000000001000101100 0
b00000000000000000000000000000000 2
b10000000000000000000001000101100 ?
b00000000000000000000000000000000 @
b1111111111111111111111111111111110000000000000000000001000101100 A
b0000000 E
b10000000000000000000000001101000 J
b10000000000000000000000100101100 b
1m
#52
0m
#53
b10000000000000000000000001101000 #
b00000000000000000000101000010011 $
b00000 *
b10100 ,
b00000000000000000000000000000000 -
b00000000000000000000000000000000 /
b00000000000000000000000000000000 0
b00000000000000000000000000000000 ?
b0000000000000000000000000000000000000000000000000000000000000000 A
b10000000000000000000000001101100 J
b10000000000000000000001000101100 a
1m
#54
0m
#55
b10000000000000000000000001101100 #
b00000000000000000000100110010111 $
b100000 (
b10011 ,
b10000000000000000000000001101100 /
14
1:
0<
b10000000000000000000000001101100 ?
b1111111111111111111111111111111110000000000000000000000001101100 A
b0010111 C
0F
b10000000000000000000000001110000 J
1m
#56
0m
#57
b10000000000000000000000001110000 #
b00011110000010011000100110010011 $
b000100 (
b10011 *
b10000000000000000000000001101100 -
b10000000000000000000001001001100 /
b10000000000000000000001001001100 0
b00000000000000000000000111100000 2
04
0:
1<
b00000000000000000000000111100000 @
b0010011 C
b0001111 E
1F
b10000000000000000000000001110100 J
b10000000000000000000000001101100 _
1m
#58
0m
#59
b10000000000000000000000001110100 #
b00000100000000000000110000010011 $
b00000 *
b11000 ,
b00000000000000000000000000000000 -
b00000000000000000000000001000000 /
b00000000000000000000000001000000 0
b00000000000000000000000001000000 2
b00000000000000000000000000000000 ?
b00000000000000000000000001000000 @
b0000000000000000000000000000000000000000000000000000000000000000 A
b0000010 E
b10000000000000000000000001111000 J
b10000000000000000000001001001100 _
1m
#60
0m
#61
b10000000000000000000000001111000 #
b00000000000010101010100100000011 $
b0110 %
b0000 '
b10101 *
b10010 ,
b10000000000000000000001000101100 -
b00000000000000000000000000000000 /
b10000000000000000000001000101100 0
b00000000000000000000000000000000 2
17
b10000000000000000000001000101100 ?
b00000000000000000000000000000000 @
b1111111111111111111111111111111110000000000000000000001000101100 A
b0000011 C
b010 D
b0000000 E
0F
b10000000000000000000000001111100 J
b00000000000000000000000001000000 d
1m
#62
0m
#63
b10000000000000000000000001111100 #
b00000000000010110000010010010011 $
b0000 %
b0001 '
b10110 *
b01001 ,
b10000000000000000000000100101100 -
b10000000000000000000000100101100 /
b10000000000000000000000100101100 0
07
b10000000000000000000000100101100 ?
b1111111111111111111111111111111110000000000000000000000100101100 A
b0010011 C
b000 D
1F
b10000000000000000000000010000000 J
1m
#64
0m
#65
b10000000000000000000000010000000 #
b00000000000010111000010000010011 $
b10111 *
b01000 ,
b10000000000000000000001000101100 -
b10000000000000000000001000101100 /
b10000000000000000000001000101100 0
b10000000000000000000001000101100 ?
b1111111111111111111111111111111110000000000000000000001000101100 A
b10000000000000000000000010000100 J
b10000000000000000000000100101100 U
1m
#66
0m
#67
b10000000000000000000000010000100 #
b00000000000001000010010100000011 $
b0110 %
b0000 '
b01000 *
b01010 ,
b00000000000000000000000000000000 /
17
b0000011 C
b010 D
0F
b10000000000000000000000010001000 J
b10000000000000000000001000101100 T
1m
#68
0m
#69
b10000000000000000000000010001000 #
b00000000000001001010011110000011 $
b01001 *
b01111 ,
b10000000000000000000000100101100 -
b10000000000000000000000100101100 0
b10000000000000000000000100101100 ?
b1111111111111111111111111111111110000000000000000000000100101100 A
b10000000000000000000000010001100 J
b00000000000000000000000000000000 V
1m
#70
0m
#71
b10000000000000000000000010001100 #
b00000000010001000000010000010011 $
b0000 %
b0001 '
b01000 *
b00100 +
b01000 ,
b10000000000000000000001000101100 -
b10000000000000000000001000110000 /
b10000000000000000000001000110000 0
b00000000000000000000000000000100 2
07
b10000000000000000000001000101100 ?
b00000000000000000000000000000100 @
b0000111111111111111111111111111111111000000000000000000000100010 A
b0010011 C
b000 D
1F
b10000000000000000000000010010000 J
1m
#72
0m
#73
b10000000000000000000000010010000 #
b00000000101010010000010100110011 $
b000001 (
b10010 *
b01010 +
b01010 ,
b00000000000000000000000000000000 -
b00000000000000000000000000000000 /
b00000000000000000000000000000000 0
b00000000000000000000000000000000 2
0<
1>
b00000000000000000000000000000000 ?
b00000000000000000000000000000000 @
b0000000000000000000000000000000000000000000000000000000000000000 A
b0110011 C
0F
b10000000000000000000000010010100 J
b10000000000000000000001000110000 T
1m
#74
0m
#75
b10000000000000000000000010010100 #
b01000000111101010000010100110011 $
b0010 '
b01010 *
b01111 +
b0100000 E
b10000000000000000000000010011000 J
1m
#76
0m
#77
b10000000000000000000000010011000 #
b00000000000101010011010100010011 $
b0100 '
b000100 (
b00001 +
b10000000000000000000000100011100 .
b00000000000000000000000000000001 /
b00000000000000000000000000000001 0
b00000000000000000000000000000001 2
1<
0>
b00000000000000000000000000000001 @
b0010011 C
b011 D
b0000000 E
1F
b10000000000000000000000010011100 J
1m
#78
0m
#79
b10000000000000000000000010011100 #
b11110111010111111111000011101111 $
b0001 '
b010000 (
b0111 )
b11111 *
b10101 +
b00001 ,
b10000000000000000000001000101100 .
b10000000000000000000000010100000 /
b11111111111111111111111101110100 0
b11111111111111111111111101110100 2
19
0<
b10000000000000000000000010011100 ?
b00000000000000000000000000000100 @
b0000111111111111111111111111111111111000000000000000000000001001 A
b1101111 C
b111 D
b1111011 E
0F
1H
b10000000000000000000000000010000 J
b00000000000000000000000000000001 V
1m
#80
0m
#81
b10000000000000000000000000010000 #
b00000000000001010000010001100011 $
0&
b0000 '
b001000 (
b0001 )
b01010 *
b00000 +
b01000 ,
b00000000000000000000000000000001 -
b00000000000000000000000000000000 .
b00000000000000000000000000000000 /
b00000000000000000000000000001001 0
b00000000000000000000000000001000 2
09
1;
b00000000000000000000000000000001 ?
b00000000000000000000000000000000 @
b0000000000000000000000000000000000000000000000000000000000000001 A
b1100011 C
b000 D
b0000000 E
0H
1I
b10000000000000000000000000010100 J
b10000000000000000000000010100000 M
1m
#82
0m
#83
b10000000000000000000000000010100 #
b00000000000000001000000001100111 $
1&
b0001 '
b000100 (
b1000 )
b00001 *
b00000 ,
b10000000000000000000000010100000 -
b10000000000000000000000000011000 /
b10000000000000000000000010100000 0
b00000000000000000000000000000000 2
18
0;
1<
b10000000000000000000000000010100 ?
b00000000000000000000000000000100 @
b0000111111111111111111111111111111111000000000000000000000000001 A
b1100111 C
1G
0I
b10000000000000000000000010100000 J
1m
#84
0m
#85
b10000000000000000000000010100000 #
b00000000010001001000010010010011 $
b0000 )
b01001 *
b00100 +
b01001 ,
b10000000000000000000000100101100 -
b10000000000000000000000100110000 /
b10000000000000000000000100110000 0
b00000000000000000000000000000100 2
08
b10000000000000000000000100101100 ?
b0000111111111111111111111111111111111000000000000000000000010010 A
b0010011 C
1F
0G
b10000000000000000000000010100100 J
1m
#86
0m
#87
b10000000000000000000000010100100 #
b11111110100010011001000011100011 $
0&
b0000 '
b001000 (
b0010 )
b10011 *
b01000 +
b00001 ,
b10000000000000000000001001001100 -
b10000000000000000000001000110000 .
b00000000000000000000000000000000 /
b10000000000000000000001000101100 0
b11111111111111111111111111100000 2
13
1;
0<
b10000000000000000000001001001100 ?
b10000000000000000000001000110000 @
b0000000000000000111111111111111111111111111111111000000000000000 A
b1100011 C
b001 D
b1111111 E
0F
1I
b10000000000000000000000010000100 J
b10000000000000000000000100110000 U
1m
#88
0m
#89
b10000000000000000000000010000100 #
b00000000000001000010010100000011 $
b0110 %
1&
b000100 (
b0000 )
b01000 *
b00000 +
b01010 ,
b10000000000000000000001000110000 -
b00000000000000000000000000000000 .
b00000000000000000000000000000001 /
b10000000000000000000001000110000 0
b00000000000000000000000000000001 1
b00000000000000000000000000000000 2
03
17
0;
1<
b10000000000000000000001000110000 ?
b00000000000000000000000000000000 @
b1111111111111111111111111111111110000000000000000000001000110000 A
b0000011 C
b010 D
b0000000 E
0I
b10000000000000000000000010001000 J
b00000000000000000000000000000001 K
1m
#90
0m
#91
b10000000000000000000000010001000 #
b00000000000001001010011110000011 $
b01001 *
b01111 ,
b10000000000000000000000100110000 -
b10000000000000000000000100110000 0
b10000000000000000000000100110000 ?
b1111111111111111111111111111111110000000000000000000000100110000 A
b10000000000000000000000010001100 J
1m
#92
0m
#93
b10000000000000000000000010001100 #
b00000000010001000000010000010011 $
b0000 %
b0001 '
b01000 *
b00100 +
b01000 ,
b10000000000000000000001000110000 -
b10000000000000000000001000110100 /
b10000000000000000000001000110100 0
b00000000000000000000000000000000 1
b00000000000000000000000000000100 2
07
b10000000000000000000001000110000 ?
b00000000000000000000000000000100 @
b0000111111111111111111111111111111111000000000000000000000100011 A
b0010011 C
b000 D
1F
b10000000000000000000000010010000 J
b00000000000000000000000000000000 K
b00000000000000000000000000000001 [
1m
#94
0m
#95
b10000000000000000000000010010000 #
b00000000101010010000010100110011 $
b000001 (
b10010 *
b01010 +
b01010 ,
b00000000000000000000000000000000 -
b00000000000000000000000000000001 .
b00000000000000000000000000000001 /
b00000000000000000000000000000000 0
b00000000000000000000000000000000 2
0<
1>
b00000000000000000000000000000000 ?
b00000000000000000000000000000001 @
b0000000000000000000000000000000000000000000000000000000000000000 A
b0110011 C
0F
b10000000000000000000000010010100 J
b10000000000000000000001000110100 T
1m
#96
0m
#97
b10000000000000000000000010010100 #
b01000000111101010000010100110011 $
b0010 '
b01010 *
b01111 +
b00000000000000000000000000000001 -
b00000000000000000000000000000000 /
b00000000000000000000000000000001 0
b00000000000000000000000000000001 ?
b0100000 E
b10000000000000000000000010011000 J
1m
#98
0m
#99
b10000000000000000000000010011000 #
b00000000000101010011010100010011 $
b0100 '
b000100 (
b00001 +
b00000000000000000000000000000000 -
b10000000000000000000000010100000 .
b00000000000000000000000000000001 /
b00000000000000000000000000000001 2
1<
0>
b00000000000000000000000000000000 ?
b0010011 C
b011 D
b0000000 E
1F
b10000000000000000000000010011100 J
b00000000000000000000000000000000 V
1m
#100
0m
#101
b10000000000000000000000010011100 #
b11110111010111111111000011101111 $
b0001 '
b010000 (
b0111 )
b11111 *
b10101 +
b00001 ,
b10000000000000000000001000101100 .
b10000000000000000000000010100000 /
b11111111111111111111111101110100 0
b11111111111111111111111101110100 2
19
0<
b10000000000000000000000010011100 ?
b00000000000000000000000000000100 @
b0000111111111111111111111111111111111000000000000000000000001001 A
b1101111 C
b111 D
b1111011 E
0F
1H
b10000000000000000000000000010000 J
b00000000000000000000000000000001 V
1m
#102
0m
#103
b10000000000000000000000000010000 #
b00000000000001010000010001100011 $
0&
b0000 '
b001000 (
b0001 )
b01010 *
b00000 +
b01000 ,
b00000000000000000000000000000001 -
b00000000000000000000000000000000 .
b00000000000000000000000000000000 /
b00000000000000000000000000001001 0
b00000000000000000000000000001000 2
09
1;
b00000000000000000000000000000001 ?
b00000000000000000000000000000000 @
b0000000000000000000000000000000000000000000000000000000000000001 A
b1100011 C
b000 D
b0000000 E
0H
1I
b10000000000000000000000000010100 J
1m
#104
0m
#105
b10000000000000000000000000010100 #
b00000000000000001000000001100111 $
1&
b0001 '
b000100 (
b1000 )
b00001 *
b00000 ,
b10000000000000000000000010100000 -
b10000000000000000000000000011000 /
b10000000000000000000000010100000 0
b00000000000000000000000000000000 2
18
0;
1<
b10000000000000000000000000010100 ?
b00000000000000000000000000000100 @
b0000111111111111111111111111111111111000000000000000000000000001 A
b1100111 C
1G
0I
b10000000000000000000000010100000 J
1m
#106
0m
#107
b10000000000000000000000010100000 #
b00000000010001001000010010010011 $
b0000 )
b01001 *
b00100 +
b01001 ,
b10000000000000000000000100110000 -
b10000000000000000000000100110100 /
b10000000000000000000000100110100 0
b00000000000000000000000000000100 2
08
b10000000000000000000000100110000 ?
b0000111111111111111111111111111111111000000000000000000000010011 A
b0010011 C
1F
0G
b10000000000000000000000010100100 J
1m
#108
0m
#109
b10000000000000000000000010100100 #
b11111110100010011001000011100011 $
0&
b0000 '
b001000 (
b0010 )
b10011 *
b01000 +
b00001 ,
b10000000000000000000001001001100 -
b10000000000000000000001000110100 .
b00000000000000000000000000000000 /
b10000000000000000000001000101100 0
b11111111111111111111111111100000 2
13
1;
0<
b10000000000000000000001001001100 ?
b10000000000000000000001000110100 @
b0000000000000000000011111111111111111111111111111111100000000000 A
b1100011 C
b001 D
b1111111 E
0F
1I
b10000000000000000000000010000100 J
b10000000000000000000000100110100 U
1m
#110
0m
#111
b10000000000000000000000010000100 #
b00000000000001000010010100000011 $
b0110 %
1&
b000100 (
b0000 )
b01000 *
b00000 +
b01010 ,
b10000000000000000000001000110100 -
b00000000000000000000000000000000 .
b00000000000000000000000000000010 /
b10000000000000000000001000110100 0
b00000000000000000000000000000010 1
b00000000000000000000000000000000 2
03
17
0;
1<
b10000000000000000000001000110100 ?
b00000000000000000000000000000000 @
b1111111111111111111111111111111110000000000000000000001000110100 A
b0000011 C
b010 D
b0000000 E
0I
b10000000000000000000000010001000 J
b00000000000000000000000000000010 K
1m
#112
0m
