npc/dump.vcd
$version Generated by VerilatedVcd $end
$timescale 1s $end

 $scope module TOP $end
  $var wire  1 ?! clk $end
  $var wire 32 A! ins [31:0] $end
  $var wire 32 B! pc [31:0] $end
  $var wire 32 C! pc_last [31:0] $end
  $var wire  1 @! reset $end
  $var wire 32 D! result [31:0] $end
  $scope module ysyx_24080018_cpu $end
   $var wire  1 ?! clk $end
   $var wire  7 G! fun1 [6:0] $end
   $var wire 32 @ imm [31:0] $end
   $var wire 32 A! ins [31:0] $end
   $var wire 32 B! pc [31:0] $end
   $var wire 32 C! pc_last [31:0] $end
   $var wire  5 F! rd [4:0] $end
   $var wire 32 ] rdata [31:0] $end
   $var wire  1 @! reset $end
   $var wire 32 D! result [31:0] $end
   $var wire  5 E! rs1 [4:0] $end
   $var wire  1 A we $end
   $scope module alu0 $end
    $var wire 32 @ a [31:0] $end
    $var wire 32 ] b [31:0] $end
    $var wire  7 G! operate [6:0] $end
    $var wire 32 B! pc [31:0] $end
    $var wire 32 C! pc_last [31:0] $end
    $var wire 32 D! result [31:0] $end
    $scope module alu0 $end
     $var wire 32 _! DATA_LEN [31:0] $end
     $var wire 32 ^! KEY_LEN [31:0] $end
     $var wire 32 ]! NR_KEY [31:0] $end
     $var wire  7 G! key [6:0] $end
     $var wire 195 H! lut [194:0] $end
     $var wire 32 D! out [31:0] $end
     $scope module i0 $end
      $var wire 32 _! DATA_LEN [31:0] $end
      $var wire 32 `! HAS_DEFAULT [31:0] $end
      $var wire 32 ^! KEY_LEN [31:0] $end
      $var wire 32 ]! NR_KEY [31:0] $end
      $var wire 32 b! PAIR_LEN [31:0] $end
      $var wire 32 h data_list[0] [31:0] $end
      $var wire 32 i data_list[1] [31:0] $end
      $var wire 32 j data_list[2] [31:0] $end
      $var wire 32 k data_list[3] [31:0] $end
      $var wire 32 l data_list[4] [31:0] $end
      $var wire 32 a! default_out [31:0] $end
      $var wire  1 B hit $end
      $var wire 32 c! i [31:0] $end
      $var wire  7 G! key [6:0] $end
      $var wire  7 # key_list[0] [6:0] $end
      $var wire  7 $ key_list[1] [6:0] $end
      $var wire  7 % key_list[2] [6:0] $end
      $var wire  7 & key_list[3] [6:0] $end
      $var wire  7 ' key_list[4] [6:0] $end
      $var wire 195 H! lut [194:0] $end
      $var wire 32 m lut_out [31:0] $end
      $var wire 32 D! out [31:0] $end
      $var wire 39 ^ pair_list[0] [38:0] $end
      $var wire 39 ` pair_list[1] [38:0] $end
      $var wire 39 b pair_list[2] [38:0] $end
      $var wire 39 d pair_list[3] [38:0] $end
      $var wire 39 f pair_list[4] [38:0] $end
     $upscope $end
    $upscope $end
   $upscope $end
   $scope module gpr0 $end
    $var wire  1 ?! clk $end
    $var wire  5 F! rd [4:0] $end
    $var wire 32 ] rdata [31:0] $end
    $var wire 32 D! result [31:0] $end
    $var wire  5 E! rs1 [4:0] $end
    $var wire  1 A we $end
    $scope module gpr0 $end
     $var wire 32 ]! ADDR_WIDTH [31:0] $end
     $var wire 32 _! DATA_WIDTH [31:0] $end
     $var wire  1 ?! clk $end
     $var wire  5 E! raddr1 [4:0] $end
     $var wire 32 ] rdata1 [31:0] $end
     $var wire 32 } rf[0] [31:0] $end
     $var wire 32 )! rf[10] [31:0] $end
     $var wire 32 *! rf[11] [31:0] $end
     $var wire 32 +! rf[12] [31:0] $end
     $var wire 32 ,! rf[13] [31:0] $end
     $var wire 32 -! rf[14] [31:0] $end
     $var wire 32 .! rf[15] [31:0] $end
     $var wire 32 /! rf[16] [31:0] $end
     $var wire 32 0! rf[17] [31:0] $end
     $var wire 32 1! rf[18] [31:0] $end
     $var wire 32 2! rf[19] [31:0] $end
     $var wire 32 ~ rf[1] [31:0] $end
     $var wire 32 3! rf[20] [31:0] $end
     $var wire 32 4! rf[21] [31:0] $end
     $var wire 32 5! rf[22] [31:0] $end
     $var wire 32 6! rf[23] [31:0] $end
     $var wire 32 7! rf[24] [31:0] $end
     $var wire 32 8! rf[25] [31:0] $end
     $var wire 32 9! rf[26] [31:0] $end
     $var wire 32 :! rf[27] [31:0] $end
     $var wire 32 ;! rf[28] [31:0] $end
     $var wire 32 <! rf[29] [31:0] $end
     $var wire 32 !! rf[2] [31:0] $end
     $var wire 32 =! rf[30] [31:0] $end
     $var wire 32 >! rf[31] [31:0] $end
     $var wire 32 "! rf[3] [31:0] $end
     $var wire 32 #! rf[4] [31:0] $end
     $var wire 32 $! rf[5] [31:0] $end
     $var wire 32 %! rf[6] [31:0] $end
     $var wire 32 &! rf[7] [31:0] $end
     $var wire 32 '! rf[8] [31:0] $end
     $var wire 32 (! rf[9] [31:0] $end
     $var wire  5 F! waddr [4:0] $end
     $var wire 32 D! wdata [31:0] $end
     $var wire  1 A wen $end
    $upscope $end
   $upscope $end
   $scope module idu0 $end
    $var wire  7 G! fun1 [6:0] $end
    $var wire  1 A we $end
    $scope module idu0 $end
     $var wire 32 d! DATA_LEN [31:0] $end
     $var wire 32 ^! KEY_LEN [31:0] $end
     $var wire 32 ]! NR_KEY [31:0] $end
     $var wire  1 e! default_out [0:0] $end
     $var wire  7 G! key [6:0] $end
     $var wire 40 f! lut [39:0] $end
     $var wire  1 A out [0:0] $end
     $scope module i0 $end
      $var wire 32 d! DATA_LEN [31:0] $end
      $var wire 32 d! HAS_DEFAULT [31:0] $end
      $var wire 32 ^! KEY_LEN [31:0] $end
      $var wire 32 ]! NR_KEY [31:0] $end
      $var wire 32 h! PAIR_LEN [31:0] $end
      $var wire  1 2 data_list[0] [0:0] $end
      $var wire  1 3 data_list[1] [0:0] $end
      $var wire  1 4 data_list[2] [0:0] $end
      $var wire  1 5 data_list[3] [0:0] $end
      $var wire  1 6 data_list[4] [0:0] $end
      $var wire  1 e! default_out [0:0] $end
      $var wire  1 D hit $end
      $var wire 32 c! i [31:0] $end
      $var wire  7 G! key [6:0] $end
      $var wire  7 - key_list[0] [6:0] $end
      $var wire  7 . key_list[1] [6:0] $end
      $var wire  7 / key_list[2] [6:0] $end
      $var wire  7 0 key_list[3] [6:0] $end
      $var wire  7 1 key_list[4] [6:0] $end
      $var wire 40 f! lut [39:0] $end
      $var wire  1 C lut_out [0:0] $end
      $var wire  1 A out [0:0] $end
      $var wire  8 ( pair_list[0] [7:0] $end
      $var wire  8 ) pair_list[1] [7:0] $end
      $var wire  8 * pair_list[2] [7:0] $end
      $var wire  8 + pair_list[3] [7:0] $end
      $var wire  8 , pair_list[4] [7:0] $end
     $upscope $end
    $upscope $end
   $upscope $end
   $scope module imm0 $end
    $var wire 32 Q! B_imm [31:0] $end
    $var wire 32 E I_imm [31:0] $end
    $var wire 32 R! J_imm [31:0] $end
    $var wire 32 P! S_imm [31:0] $end
    $var wire 32 O! U_imm [31:0] $end
    $var wire  7 G! fun1 [6:0] $end
    $var wire 32 @ imm [31:0] $end
    $var wire 32 A! ins [31:0] $end
    $var wire  5 F! rd [4:0] $end
    $var wire  5 E! rs1 [4:0] $end
    $scope module imm0 $end
     $var wire 32 _! DATA_LEN [31:0] $end
     $var wire 32 ^! KEY_LEN [31:0] $end
     $var wire 32 ^! NR_KEY [31:0] $end
     $var wire  7 G! key [6:0] $end
     $var wire 273 S! lut [272:0] $end
     $var wire 32 @ out [31:0] $end
     $scope module i0 $end
      $var wire 32 _! DATA_LEN [31:0] $end
      $var wire 32 `! HAS_DEFAULT [31:0] $end
      $var wire 32 ^! KEY_LEN [31:0] $end
      $var wire 32 ^! NR_KEY [31:0] $end
      $var wire 32 b! PAIR_LEN [31:0] $end
      $var wire 32 T data_list[0] [31:0] $end
      $var wire 32 U data_list[1] [31:0] $end
      $var wire 32 V data_list[2] [31:0] $end
      $var wire 32 W data_list[3] [31:0] $end
      $var wire 32 X data_list[4] [31:0] $end
      $var wire 32 Y data_list[5] [31:0] $end
      $var wire 32 Z data_list[6] [31:0] $end
      $var wire 32 a! default_out [31:0] $end
      $var wire  1 \ hit $end
      $var wire 32 i! i [31:0] $end
      $var wire  7 G! key [6:0] $end
      $var wire  7 7 key_list[0] [6:0] $end
      $var wire  7 8 key_list[1] [6:0] $end
      $var wire  7 9 key_list[2] [6:0] $end
      $var wire  7 : key_list[3] [6:0] $end
      $var wire  7 ; key_list[4] [6:0] $end
      $var wire  7 < key_list[5] [6:0] $end
      $var wire  7 = key_list[6] [6:0] $end
      $var wire 273 S! lut [272:0] $end
      $var wire 32 [ lut_out [31:0] $end
      $var wire 32 @ out [31:0] $end
      $var wire 39 F pair_list[0] [38:0] $end
      $var wire 39 H pair_list[1] [38:0] $end
      $var wire 39 J pair_list[2] [38:0] $end
      $var wire 39 L pair_list[3] [38:0] $end
      $var wire 39 N pair_list[4] [38:0] $end
      $var wire 39 P pair_list[5] [38:0] $end
      $var wire 39 R pair_list[6] [38:0] $end
     $upscope $end
    $upscope $end
   $upscope $end
   $scope module pc0 $end
    $var wire  1 ?! clk $end
    $var wire 32 @ imm [31:0] $end
    $var wire  7 G! operate [6:0] $end
    $var wire 32 B! pc [31:0] $end
    $var wire 32 q pc_jalr [31:0] $end
    $var wire 32 o pc_jump [31:0] $end
    $var wire 32 C! pc_last [31:0] $end
    $var wire 32 p pc_next [31:0] $end
    $var wire 32 \! pc_plus_4 [31:0] $end
    $var wire 32 n pc_plus_imm [31:0] $end
    $var wire  1 @! reset $end
    $var wire 32 ] rs1 [31:0] $end
    $scope module pc2 $end
     $var wire 32 _! DATA_LEN [31:0] $end
     $var wire 32 ^! KEY_LEN [31:0] $end
     $var wire 32 j! NR_KEY [31:0] $end
     $var wire 32 \! default_out [31:0] $end
     $var wire  7 G! key [6:0] $end
     $var wire 78 r lut [77:0] $end
     $var wire 32 p out [31:0] $end
     $scope module i0 $end
      $var wire 32 _! DATA_LEN [31:0] $end
      $var wire 32 d! HAS_DEFAULT [31:0] $end
      $var wire 32 ^! KEY_LEN [31:0] $end
      $var wire 32 j! NR_KEY [31:0] $end
      $var wire 32 b! PAIR_LEN [31:0] $end
      $var wire 32 y data_list[0] [31:0] $end
      $var wire 32 z data_list[1] [31:0] $end
      $var wire 32 \! default_out [31:0] $end
      $var wire  1 | hit $end
      $var wire 32 k! i [31:0] $end
      $var wire  7 G! key [6:0] $end
      $var wire  7 > key_list[0] [6:0] $end
      $var wire  7 ? key_list[1] [6:0] $end
      $var wire 78 r lut [77:0] $end
      $var wire 32 { lut_out [31:0] $end
      $var wire 32 p out [31:0] $end
      $var wire 39 u pair_list[0] [38:0] $end
      $var wire 39 w pair_list[1] [38:0] $end
     $upscope $end
    $upscope $end
    $scope module reg_inst $end
     $var wire 32 l! RESET_VAL [31:0] $end
     $var wire 32 _! WIDTH [31:0] $end
     $var wire  1 ?! clk $end
     $var wire 32 p din [31:0] $end
     $var wire 32 B! dout [31:0] $end
     $var wire  1 @! rst $end
     $var wire  1 m! wen $end
    $upscope $end
    $scope module reg_inst_last $end
     $var wire 32 l! RESET_VAL [31:0] $end
     $var wire 32 _! WIDTH [31:0] $end
     $var wire  1 ?! clk $end
     $var wire 32 B! din [31:0] $end
     $var wire 32 C! dout [31:0] $end
     $var wire  1 @! rst $end
     $var wire  1 m! wen $end
    $upscope $end
   $upscope $end
  $upscope $end
 $upscope $end
$enddefinitions $end


#1
b1100111 #
b1101111 $
b0010111 %
b0110111 &
b0010011 '
b11001111 (
b11011111 )
b00101111 *
b01101111 +
b00100111 ,
b1100111 -
b1101111 .
b0010111 /
b0110111 0
b0010011 1
12
13
14
15
16
b1101111 7
b1100011 8
b0100011 9
b0010111 :
b0110111 ;
b1100111 <
b0010011 =
b1100111 >
b1101111 ?
b00000000000000000000000000000000 @
0A
0B
0C
0D
b00000000000000000000000000000000 E
b110111100000000000000000000000000000000 F
b110001100000000000000000000000000000000 H
b010001100000000000000000000000000000000 J
b001011100000000000000000000000000000000 L
b011011100000000000000000000000000000000 N
b110011100000000000000000000000000000000 P
b001001100000000000000000000000000000000 R
b00000000000000000000000000000000 T
b00000000000000000000000000000000 U
b00000000000000000000000000000000 V
b00000000000000000000000000000000 W
b00000000000000000000000000000000 X
b00000000000000000000000000000000 Y
b00000000000000000000000000000000 Z
b00000000000000000000000000000000 [
0\
b00000000000000000000000000000000 ]
b110011100000000000000000000000000000100 ^
b110111100000000000000000000000000000100 `
b001011100000000000000000000000000000000 b
b011011100000000000000000000000000000000 d
b001001100000000000000000000000000000000 f
b00000000000000000000000000000100 h
b00000000000000000000000000000100 i
b00000000000000000000000000000000 j
b00000000000000000000000000000000 k
b00000000000000000000000000000000 l
b00000000000000000000000000000000 m
b00000000000000000000000000000000 n
b00000000000000000000000000000001 o
b00000000000000000000000000000100 p
b00000000000000000000000000000000 q
b110111100000000000000000000000000000001110011100000000000000000000000000000000 r
b110011100000000000000000000000000000000 u
b110111100000000000000000000000000000001 w
b00000000000000000000000000000000 y
b00000000000000000000000000000001 z
b00000000000000000000000000000000 {
0|
b00000000000000000000000000000000 }
b00000000000000000000000000000000 ~
b00000000000000000000000000000000 !!
b00000000000000000000000000000000 "!
b00000000000000000000000000000000 #!
b00000000000000000000000000000000 $!
b00000000000000000000000000000000 %!
b00000000000000000000000000000000 &!
b00000000000000000000000000000000 '!
b00000000000000000000000000000000 (!
b00000000000000000000000000000000 )!
b00000000000000000000000000000000 *!
b00000000000000000000000000000000 +!
b00000000000000000000000000000000 ,!
b00000000000000000000000000000000 -!
b00000000000000000000000000000000 .!
b00000000000000000000000000000000 /!
b00000000000000000000000000000000 0!
b00000000000000000000000000000000 1!
b00000000000000000000000000000000 2!
b00000000000000000000000000000000 3!
b00000000000000000000000000000000 4!
b00000000000000000000000000000000 5!
b00000000000000000000000000000000 6!
b00000000000000000000000000000000 7!
b00000000000000000000000000000000 8!
b00000000000000000000000000000000 9!
b00000000000000000000000000000000 :!
b00000000000000000000000000000000 ;!
b00000000000000000000000000000000 <!
b00000000000000000000000000000000 =!
b00000000000000000000000000000000 >!
0?!
1@!
b00000000000000000000000000000000 A!
b00000000000000000000000000000000 B!
b00000000000000000000000000000000 C!
b00000000000000000000000000000000 D!
b00000 E!
b00000 F!
b0000000 G!
b001001100000000000000000000000000000000011011100000000000000000000000000000000001011100000000000000000000000000000000110111100000000000000000000000000000100110011100000000000000000000000000000100 H!
b00000000000000000000000000000000 O!
b00000000000000000000000000000000 P!
b00000000000000000000000000000000 Q!
b00000000000000000000000000000000 R!
b001001100000000000000000000000000000000110011100000000000000000000000000000000011011100000000000000000000000000000000001011100000000000000000000000000000000010001100000000000000000000000000000000110001100000000000000000000000000000000110111100000000000000000000000000000000 S!
b00000000000000000000000000000100 \!
b00000000000000000000000000000101 ]!
b00000000000000000000000000000111 ^!
b00000000000000000000000000100000 _!
b00000000000000000000000000000000 `!
b00000000000000000000000000000000 a!
b00000000000000000000000000100111 b!
b00000000000000000000000000000101 c!
b00000000000000000000000000000001 d!
0e!
b0010011101101111001011111101111111001111 f!
b00000000000000000000000000001000 h!
b00000000000000000000000000000111 i!
b00000000000000000000000000000010 j!
b00000000000000000000000000000010 k!
b10000000000000000000000000000000 l!
1m!
#2
b110011110000000000000000000000000000100 ^
b110111110000000000000000000000000000100 `
b001011110000000000000000000000000000000 b
b10000000000000000000000000000100 h
b10000000000000000000000000000100 i
b10000000000000000000000000000000 j
b10000000000000000000000000000000 n
b10000000000000000000000000000001 o
b10000000000000000000000000000100 p
b110111110000000000000000000000000000001110011100000000000000000000000000000000 r
b110111110000000000000000000000000000001 w
b10000000000000000000000000000001 z
1?!
b10000000000000000000000000000000 B!
b10000000000000000000000000000000 C!
b001001100000000000000000000000000000000011011100000000000000000000000000000000001011110000000000000000000000000000000110111110000000000000000000000000000100110011110000000000000000000000000000100 H!
b10000000000000000000000000000100 \!
#3
0?!
0@!
#4
b001011110000000000000000000000000000100 b
b10000000000000000000000000000100 j
b10000000000000000000000000000100 n
b10000000000000000000000000000101 o
b10000000000000000000000000001000 p
b110111110000000000000000000000000000101110011100000000000000000000000000000000 r
b110111110000000000000000000000000000101 w
b10000000000000000000000000000101 z
1?!
b10000000000000000000000000000100 B!
b001001100000000000000000000000000000000011011100000000000000000000000000000000001011110000000000000000000000000000100110111110000000000000000000000000000100110011110000000000000000000000000000100 H!
b10000000000000000000000000001000 \!
#5
0?!
#6
1A
1B
1C
1D
b110001100000000000000000000000000001000 H
b010001100000000000000000000000000001000 J
b00000000000000000000000000001000 U
b00000000000000000000000000001000 V
1\
b110011110000000000000000000000000001000 ^
b110111110000000000000000000000000001000 `
b001011110000000000000000000000000001000 b
b10000000000000000000000000001000 h
b10000000000000000000000000001000 i
b10000000000000000000000000001000 j
b10000000000000000000000000001000 n
b10000000000000000000000000001001 o
b10000000000000000000000000001100 p
b110111110000000000000000000000000001001110011100000000000000000000000000000000 r
b110111110000000000000000000000000001001 w
b10000000000000000000000000001001 z
1?!
b00000000000000000000010000010011 A!
b10000000000000000000000000001000 B!
b10000000000000000000000000000100 C!
b01000 F!
b0010011 G!
b001001100000000000000000000000000000000011011100000000000000000000000000000000001011110000000000000000000000000001000110111110000000000000000000000000001000110011110000000000000000000000000001000 H!
b00000000000000000000000000001000 P!
b00000000000000000000000000001000 Q!
b001001100000000000000000000000000000000110011100000000000000000000000000000000011011100000000000000000000000000000000001011100000000000000000000000000000000010001100000000000000000000000000001000110001100000000000000000000000000001000110111100000000000000000000000000000000 S!
b10000000000000000000000000001100 \!
#7
0?!
#8
b00000000000000001001000000000000 @
b110111100000000000000001001000000000000 F
b110001100000000000000000000000000000010 H
b010001100000000000000000000000000000010 J
b001011100000000000000001001000000000000 L
b011011100000000000000001001000000000000 N
b00000000000000001001000000000000 T
b00000000000000000000000000000010 U
b00000000000000000000000000000010 V
b00000000000000001001000000000000 W
b00000000000000001001000000000000 X
b00000000000000001001000000000000 [
b110011110000000000000000000000000001100 ^
b110111110000000000000000000000000001100 `
b001011110000000000000001001000000001100 b
b011011100000000000000001001000000000000 d
b001001100000000000000001001000000000000 f
b10000000000000000000000000001100 h
b10000000000000000000000000001100 i
b10000000000000001001000000001100 j
b00000000000000001001000000000000 k
b00000000000000001001000000000000 l
b10000000000000001001000000001100 m
b10000000000000001001000000001100 n
b10000000000000001001000000001101 o
b10000000000000000000000000010000 p
b00000000000000001001000000000000 q
b110111110000000000000001001000000001101110011100000000000000001001000000000000 r
b110011100000000000000001001000000000000 u
b110111110000000000000001001000000001101 w
b00000000000000001001000000000000 y
b10000000000000001001000000001101 z
b10000000000000001001000000001000 !!
1?!
b00000000000000001001000100010111 A!
b10000000000000000000000000001100 B!
b10000000000000000000000000001000 C!
b10000000000000001001000000001100 D!
b00001 E!
b00010 F!
b0010111 G!
b001001100000000000000001001000000000000011011100000000000000001001000000000000001011110000000000000001001000000001100110111110000000000000000000000000001100110011110000000000000000000000000001100 H!
b00000000000000001001000000000000 O!
b00000000000000000000000000000010 P!
b00000000000000000000000000000010 Q!
b00000000000000001001000000000000 R!
b001001100000000000000000000000000000000110011100000000000000000000000000000000011011100000000000000001001000000000000001011100000000000000001001000000000000010001100000000000000000000000000000010110001100000000000000000000000000000010110111100000000000000001001000000000000 S!
b10000000000000000000000000010000 \!
#9
0?!
#10
b11111111111111111111111111111100 @
b11111111111111111111111111111100 E
b110111111111111111100010000011111111100 F
b110001111111111111111111111011111100010 H
b010001111111111111111111111111111100010 J
b001011111111111110000010000000000000000 L
b011011111111111110000010000000000000000 N
b110011111111111111111111111111111111100 P
b001001111111111111111111111111111111100 R
b11111111111100010000011111111100 T
b11111111111111111111011111100010 U
b11111111111111111111111111100010 V
b11111111110000010000000000000000 W
b11111111110000010000000000000000 X
b11111111111111111111111111111100 Y
b11111111111111111111111111111100 Z
b11111111111111111111111111111100 [
b10000000000000001001000000000100 ]
b110011110000000000000000000000000010000 ^
b110111110000000000000000000000000010000 `
b001011110000000000000000000000000001100 b
b011011111111111111111111111111111111100 d
b001001110000000000000001001000000000000 f
b10000000000000000000000000010000 h
b10000000000000000000000000010000 i
b10000000000000000000000000001100 j
b11111111111111111111111111111100 k
b10000000000000001001000000000000 l
b10000000000000001001000000000000 m
b10000000000000000000000000001100 n
b10000000000000000000000000001101 o
b10000000000000000000000000010100 p
b10000000000000001001000000000000 q
b110111110000000000000000000000000001101110011110000000000000001001000000000000 r
b110011110000000000000001001000000000000 u
b110111110000000000000000000000000001101 w
b10000000000000001001000000000000 y
b10000000000000000000000000001101 z
b10000000000000001001000000000100 !!
1?!
b11111111110000010000000100010011 A!
b10000000000000000000000000010000 B!
b10000000000000000000000000001100 C!
b10000000000000001001000000000000 D!
b00010 E!
b0010011 G!
b001001110000000000000001001000000000000011011111111111111111111111111111111100001011110000000000000000000000000001100110111110000000000000000000000000010000110011110000000000000000000000000010000 H!
b11111111110000010000000000000000 O!
b11111111111111111111111111100010 P!
b11111111111111111111011111100010 Q!
b11111111111100010000011111111100 R!
b001001111111111111111111111111111111100110011111111111111111111111111111111100011011111111111110000010000000000000000001011111111111110000010000000000000000010001111111111111111111111111111100010110001111111111111111111111011111100010110111111111111111100010000011111111100 S!
b10000000000000000000000000010100 \!
#11
0?!
#12
b00000000000000000000000000001100 @
b00000000000000000000000000001100 E
b110111100000000000000000000000000001100 F
b110001100000000000000000000100000000000 H
b010001100000000000000000000000000000001 J
b001011100000000110000000000000000000000 L
b011011100000000110000000000000000000000 N
b110011100000000000000000000000000001100 P
b001001100000000000000000000000000001100 R
b00000000000000000000000000001100 T
b00000000000000000000100000000000 U
b00000000000000000000000000000001 V
b00000000110000000000000000000000 W
b00000000110000000000000000000000 X
b00000000000000000000000000001100 Y
b00000000000000000000000000001100 Z
b00000000000000000000000000001100 [
b00000000000000000000000000000000 ]
b110011110000000000000000000000000010100 ^
b110111110000000000000000000000000010100 `
b001011110000000000000000000000000101001 b
b011011100000000000000000000000000001100 d
b001001100000000000000000000000000001100 f
b10000000000000000000000000010100 h
b10000000000000000000000000010100 i
b10000000000000000000000000101001 j
b00000000000000000000000000001100 k
b00000000000000000000000000001100 l
b10000000000000000000000000010100 m
b10000000000000000000000000101001 n
b10000000000000000000000000101001 o
b10000000000000000000000000101001 p
b00000000000000000000000000001100 q
b110111110000000000000000000000000101001110011100000000000000000000000000001100 r
b110011100000000000000000000000000001100 u
b110111110000000000000000000000000101001 w
b00000000000000000000000000001100 y
b10000000000000000000000000101001 z
b10000000000000000000000000101001 {
1|
b10000000000000000000000000010000 ~
1?!
b00000000110000000000000011101111 A!
b10000000000000000000000000011101 B!
b10000000000000000000000000010000 C!
b10000000000000000000000000010100 D!
b00000 E!
b00001 F!
b1101111 G!
b001001100000000000000000000000000001100011011100000000000000000000000000001100001011110000000000000000000000000101001110111110000000000000000000000000010100110011110000000000000000000000000010100 H!
b00000000110000000000000000000000 O!
b00000000000000000000000000000001 P!
b00000000000000000000100000000000 Q!
b00000000000000000000000000001100 R!
b001001100000000000000000000000000001100110011100000000000000000000000000001100011011100000000110000000000000000000000001011100000000110000000000000000000000010001100000000000000000000000000000001110001100000000000000000000100000000000110111100000000000000000000000000001100 S!
b10000000000000000000000000100001 \!
#13
0?!
#14
b00000000000000000000000000000000 @
b00000000000000000000000000000000 E
b110111100000000000000000000000000000000 F
b110001100000000000000000000000000001010 H
b010001100000000000000000000000000001010 J
b001011100000000000000000000000000000000 L
b011011100000000000000000000000000000000 N
b110011100000000000000000000000000000000 P
b001001100000000000000000000000000000000 R
b00000000000000000000000000000000 T
b00000000000000000000000000001010 U
b00000000000000000000000000001010 V
b00000000000000000000000000000000 W
b00000000000000000000000000000000 X
b00000000000000000000000000000000 Y
b00000000000000000000000000000000 Z
b00000000000000000000000000000000 [
b110011110000000000000000000000000100001 ^
b110111110000000000000000000000000100001 `
b001011110000000000000000000000000100001 b
b011011100000000000000000000000000000000 d
b001001100000000000000000000000000000000 f
b10000000000000000000000000100001 h
b10000000000000000000000000100001 i
b10000000000000000000000000100001 j
b00000000000000000000000000000000 k
b00000000000000000000000000000000 l
b00000000000000000000000000000000 m
b10000000000000000000000000100001 n
b10000000000000000000000000100001 o
b10000000000000000000000000100101 p
b00000000000000000000000000000000 q
b110111110000000000000000000000000100001110011100000000000000000000000000000000 r
b110011100000000000000000000000000000000 u
b110111110000000000000000000000000100001 w
b00000000000000000000000000000000 y
b10000000000000000000000000100001 z
b00000000000000000000000000000000 {
0|
1?!
b00000000000000000000010100010011 A!
b10000000000000000000000000100001 B!
b10000000000000000000000000011101 C!
b00000000000000000000000000000000 D!
b01010 F!
b0010011 G!
b001001100000000000000000000000000000000011011100000000000000000000000000000000001011110000000000000000000000000100001110111110000000000000000000000000100001110011110000000000000000000000000100001 H!
b00000000000000000000000000000000 O!
b00000000000000000000000000001010 P!
b00000000000000000000000000001010 Q!
b00000000000000000000000000000000 R!
b001001100000000000000000000000000000000110011100000000000000000000000000000000011011100000000000000000000000000000000001011100000000000000000000000000000000010001100000000000000000000000000001010110001100000000000000000000000000001010110111100000000000000000000000000000000 S!
b10000000000000000000000000100101 \!
#15
0?!
#16
b110011110000000000000000000000000100101 ^
b110111110000000000000000000000000100101 `
b001011110000000000000000000000000100101 b
b10000000000000000000000000100101 h
b10000000000000000000000000100101 i
b10000000000000000000000000100101 j
b10000000000000000000000000100101 m
b10000000000000000000000000100101 n
b10000000000000000000000000100101 o
b10000000000000000000000000101001 p
b110111110000000000000000000000000100101110011100000000000000000000000000000000 r
b110111110000000000000000000000000100101 w
b10000000000000000000000000100101 z
b10000000000000000000000000100001 )!
1?!
b00000000000000000000010100010111 A!
b10000000000000000000000000100101 B!
b10000000000000000000000000100001 C!
b10000000000000000000000000100101 D!
b0010111 G!
b001001100000000000000000000000000000000011011100000000000000000000000000000000001011110000000000000000000000000100101110111110000000000000000000000000100101110011110000000000000000000000000100101 H!
b10000000000000000000000000101001 \!
#17
0?!
#18
b00000000000000000000000000010100 @
b00000000000000000000000000010100 E
b110111100000000000001010000000000010100 F
b001011100000001010001010000000000000000 L
b011011100000001010001010000000000000000 N
b110011100000000000000000000000000010100 P
b001001100000000000000000000000000010100 R
b00000000000001010000000000010100 T
b00000001010001010000000000000000 W
b00000001010001010000000000000000 X
b00000000000000000000000000010100 Y
b00000000000000000000000000010100 Z
b00000000000000000000000000010100 [
b10000000000000000000000000110101 ]
b110011110000000000000000000000000101001 ^
b110111110000000000000000000000000101001 `
b001011110000000000000000000000000111101 b
b011011100000000000000000000000000010100 d
b001001110000000000000000000000001001001 f
b10000000000000000000000000101001 h
b10000000000000000000000000101001 i
b10000000000000000000000000111101 j
b00000000000000000000000000010100 k
b10000000000000000000000001001001 l
b10000000000000000000000001001001 m
b10000000000000000000000000111101 n
b10000000000000000000000000111101 o
b10000000000000000000000000101101 p
b10000000000000000000000001001000 q
b110111110000000000000000000000000111101110011110000000000000000000000001001000 r
b110011110000000000000000000000001001000 u
b110111110000000000000000000000000111101 w
b10000000000000000000000001001000 y
b10000000000000000000000000111101 z
b10000000000000000000000000110101 )!
1?!
b00000001010001010000010100010011 A!
b10000000000000000000000000101001 B!
b10000000000000000000000000100101 C!
b10000000000000000000000001001001 D!
b01010 E!
b0010011 G!
b001001110000000000000000000000001001001011011100000000000000000000000000010100001011110000000000000000000000000111101110111110000000000000000000000000101001110011110000000000000000000000000101001 H!
b00000001010001010000000000000000 O!
b00000000000001010000000000010100 R!
b001001100000000000000000000000000010100110011100000000000000000000000000010100011011100000001010001010000000000000000001011100000001010001010000000000000000010001100000000000000000000000000001010110001100000000000000000000000000001010110111100000000000001010000000000010100 S!
b10000000000000000000000000101101 \!
#19
0?!
#20
b00000000000000000000000000001000 @
0A
0B
0C
0D
b00000000000000000000000000000001 E
b110111100000000000000010010100000000000 F
b110001100000000000000000000000000001000 H
b010001100000000000000000000000000001000 J
b001011100000000000100010010000000000000 L
b011011100000000000100010010000000000000 N
b110011100000000000000000000000000000001 P
b001001100000000000000000000000000000001 R
b00000000000000010010100000000000 T
b00000000000000000000000000001000 U
b00000000000000000000000000001000 V
b00000000000100010010000000000000 W
b00000000000100010010000000000000 X
b00000000000000000000000000000001 Y
b00000000000000000000000000000001 Z
b00000000000000000000000000001000 [
b10000000000000001001000000000100 ]
b110011110000000000000000000000000101101 ^
b110111110000000000000000000000000101101 `
b001011110000000000000000000000000110101 b
b011011100000000000000000000000000001000 d
b001001110000000000000001001000000001100 f
b10000000000000000000000000101101 h
b10000000000000000000000000101101 i
b10000000000000000000000000110101 j
b00000000000000000000000000001000 k
b10000000000000001001000000001100 l
b00000000000000000000000000000000 m
b10000000000000000000000000110101 n
b10000000000000000000000000110101 o
b10000000000000000000000000110001 p
b10000000000000001001000000001100 q
b110111110000000000000000000000000110101110011110000000000000001001000000001100 r
b110011110000000000000001001000000001100 u
b110111110000000000000000000000000110101 w
b10000000000000001001000000001100 y
b10000000000000000000000000110101 z
1?!
b00000000000100010010010000100011 A!
b10000000000000000000000000101101 B!
b10000000000000000000000000101001 C!
b00000000000000000000000000000000 D!
b00010 E!
b01000 F!
b0100011 G!
b001001110000000000000001001000000001100011011100000000000000000000000000001000001011110000000000000000000000000110101110111110000000000000000000000000101101110011110000000000000000000000000101101 H!
b00000000000100010010000000000000 O!
b00000000000000000000000000001000 P!
b00000000000000000000000000001000 Q!
b00000000000000010010100000000000 R!
b001001100000000000000000000000000000001110011100000000000000000000000000000001011011100000000000100010010000000000000001011100000000000100010010000000000000010001100000000000000000000000000001000110001100000000000000000000000000001000110111100000000000000010010100000000000 S!
b10000000000000000000000000110001 \!
#21
0?!
