npc/wave.vcd
$version Generated by VerilatedVcd $end
$timescale 1s $end
 $scope module TOP $end
  $var wire 1 ^! clk $end
  $var wire 1 _! reset $end
  $scope module top $end
   $var wire 1 ^! clk $end
   $var wire 1 _! reset $end
   $var wire 32 # ifu_pc [31:0] $end
   $var wire 32 $ exu_pc [31:0] $end
   $var wire 32 % inst [31:0] $end
   $var wire 4 & lsu_cnt [3:0] $end
   $var wire 1 ' mem_cnt $end
   $var wire 4 ( alu_cnt [3:0] $end
   $var wire 6 ) ins_cnt [5:0] $end
   $var wire 3 * csr_cnt [2:0] $end
   $var wire 4 + pc_cnt [3:0] $end
   $var wire 5 , raddr1 [4:0] $end
   $var wire 5 - raddr2 [4:0] $end
   $var wire 5 . waddr [4:0] $end
   $var wire 32 / rdata1 [31:0] $end
   $var wire 32 0 rdata2 [31:0] $end
   $var wire 32 1 wdata [31:0] $end
   $var wire 32 2 addr_load [31:0] $end
   $var wire 32 2 addr_store [31:0] $end
   $var wire 32 3 data_load [31:0] $end
   $var wire 32 0 data_store [31:0] $end
   $var wire 32 4 imm [31:0] $end
   $var wire 12 5 csr_imm [11:0] $end
   $var wire 32 6 csr_data [31:0] $end
   $var wire 1 7 br_taken $end
   $var wire 1 8 auipc $end
   $var wire 1 9 lui $end
   $var wire 1 : ebreak $end
   $var wire 1 ; load $end
   $var wire 1 < jalr $end
   $var wire 1 = jal $end
   $var wire 1 > ControlHazard $end
   $var wire 1 ? ifu_idu_valid $end
   $var wire 1 @ idu_exu_valid $end
   $var wire 1 A exu_mem_valid $end
   $var wire 1 B mem_wbu_valid $end
   $var wire 1 C exu_csr_valid $end
   $var wire 1 `! exu_wbu_valid $end
   $var wire 1 D csr_wbu_valid $end
   $var wire 1 E idu_ifu_ready $end
   $var wire 1 F exu_idu_ready $end
   $var wire 1 G mem_exu_ready $end
   $var wire 1 H wbu_mem_ready $end
   $var wire 1 I csr_exu_ready $end
   $var wire 1 a! wbu_exu_ready $end
   $var wire 1 J wbu_csr_ready $end
   $scope module csr_t0 $end
    $var wire 1 C exu_csr_valid $end
    $var wire 1 I csr_exu_ready $end
    $var wire 1 D csr_wbu_valid $end
    $var wire 1 J wbu_csr_ready $end
    $var wire 1 ^! clk $end
    $var wire 1 _! reset $end
    $var wire 32 # pc_in [31:0] $end
    $var wire 3 * csr_cnt [2:0] $end
    $var wire 12 5 csr_imm [11:0] $end
    $var wire 32 / wdata [31:0] $end
    $var wire 32 6 rdata [31:0] $end
    $var wire 2 b! IDLE [1:0] $end
    $var wire 2 c! CSR_READ [1:0] $end
    $var wire 2 d! CSR_WRITE [1:0] $end
    $var wire 2 e! WAIT_WBU [1:0] $end
    $var wire 2 K cstate [1:0] $end
    $var wire 2 L nstate [1:0] $end
    $var wire 32 M mtvec [31:0] $end
    $var wire 32 N mepc [31:0] $end
    $var wire 32 O mstatus [31:0] $end
    $var wire 32 P mcause [31:0] $end
    $var wire 32 Q mcycle [31:0] $end
    $var wire 32 R mcycleh [31:0] $end
    $var wire 32 S mvendorid [31:0] $end
    $var wire 32 T marchid [31:0] $end
    $var wire 32 6 rdata_reg [31:0] $end
    $var wire 1 I csr_exu_ready_reg $end
    $var wire 1 D csr_wbu_valid_reg $end
    $var wire 32 U temp [31:0] $end
    $var wire 3 V csr_cnt_reg [2:0] $end
    $var wire 12 W csr_imm_reg [11:0] $end
    $var wire 32 X wdata_reg [31:0] $end
   $upscope $end
   $scope module exu_t0 $end
    $var wire 1 @ idu_exu_valid $end
    $var wire 1 F exu_idu_ready $end
    $var wire 1 A exu_mem_valid $end
    $var wire 1 G mem_exu_ready $end
    $var wire 1 C exu_csr_valid $end
    $var wire 1 I csr_exu_ready $end
    $var wire 1 ^! clk $end
    $var wire 1 _! reset $end
    $var wire 1 > ControlHazard $end
    $var wire 32 # pc_in [31:0] $end
    $var wire 32 $ pc_out [31:0] $end
    $var wire 4 + pc_cnt [3:0] $end
    $var wire 4 ( alu_cnt [3:0] $end
    $var wire 3 * csr_cnt [2:0] $end
    $var wire 1 8 auipc $end
    $var wire 1 9 lui $end
    $var wire 1 < jalr $end
    $var wire 1 ; load $end
    $var wire 1 = jal $end
    $var wire 32 4 imm [31:0] $end
    $var wire 32 6 csr_data [31:0] $end
    $var wire 32 1 alu_result [31:0] $end
    $var wire 1 7 br_taken $end
    $var wire 32 / rdata1 [31:0] $end
    $var wire 32 0 rdata2 [31:0] $end
    $var wire 32 3 data_load [31:0] $end
    $var wire 6 ) ins_cnt [5:0] $end
    $var wire 1 f! IDLE [0:0] $end
    $var wire 1 g! EXECUTE [0:0] $end
    $var wire 1 Y cstate $end
    $var wire 1 Z nstate $end
    $var wire 1 7 br_taken_reg $end
    $var wire 1 A exu_mem_valid_reg $end
    $var wire 1 C exu_csr_valid_reg $end
    $var wire 1 [ UType $end
    $var wire 1 \ JType $end
    $var wire 1 ] BType $end
    $var wire 1 ^ IType $end
    $var wire 1 _ SType $end
    $var wire 1 ` RType $end
    $var wire 32 a alu_a [31:0] $end
    $var wire 32 b alu_b [31:0] $end
    $var wire 32 $ pc_exu [31:0] $end
    $var wire 64 c shift_temp [63:0] $end
   $upscope $end
   $scope module gpr_t0 $end
    $var wire 1 B mem_wbu_valid $end
    $var wire 1 H wbu_mem_ready $end
    $var wire 1 J wbu_csr_ready $end
    $var wire 1 D csr_wbu_valid $end
    $var wire 1 ^! clk $end
    $var wire 1 _! reset $end
    $var wire 32 # pc_in [31:0] $end
    $var wire 5 , raddr1 [4:0] $end
    $var wire 5 - raddr2 [4:0] $end
    $var wire 32 / rdata1 [31:0] $end
    $var wire 32 0 rdata2 [31:0] $end
    $var wire 5 . waddr [4:0] $end
    $var wire 32 1 wdata [31:0] $end
    $var wire 1 : ebreak $end
    $var wire 1 ' mem_cnt $end
    $var wire 2 b! IDLE [1:0] $end
    $var wire 2 c! MEM_WRITE [1:0] $end
    $var wire 2 d! CSR_WRITE [1:0] $end
    $var wire 2 e! EXU_WRITE [1:0] $end
    $var wire 2 e cstate [1:0] $end
    $var wire 2 f nstate [1:0] $end
    $var wire 32 g rf[0] [31:0] $end
    $var wire 32 h rf[1] [31:0] $end
    $var wire 32 i rf[2] [31:0] $end
    $var wire 32 j rf[3] [31:0] $end
    $var wire 32 k rf[4] [31:0] $end
    $var wire 32 l rf[5] [31:0] $end
    $var wire 32 m rf[6] [31:0] $end
    $var wire 32 n rf[7] [31:0] $end
    $var wire 32 o rf[8] [31:0] $end
    $var wire 32 p rf[9] [31:0] $end
    $var wire 32 q rf[10] [31:0] $end
    $var wire 32 r rf[11] [31:0] $end
    $var wire 32 s rf[12] [31:0] $end
    $var wire 32 t rf[13] [31:0] $end
    $var wire 32 u rf[14] [31:0] $end
    $var wire 32 v rf[15] [31:0] $end
    $var wire 32 w rf[16] [31:0] $end
    $var wire 32 x rf[17] [31:0] $end
    $var wire 32 y rf[18] [31:0] $end
    $var wire 32 z rf[19] [31:0] $end
    $var wire 32 { rf[20] [31:0] $end
    $var wire 32 | rf[21] [31:0] $end
    $var wire 32 } rf[22] [31:0] $end
    $var wire 32 ~ rf[23] [31:0] $end
    $var wire 32 !! rf[24] [31:0] $end
    $var wire 32 "! rf[25] [31:0] $end
    $var wire 32 #! rf[26] [31:0] $end
    $var wire 32 $! rf[27] [31:0] $end
    $var wire 32 %! rf[28] [31:0] $end
    $var wire 32 &! rf[29] [31:0] $end
    $var wire 32 '! rf[30] [31:0] $end
    $var wire 32 (! rf[31] [31:0] $end
    $var wire 32 )! wdata_reg [31:0] $end
    $var wire 1 H wbu_mem_ready_reg $end
    $var wire 1 J wbu_csr_ready_reg $end
    $var wire 1 *! wen_reg $end
    $var wire 5 +! waddr_reg [4:0] $end
    $scope module unnamedblk1 $end
     $var wire 32 ,! i [31:0] $end
    $upscope $end
   $upscope $end
   $scope module idu_t0 $end
    $var wire 1 ? ifu_idu_valid $end
    $var wire 1 E idu_ifu_ready $end
    $var wire 1 @ idu_exu_valid $end
    $var wire 1 F exu_idu_ready $end
    $var wire 1 ^! clk $end
    $var wire 1 _! reset $end
    $var wire 32 % inst [31:0] $end
    $var wire 4 + o_pc_cnt [3:0] $end
    $var wire 4 & o_lsu_cnt [3:0] $end
    $var wire 1 ' o_mem_cnt $end
    $var wire 4 ( o_alu_cnt [3:0] $end
    $var wire 6 ) o_ins_cnt [5:0] $end
    $var wire 3 * o_csr_cnt [2:0] $end
    $var wire 5 , o_rs1 [4:0] $end
    $var wire 5 - o_rs2 [4:0] $end
    $var wire 5 . o_rd [4:0] $end
    $var wire 32 4 o_imm [31:0] $end
    $var wire 12 5 o_csr_imm [11:0] $end
    $var wire 1 8 o_auipc $end
    $var wire 1 9 o_lui $end
    $var wire 1 : o_ebreak $end
    $var wire 1 ; o_load $end
    $var wire 1 = o_jal $end
    $var wire 1 < o_jalr $end
    $var wire 1 > ControlHazard $end
    $var wire 7 -! opcode [6:0] $end
    $var wire 3 .! fun3 [2:0] $end
    $var wire 7 /! fun7 [6:0] $end
    $var wire 4 0! pc_cnt [3:0] $end
    $var wire 4 1! lsu_cnt [3:0] $end
    $var wire 1 2! mem_cnt $end
    $var wire 4 3! alu_cnt [3:0] $end
    $var wire 6 4! ins_cnt [5:0] $end
    $var wire 3 5! csr_cnt [2:0] $end
    $var wire 5 6! rs1 [4:0] $end
    $var wire 5 7! rs2 [4:0] $end
    $var wire 5 8! rd [4:0] $end
    $var wire 32 9! imm [31:0] $end
    $var wire 12 :! csr_imm [11:0] $end
    $var wire 1 ;! auipc $end
    $var wire 1 <! lui $end
    $var wire 1 =! ebreak $end
    $var wire 1 >! load $end
    $var wire 1 ?! jal $end
    $var wire 1 @! jalr $end
    $var wire 1 A! UType $end
    $var wire 1 ?! JType $end
    $var wire 1 B! BType $end
    $var wire 1 C! IType $end
    $var wire 1 D! SType $end
    $var wire 1 E! RType $end
    $var wire 1 F! IcsrType $end
    $var wire 1 G! I_imm $end
    $var wire 1 H! ecall $end
    $var wire 1 I! mret $end
    $var wire 1 f! IDLE [0:0] $end
    $var wire 1 g! DECODE [0:0] $end
    $var wire 1 J! cstate $end
    $var wire 1 K! nstate $end
    $var wire 32 L! inst_reg [31:0] $end
    $var wire 4 + pc_cnt_reg [3:0] $end
    $var wire 4 & lsu_cnt_reg [3:0] $end
    $var wire 1 ' mem_cnt_reg $end
    $var wire 4 ( alu_cnt_reg [3:0] $end
    $var wire 6 ) ins_cnt_reg [5:0] $end
    $var wire 3 * csr_cnt_reg [2:0] $end
    $var wire 5 , rs1_reg [4:0] $end
    $var wire 5 - rs2_reg [4:0] $end
    $var wire 5 . rd_reg [4:0] $end
    $var wire 32 4 imm_reg [31:0] $end
    $var wire 12 5 csr_imm_reg [11:0] $end
    $var wire 1 8 auipc_reg $end
    $var wire 1 9 lui_reg $end
    $var wire 1 M! ebreak_reg $end
    $var wire 1 ; load_reg $end
    $var wire 1 = jal_reg $end
    $var wire 1 < jalr_reg $end
   $upscope $end
   $scope module ifu_t0 $end
    $var wire 1 ? ifu_idu_valid $end
    $var wire 1 E idu_ifu_ready $end
    $var wire 1 ^! clk $end
    $var wire 1 _! reset $end
    $var wire 1 > ControlHazard $end
    $var wire 32 4 imm [31:0] $end
    $var wire 1 7 br_taken $end
    $var wire 32 $ pc_exu [31:0] $end
    $var wire 32 % inst [31:0] $end
    $var wire 32 # pc_out [31:0] $end
    $var wire 32 / ret [31:0] $end
    $var wire 32 6 csr_data [31:0] $end
    $var wire 4 + pc_cnt [3:0] $end
    $var wire 1 N! jalr $end
    $var wire 1 O! jal $end
    $var wire 1 P! ecall $end
    $var wire 1 Q! mret $end
    $var wire 1 R! bxx $end
    $var wire 32 S! target_pc [31:0] $end
    $var wire 32 T! inst_reg [31:0] $end
    $var wire 1 f! IDLE [0:0] $end
    $var wire 1 g! WAIT [0:0] $end
    $var wire 1 U! cstate $end
    $var wire 1 V! nstate $end
   $upscope $end
   $scope module lsu_t0 $end
    $var wire 1 A exu_mem_valid $end
    $var wire 1 G mem_exu_ready $end
    $var wire 1 B mem_wbu_valid $end
    $var wire 1 H wbu_mem_ready $end
    $var wire 1 ^! clk $end
    $var wire 1 _! reset $end
    $var wire 4 & lsu_cnt [3:0] $end
    $var wire 32 3 data_load [31:0] $end
    $var wire 32 0 data_store [31:0] $end
    $var wire 32 2 addr_load [31:0] $end
    $var wire 32 2 addr_store [31:0] $end
    $var wire 2 b! IDLE [1:0] $end
    $var wire 2 c! MEM_ACCESS [1:0] $end
    $var wire 2 d! WAIT_WBU [1:0] $end
    $var wire 2 W! cstate [1:0] $end
    $var wire 2 X! nstate [1:0] $end
    $var wire 1 G mem_exu_ready_reg $end
    $var wire 1 B mem_wbu_valid_reg $end
    $var wire 32 Y! temp_reg [31:0] $end
    $var wire 4 Z! lsu_cnt_reg [3:0] $end
    $var wire 32 [! addr_load_reg [31:0] $end
    $var wire 32 3 data_load_reg [31:0] $end
    $var wire 32 \! addr_store_reg [31:0] $end
    $var wire 32 ]! data_store_reg [31:0] $end
   $upscope $end
  $upscope $end
 $upscope $end
$enddefinitions $end


#1
b00000000000000000000000000000000 #
b00000000000000000000000000000000 $
b00000000000000000000000000000000 %
b0000 &
0'
b0000 (
b000000 )
b000 *
b0000 +
b00000 ,
b00000 -
b00000 .
b00000000000000000000000000000000 /
b00000000000000000000000000000000 0
b00000000000000000000000000000000 1
b00000000000000000000000000000000 2
b00000000000000000000000000000000 3
b00000000000000000000000000000000 4
b000000000000 5
b00000000000000000000000000000000 6
07
08
09
0:
0;
0<
0=
0>
0?
0@
0A
0B
0C
0D
1E
1F
0G
0H
0I
0J
b00 K
b00 L
b00000000000000000000000000000000 M
b00000000000000000000000000000000 N
b00000000000000000000000000000000 O
b00000000000000000000000000000000 P
b00000000000000000000000000000000 Q
b00000000000000000000000000000000 R
b00000000000000000000000000000000 S
b00000000000000000000000000000000 T
b00000000000000000000000000000000 U
b000 V
b000000000000 W
b00000000000000000000000000000000 X
0Y
0Z
0[
0\
0]
0^
0_
0`
b00000000000000000000000000000000 a
b00000000000000000000000000000000 b
b0000000000000000000000000000000000000000000000000000000000000000 c
b00 e
b00 f
b00000000000000000000000000000000 g
b00000000000000000000000000000000 h
b00000000000000000000000000000000 i
b00000000000000000000000000000000 j
b00000000000000000000000000000000 k
b00000000000000000000000000000000 l
b00000000000000000000000000000000 m
b00000000000000000000000000000000 n
b00000000000000000000000000000000 o
b00000000000000000000000000000000 p
b00000000000000000000000000000000 q
b00000000000000000000000000000000 r
b00000000000000000000000000000000 s
b00000000000000000000000000000000 t
b00000000000000000000000000000000 u
b00000000000000000000000000000000 v
b00000000000000000000000000000000 w
b00000000000000000000000000000000 x
b00000000000000000000000000000000 y
b00000000000000000000000000000000 z
b00000000000000000000000000000000 {
b00000000000000000000000000000000 |
b00000000000000000000000000000000 }
b00000000000000000000000000000000 ~
b00000000000000000000000000000000 !!
b00000000000000000000000000000000 "!
b00000000000000000000000000000000 #!
b00000000000000000000000000000000 $!
b00000000000000000000000000000000 %!
b00000000000000000000000000000000 &!
b00000000000000000000000000000000 '!
b00000000000000000000000000000000 (!
b00000000000000000000000000000000 )!
0*!
b00000 +!
b00000000000000000000000000000000 ,!
b0000000 -!
b000 .!
b0000000 /!
b0000 0!
b0000 1!
02!
b0000 3!
b000000 4!
b000 5!
b00000 6!
b00000 7!
b00000 8!
b00000000000000000000000000000000 9!
b000000000000 :!
0;!
0<!
0=!
0>!
0?!
0@!
0A!
0B!
0C!
0D!
0E!
0F!
0G!
0H!
0I!
0J!
0K!
b00000000000000000000000000000000 L!
0M!
0N!
0O!
0P!
0Q!
0R!
b00000000000000000000000000000100 S!
b00000000000000000000000000000000 T!
0U!
1V!
b00 W!
b00 X!
b00000000000000000000000000000000 Y!
b0000 Z!
b00000000000000000000000000000000 [!
b00000000000000000000000000000000 \!
b00000000000000000000000000000000 ]!
1^!
1_!
0`!
0a!
b00 b!
b01 c!
b10 d!
b11 e!
0f!
1g!
#2
0^!
#3
b10000000000000000000000000000000 #
1H
1I
1J
b00000000000000000001100000000000 O
b00000000000000000000000000100000 ,!
b10000000000000000000000000000100 S!
1^!
#4
0^!
#5
b10000000000000000000000000000100 #
b00000000000000000000010000010011 %
1?
1G
b00000000000000000000000000000001 Q
b0010011 -!
12!
b0001 3!
b000100 4!
b01000 8!
1C!
1G!
1K!
b10000000000000000000000000001000 S!
b00000000000000000000010000010011 T!
1U!
0V!
1^!
0_!
#6
0^!
#7
b00000000000000000000000000000000 %
1'
b0001 (
b000100 )
b01000 .
0?
1@
b00000000000000000000000000000010 Q
1Z
1^
b11 f
b0000000 -!
02!
b0000 3!
b000000 4!
b00000 8!
0C!
0G!
1J!
0K!
b00000000000000000000010000010011 L!
b00000000000000001001000100010111 T!
0U!
1V!
1^!
#8
0^!
#9
b10000000000000000000000000001000 #
b10000000000000000000000000000100 $
b00000000000000001001000100010111 %
0'
b0000 (
b000000 )
b00000 .
1?
0@
0F
b00000000000000000000000000000011 Q
1Y
0Z
0^
b11 e
b00 f
1*!
b01000 +!
b0010111 -!
b001 .!
12!
b0001 3!
b100000 4!
b00001 6!
b00010 8!
b00000000000000001001000000000000 9!
1;!
1A!
0J!
1K!
b00000000000000000000000000000000 L!
b10000000000000000000000000001100 S!
1U!
0V!
1^!
#10
0^!
#11
b00000000000000000000000000000000 %
1'
b0001 (
b100000 )
b00001 ,
b00010 .
b10000000000000001001000000000100 1
b00000000000000001001000000000000 2
b00000000000000001001000000000000 4
18
0?
1@
1F
b00000000000000000000000000000100 Q
0Y
1Z
1[
b10000000000000000000000000000100 a
b00000000000000001001000000000000 b
b1111111111111111111111111111111110000000000000000000000000000100 c
b00 e
b11 f
0*!
b00000 +!
b0000000 -!
b000 .!
02!
b0000 3!
b000000 4!
b00000 6!
b00000 8!
b00000000000000000000000000000000 9!
0;!
0A!
1J!
0K!
b00000000000000001001000100010111 L!
b11111111110000010000000100010011 T!
0U!
1V!
1^!
#12
0^!
#13
b10000000000000000000000000001100 #
b10000000000000000000000000001000 $
b11111111110000010000000100010011 %
0'
b0000 (
b000000 )
b00000 ,
b00000 .
b00000000000000000000000000000000 1
b00000000000000000000000000000000 2
b00000000000000000000000000000000 4
08
1?
0@
0F
b00000000000000000000000000000101 Q
1Y
0Z
0[
b00000000000000000000000000000000 a
b00000000000000000000000000000000 b
b0000000000000000000000000000000000000000000000000000000000000000 c
b11 e
b00 f
b10000000000000001001000000000100 )!
1*!
b00010 +!
b0010011 -!
b1111111 /!
12!
b0001 3!
b000100 4!
b00010 6!
b11100 7!
b00010 8!
b11111111111111111111111111111100 9!
1C!
1G!
0J!
1K!
b00000000000000000000000000000000 L!
b10000000000000000000000000010000 S!
1U!
0V!
b00000000000000001001000000000000 [!
b00000000000000001001000000000000 \!
1^!
#14
0^!
#15
b00000000000000000000000000000000 %
1'
b0001 (
b000100 )
b00010 ,
b11100 -
b00010 .
b10000000000000001001000000000100 /
b10000000000000001001000000000000 1
b10000000000000001001000000000000 2
b11111111111111111111111111111100 4
0?
1@
1F
b00000000000000000000000000000110 Q
0Y
1Z
1^
b10000000000000001001000000000100 a
b11111111111111111111111111111100 b
b0000000000000000000000000000111111111111111111111111111111111000 c
b00 e
b11 f
b10000000000000001001000000000100 i
b00000000000000000000000000000000 )!
0*!
b00000 +!
b0000000 -!
b0000000 /!
02!
b0000 3!
b000000 4!
b00000 6!
b00000 7!
b00000 8!
b00000000000000000000000000000000 9!
0C!
0G!
1J!
0K!
b11111111110000010000000100010011 L!
b00010010010000000000000011101111 T!
0U!
1V!
b00000000000000000000000000000000 [!
b00000000000000000000000000000000 \!
1^!
#16
0^!
#17
b10000000000000000000000000010000 #
b10000000000000000000000000001100 $
b00010010010000000000000011101111 %
0'
b0000 (
b000000 )
b00000 ,
b00000 -
b00000 .
b00000000000000000000000000000000 /
b00000000000000000000000000000000 1
b00000000000000000000000000000000 2
b00000000000000000000000000000000 4
1?
0@
0F
b00000000000000000000000000000111 Q
1Y
0Z
0^
b00000000000000000000000000000000 a
b00000000000000000000000000000000 b
b0000000000000000000000000000000000000000000000000000000000000000 c
b11 e
b00 f
b10000000000000001001000000000000 )!
1*!
b00010 +!
b1101111 -!
b0001001 /!
b0111 0!
12!
b0001 3!
b010000 4!
b00100 7!
b00001 8!
b00000000000000000000000100100100 9!
1?!
0J!
1K!
b00000000000000000000000000000000 L!
b10000000000000000000000000010100 S!
1U!
0V!
b10000000000000001001000000000000 [!
b10000000000000001001000000000000 \!
1^!
#18
0^!
#19
b00000000000001010000010001100011 %
1'
b0001 (
b010000 )
b0111 +
b00100 -
b00001 .
b10000000000000000000000000010000 1
b00000000000000000000000100100100 2
b00000000000000000000000100100100 4
1=
1>
0?
0E
b00000000000000000000000000001000 Q
0Y
1\
b10000000000000000000000000001100 a
b00000000000000000000000000000100 b
b0000111111111111111111111111111111111000000000000000000000000000 c
b00 e
b11 f
b10000000000000001001000000000000 i
b00000000000000000000000000000000 )!
0*!
b00000 +!
b1100011 -!
b0000000 /!
b0001 0!
02!
b0000 3!
b001000 4!
b01010 6!
b00000 7!
b01000 8!
b00000000000000000000000000001000 9!
0?!
1B!
1J!
0K!
b00010010010000000000000011101111 L!
1O!
b10000000000000000000000100110000 S!
b00000000000001010000010001100011 T!
0U!
1V!
b00000000000000000000000000000000 [!
b00000000000000000000000000000000 \!
1^!
#20
0^!
#21
b10000000000000000000000100110000 #
b00000000000000000000000000000000 %
0'
b0000 (
b000000 )
b0000 +
b00000 -
b00000 .
b00000000000000000000000000000000 1
b00000000000000000000000000000000 2
b00000000000000000000000000000000 4
0=
0>
1?
1E
1F
b00000000000000000000000000001001 Q
0\
b00000000000000000000000000000000 a
b00000000000000000000000000000000 b
b0000000000000000000000000000000000000000000000000000000000000000 c
b11 e
b00 f
b10000000000000000000000000010000 )!
1*!
b00001 +!
b0000000 -!
b0000 0!
b000000 4!
b00000 6!
b00000 8!
b00000000000000000000000000000000 9!
0B!
0J!
1K!
b00000000000000000000000000000000 L!
0O!
b10000000000000000000000100110100 S!
b00000000000000000000000000000000 T!
1U!
0V!
b00000000000000000000000100100100 [!
b00000000000000000000000100100100 \!
1^!
#22
0^!
#23
0?
1@
b00000000000000000000000000001010 Q
1Z
b00 e
b10000000000000000000000000010000 h
b00000000000000000000000000000000 )!
0*!
b00000 +!
1J!
0K!
b11111111010000010000000100010011 T!
0U!
1V!
b00000000000000000000000000000000 [!
b00000000000000000000000000000000 \!
1^!
#24
0^!
#25
b10000000000000000000000100110100 #
b10000000000000000000000100110000 $
b11111111010000010000000100010011 %
1?
0@
0F
b00000000000000000000000000001011 Q
1Y
0Z
b0010011 -!
b1111111 /!
12!
b0001 3!
b000100 4!
b00010 6!
b10100 7!
b00010 8!
b11111111111111111111111111110100 9!
1C!
1G!
0J!
1K!
b10000000000000000000000100111000 S!
1U!
0V!
1^!
#26
0^!
#27
b00000000000000000000000000000000 %
1'
b0001 (
b000100 )
b00010 ,
b10100 -
b00010 .
b10000000000000001001000000000000 /
b10000000000000001000111111110100 1
b10000000000000001000111111110100 2
b11111111111111111111111111110100 4
0?
1@
1F
b00000000000000000000000000001100 Q
0Y
1Z
1^
b10000000000000001001000000000000 a
b11111111111111111111111111110100 b
b0000000000000000000011111111111111111111111111111111100000000000 c
b11 f
b0000000 -!
b0000000 /!
02!
b0000 3!
b000000 4!
b00000 6!
b00000 7!
b00000 8!
b00000000000000000000000000000000 9!
0C!
0G!
1J!
0K!
b11111111010000010000000100010011 L!
b00000000000000000000010100010111 T!
0U!
1V!
1^!
#28
0^!
#29
b10000000000000000000000100111000 #
b10000000000000000000000100110100 $
b00000000000000000000010100010111 %
0'
b0000 (
b000000 )
b00000 ,
b00000 -
b00000 .
b00000000000000000000000000000000 /
b00000000000000000000000000000000 1
b00000000000000000000000000000000 2
b00000000000000000000000000000000 4
1?
0@
0F
b00000000000000000000000000001101 Q
1Y
0Z
0^
b00000000000000000000000000000000 a
b00000000000000000000000000000000 b
b0000000000000000000000000000000000000000000000000000000000000000 c
b11 e
b00 f
b10000000000000001000111111110100 )!
1*!
b00010 +!
b0010111 -!
12!
b0001 3!
b100000 4!
b01010 8!
1;!
1A!
0J!
1K!
b00000000000000000000000000000000 L!
b10000000000000000000000100111100 S!
1U!
0V!
b10000000000000001000111111110100 [!
b10000000000000001000111111110100 \!
1^!
#30
0^!
#31
b00000000000000000000000000000000 %
1'
b0001 (
b100000 )
b01010 .
b10000000000000000000000100110100 1
18
0?
1@
1F
b00000000000000000000000000001110 Q
0Y
1Z
1[
b10000000000000000000000100110100 a
b1111111111111111111111111111111110000000000000000000000100110100 c
b00 e
b11 f
b10000000000000001000111111110100 i
b00000000000000000000000000000000 )!
0*!
b00000 +!
b0000000 -!
02!
b0000 3!
b000000 4!
b00000 8!
0;!
0A!
1J!
0K!
b00000000000000000000010100010111 L!
b00000001100001010000010100010011 T!
0U!
1V!
b00000000000000000000000000000000 [!
b00000000000000000000000000000000 \!
1^!
#32
0^!
#33
b10000000000000000000000100111100 #
b10000000000000000000000100111000 $
b00000001100001010000010100010011 %
0'
b0000 (
b000000 )
b00000 .
b00000000000000000000000000000000 1
08
1?
0@
0F
b00000000000000000000000000001111 Q
1Y
0Z
0[
b00000000000000000000000000000000 a
b0000000000000000000000000000000000000000000000000000000000000000 c
b11 e
b00 f
b10000000000000000000000100110100 )!
1*!
b01010 +!
b0010011 -!
12!
b0001 3!
b000100 4!
b01010 6!
b11000 7!
b01010 8!
b00000000000000000000000000011000 9!
1C!
1G!
0J!
1K!
b00000000000000000000000000000000 L!
b10000000000000000000000101000000 S!
1U!
0V!
1^!
#34
0^!
#35
b00000000000000000000000000000000 %
1'
b0001 (
b000100 )
b01010 ,
b11000 -
b01010 .
b10000000000000000000000100110100 /
b10000000000000000000000101001100 1
b10000000000000000000000101001100 2
b00000000000000000000000000011000 4
0?
1@
1F
b00000000000000000000000000010000 Q
0Y
1Z
1^
b10000000000000000000000100110100 a
b00000000000000000000000000011000 b
b0000000000000000000000001111111111111111111111111111111110000000 c
b00 e
b11 f
b10000000000000000000000100110100 q
b00000000000000000000000000000000 )!
0*!
b00000 +!
b0000000 -!
02!
b0000 3!
b000000 4!
b00000 6!
b00000 7!
b00000 8!
b00000000000000000000000000000000 9!
0C!
0G!
1J!
0K!
b00000001100001010000010100010011 L!
b00000000000100010010010000100011 T!
0U!
1V!
1^!
#36
0^!
#37
b10000000000000000000000101000000 #
b10000000000000000000000100111100 $
b00000000000100010010010000100011 %
0'
b0000 (
b000000 )
b00000 ,
b00000 -
b00000 .
b00000000000000000000000000000000 /
b00000000000000000000000000000000 1
b00000000000000000000000000000000 2
b00000000000000000000000000000000 4
1?
0@
0F
b00000000000000000000000000010001 Q
1Y
0Z
0^
b00000000000000000000000000000000 a
b00000000000000000000000000000000 b
b0000000000000000000000000000000000000000000000000000000000000000 c
b11 e
b00 f
b10000000000000000000000101001100 )!
1*!
b01010 +!
b0100011 -!
b010 .!
b0011 1!
b000010 4!
b00010 6!
b00001 7!
b01000 8!
b00000000000000000000000000001000 9!
1D!
0J!
1K!
b00000000000000000000000000000000 L!
b10000000000000000000000101000100 S!
1U!
0V!
b10000000000000000000000101001100 [!
b10000000000000000000000101001100 \!
1^!
#38
0^!
#39
b00000000000000000000000000000000 %
b0011 &
b000010 )
b00010 ,
b00001 -
b01000 .
b10000000000000001000111111110100 /
b10000000000000000000000000010000 0
b10000000000000001000111111111100 2
b00000000000000000000000000001000 4
0?
1@
1F
b00000000000000000000000000010010 Q
0Y
1Z
1_
b10000000000000001000111111110100 a
b10000000000000000000000000010000 b
b0000000000000000111111111111111111111111111111111000000000000000 c
b00 e
b10000000000000000000000101001100 q
b00000000000000000000000000000000 )!
0*!
b00000 +!
b0000000 -!
b000 .!
b0000 1!
b000000 4!
b00000 6!
b00000 7!
b00000 8!
b00000000000000000000000000000000 9!
0D!
1J!
0K!
b00000000000100010010010000100011 L!
b11101110100111111111000011101111 T!
0U!
1V!
b00000000000000000000000000000000 [!
b00000000000000000000000000000000 \!
1^!
#40
0^!
#41
b10000000000000000000000101000100 #
b10000000000000000000000101000000 $
b11101110100111111111000011101111 %
b0000 &
b000000 )
b00000 ,
b00000 -
b00000 .
b00000000000000000000000000000000 /
b00000000000000000000000000000000 0
b00000000000000000000000000000000 2
b00000000000000000000000000000000 4
1?
0@
1A
0F
b00000000000000000000000000010011 Q
1Y
0Z
0_
b00000000000000000000000000000000 a
b00000000000000000000000000000000 b
b0000000000000000000000000000000000000000000000000000000000000000 c
b01000 +!
b1101111 -!
b111 .!
b1110111 /!
b0111 0!
12!
b0001 3!
b010000 4!
b11111 6!
b01001 7!
b00001 8!
b11111111111111111111111011101000 9!
1?!
0J!
1K!
b00000000000000000000000000000000 L!
b10000000000000000000000101001000 S!
1U!
0V!
b01 X!
b0011 Z!
b10000000000000001000111111111100 [!
b10000000000000001000111111111100 \!
b10000000000000000000000000010000 ]!
1^!
#42
0^!
