npc/wave.vcd
$version Generated by VerilatedVcd $end
$timescale 1s $end
 $scope module TOP $end
  $var wire 1 b! clk $end
  $var wire 1 c! reset $end
  $scope module top $end
   $var wire 1 b! clk $end
   $var wire 1 c! reset $end
   $var wire 32 # ifu_pc [31:0] $end
   $var wire 32 $ idu_pc [31:0] $end
   $var wire 32 % exu_pc [31:0] $end
   $var wire 32 & mem_pc [31:0] $end
   $var wire 32 ' inst [31:0] $end
   $var wire 4 ( idu_lsu_cnt [3:0] $end
   $var wire 4 ) exu_lsu_cnt [3:0] $end
   $var wire 1 * idu_wbu_cnt $end
   $var wire 1 + exu_wbu_cnt $end
   $var wire 1 , mem_wbu_cnt $end
   $var wire 1 - idu_ebreak $end
   $var wire 1 . exu_ebreak $end
   $var wire 1 / mem_ebreak $end
   $var wire 5 0 idu_waddr [4:0] $end
   $var wire 5 1 exu_waddr [4:0] $end
   $var wire 5 2 mem_waddr [4:0] $end
   $var wire 32 3 exu_wdata [31:0] $end
   $var wire 32 4 mem_wdata [31:0] $end
   $var wire 4 5 alu_cnt [3:0] $end
   $var wire 6 6 ins_cnt [5:0] $end
   $var wire 3 7 idu_csr_cnt [2:0] $end
   $var wire 3 8 exu_csr_cnt [2:0] $end
   $var wire 4 9 pc_cnt [3:0] $end
   $var wire 5 : raddr1 [4:0] $end
   $var wire 5 ; raddr2 [4:0] $end
   $var wire 32 < rdata1 [31:0] $end
   $var wire 32 = rdata2 [31:0] $end
   $var wire 32 > addr_load [31:0] $end
   $var wire 32 ? addr_store [31:0] $end
   $var wire 32 @ data_store [31:0] $end
   $var wire 32 A imm [31:0] $end
   $var wire 12 B csr_imm [11:0] $end
   $var wire 32 C csr_data [31:0] $end
   $var wire 1 D br_taken $end
   $var wire 1 E auipc $end
   $var wire 1 F lui $end
   $var wire 1 G load $end
   $var wire 1 H jalr $end
   $var wire 1 I jal $end
   $var wire 1 J ControlHazard $end
   $var wire 1 K ifu_idu_valid $end
   $var wire 1 L idu_exu_valid $end
   $var wire 1 M exu_mem_valid $end
   $var wire 1 N mem_wbu_valid $end
   $var wire 1 O exu_csr_valid $end
   $var wire 1 P csr_wbu_valid $end
   $var wire 1 Q idu_ifu_ready $end
   $var wire 1 R exu_idu_ready $end
   $var wire 1 S mem_exu_ready $end
   $var wire 1 T wbu_mem_ready $end
   $var wire 1 U csr_exu_ready $end
   $var wire 1 T wbu_csr_ready $end
   $var wire 32 V ret_addr [31:0] $end
   $scope module csr_t0 $end
    $var wire 1 O exu_csr_valid $end
    $var wire 1 U csr_exu_ready $end
    $var wire 1 P csr_wbu_valid $end
    $var wire 1 T wbu_csr_ready $end
    $var wire 1 b! clk $end
    $var wire 1 c! reset $end
    $var wire 32 & pc_in [31:0] $end
    $var wire 3 8 csr_cnt [2:0] $end
    $var wire 12 B csr_imm [11:0] $end
    $var wire 32 < wdata [31:0] $end
    $var wire 32 C rdata [31:0] $end
    $var wire 2 d! IDLE [1:0] $end
    $var wire 2 e! CSR_READ [1:0] $end
    $var wire 2 f! CSR_WRITE [1:0] $end
    $var wire 2 g! WAIT_WBU [1:0] $end
    $var wire 2 W cstate [1:0] $end
    $var wire 2 X nstate [1:0] $end
    $var wire 32 Y mtvec [31:0] $end
    $var wire 32 Z mepc [31:0] $end
    $var wire 32 [ mstatus [31:0] $end
    $var wire 32 \ mcause [31:0] $end
    $var wire 32 ] mcycle [31:0] $end
    $var wire 32 ^ mcycleh [31:0] $end
    $var wire 32 _ mvendorid [31:0] $end
    $var wire 32 ` marchid [31:0] $end
    $var wire 32 C rdata_reg [31:0] $end
    $var wire 1 U csr_exu_ready_reg $end
    $var wire 1 P csr_wbu_valid_reg $end
    $var wire 32 a temp [31:0] $end
    $var wire 3 b csr_cnt_reg [2:0] $end
    $var wire 12 c csr_imm_reg [11:0] $end
    $var wire 32 d wdata_reg [31:0] $end
   $upscope $end
   $scope module exu_t0 $end
    $var wire 1 b! clk $end
    $var wire 1 c! reset $end
    $var wire 1 L idu_exu_valid $end
    $var wire 1 R exu_idu_ready $end
    $var wire 1 M exu_mem_valid $end
    $var wire 1 S mem_exu_ready $end
    $var wire 1 O exu_csr_valid $end
    $var wire 1 U csr_exu_ready $end
    $var wire 1 - i_ebreak $end
    $var wire 32 < i_rdata1 [31:0] $end
    $var wire 32 = i_rdata2 [31:0] $end
    $var wire 5 0 i_waddr [4:0] $end
    $var wire 6 6 i_ins_cnt [5:0] $end
    $var wire 32 $ i_pc [31:0] $end
    $var wire 4 9 i_pc_cnt [3:0] $end
    $var wire 4 5 i_alu_cnt [3:0] $end
    $var wire 3 7 i_csr_cnt [2:0] $end
    $var wire 1 E i_auipc $end
    $var wire 1 F i_lui $end
    $var wire 1 H i_jalr $end
    $var wire 1 G i_load $end
    $var wire 1 I i_jal $end
    $var wire 32 A i_imm [31:0] $end
    $var wire 32 C i_csr_data [31:0] $end
    $var wire 4 ( i_lsu_cnt [3:0] $end
    $var wire 1 * i_wbu_cnt $end
    $var wire 5 : i_raddr1 [4:0] $end
    $var wire 5 ; i_raddr2 [4:0] $end
    $var wire 5 2 i_bypass_waddr [4:0] $end
    $var wire 32 4 i_bypass_wdata [31:0] $end
    $var wire 1 + o_wbu_cnt $end
    $var wire 1 . o_ebreak $end
    $var wire 3 8 o_csr_cnt [2:0] $end
    $var wire 4 ) o_lsu_cnt [3:0] $end
    $var wire 5 1 o_waddr [4:0] $end
    $var wire 32 @ o_data_store [31:0] $end
    $var wire 32 ? o_addr_store [31:0] $end
    $var wire 32 > o_addr_load [31:0] $end
    $var wire 32 % o_pc [31:0] $end
    $var wire 32 3 o_alu_result [31:0] $end
    $var wire 1 D o_br_taken $end
    $var wire 1 h! IDLE [0:0] $end
    $var wire 1 i! WAIT [0:0] $end
    $var wire 1 e cstate $end
    $var wire 1 f nstate $end
    $var wire 1 g UType $end
    $var wire 1 h JType $end
    $var wire 1 i BType $end
    $var wire 1 j IType $end
    $var wire 1 k SType $end
    $var wire 1 l RType $end
    $var wire 32 m alu_a [31:0] $end
    $var wire 32 n alu_b [31:0] $end
    $var wire 64 o shift_temp [63:0] $end
   $upscope $end
   $scope module gpr_t0 $end
    $var wire 1 b! clk $end
    $var wire 1 c! reset $end
    $var wire 1 N mem_wbu_valid $end
    $var wire 1 T wbu_mem_ready $end
    $var wire 1 T wbu_csr_ready $end
    $var wire 1 P csr_wbu_valid $end
    $var wire 32 < rdata1 [31:0] $end
    $var wire 32 = rdata2 [31:0] $end
    $var wire 5 : raddr1 [4:0] $end
    $var wire 5 ; raddr2 [4:0] $end
    $var wire 5 2 i_waddr [4:0] $end
    $var wire 32 4 i_wdata [31:0] $end
    $var wire 32 & i_pc [31:0] $end
    $var wire 1 / i_ebreak $end
    $var wire 1 , i_wbu_cnt $end
    $var wire 1 h! IDLE [0:0] $end
    $var wire 1 i! WAIT [0:0] $end
    $var wire 1 q cstate $end
    $var wire 1 r nstate $end
    $var wire 32 s rf[0] [31:0] $end
    $var wire 32 t rf[1] [31:0] $end
    $var wire 32 u rf[2] [31:0] $end
    $var wire 32 v rf[3] [31:0] $end
    $var wire 32 w rf[4] [31:0] $end
    $var wire 32 x rf[5] [31:0] $end
    $var wire 32 y rf[6] [31:0] $end
    $var wire 32 z rf[7] [31:0] $end
    $var wire 32 { rf[8] [31:0] $end
    $var wire 32 | rf[9] [31:0] $end
    $var wire 32 } rf[10] [31:0] $end
    $var wire 32 ~ rf[11] [31:0] $end
    $var wire 32 !! rf[12] [31:0] $end
    $var wire 32 "! rf[13] [31:0] $end
    $var wire 32 #! rf[14] [31:0] $end
    $var wire 32 $! rf[15] [31:0] $end
    $var wire 32 %! rf[16] [31:0] $end
    $var wire 32 &! rf[17] [31:0] $end
    $var wire 32 '! rf[18] [31:0] $end
    $var wire 32 (! rf[19] [31:0] $end
    $var wire 32 )! rf[20] [31:0] $end
    $var wire 32 *! rf[21] [31:0] $end
    $var wire 32 +! rf[22] [31:0] $end
    $var wire 32 ,! rf[23] [31:0] $end
    $var wire 32 -! rf[24] [31:0] $end
    $var wire 32 .! rf[25] [31:0] $end
    $var wire 32 /! rf[26] [31:0] $end
    $var wire 32 0! rf[27] [31:0] $end
    $var wire 32 1! rf[28] [31:0] $end
    $var wire 32 2! rf[29] [31:0] $end
    $var wire 32 3! rf[30] [31:0] $end
    $var wire 32 4! rf[31] [31:0] $end
    $var wire 1 , wen $end
    $scope module unnamedblk1 $end
     $var wire 32 5! i [31:0] $end
    $upscope $end
   $upscope $end
   $scope module idu_t0 $end
    $var wire 1 b! clk $end
    $var wire 1 c! reset $end
    $var wire 1 K ifu_idu_valid $end
    $var wire 1 Q idu_ifu_ready $end
    $var wire 1 L idu_exu_valid $end
    $var wire 1 R exu_idu_ready $end
    $var wire 32 ' i_inst [31:0] $end
    $var wire 32 # i_pc [31:0] $end
    $var wire 32 $ o_pc [31:0] $end
    $var wire 4 9 o_pc_cnt [3:0] $end
    $var wire 4 ( o_lsu_cnt [3:0] $end
    $var wire 1 * o_wbu_cnt $end
    $var wire 4 5 o_alu_cnt [3:0] $end
    $var wire 6 6 o_ins_cnt [5:0] $end
    $var wire 3 7 o_csr_cnt [2:0] $end
    $var wire 5 : o_rs1 [4:0] $end
    $var wire 5 ; o_rs2 [4:0] $end
    $var wire 5 0 o_rd [4:0] $end
    $var wire 32 A o_imm [31:0] $end
    $var wire 12 B o_csr_imm [11:0] $end
    $var wire 1 E o_auipc $end
    $var wire 1 F o_lui $end
    $var wire 1 - o_ebreak $end
    $var wire 1 G o_load $end
    $var wire 1 I o_jal $end
    $var wire 1 H o_jalr $end
    $var wire 1 J o_ControlHazard $end
    $var wire 7 6! opcode [6:0] $end
    $var wire 3 7! fun3 [2:0] $end
    $var wire 7 8! fun7 [6:0] $end
    $var wire 4 9! pc_cnt [3:0] $end
    $var wire 4 :! lsu_cnt [3:0] $end
    $var wire 1 ;! wbu_cnt $end
    $var wire 4 <! alu_cnt [3:0] $end
    $var wire 6 =! ins_cnt [5:0] $end
    $var wire 3 >! csr_cnt [2:0] $end
    $var wire 5 ?! rs1 [4:0] $end
    $var wire 5 @! rs2 [4:0] $end
    $var wire 5 A! rd [4:0] $end
    $var wire 32 B! imm [31:0] $end
    $var wire 12 C! csr_imm [11:0] $end
    $var wire 1 D! auipc $end
    $var wire 1 E! lui $end
    $var wire 1 F! ebreak $end
    $var wire 1 G! load $end
    $var wire 1 H! jal $end
    $var wire 1 I! jalr $end
    $var wire 1 J! UType $end
    $var wire 1 H! JType $end
    $var wire 1 K! BType $end
    $var wire 1 L! IType $end
    $var wire 1 M! SType $end
    $var wire 1 N! RType $end
    $var wire 1 O! IcsrType $end
    $var wire 1 P! I_imm $end
    $var wire 1 Q! ecall $end
    $var wire 1 R! mret $end
    $var wire 1 h! IDLE [0:0] $end
    $var wire 1 i! DECODE [0:0] $end
    $var wire 1 L cstate $end
    $var wire 1 S! nstate $end
   $upscope $end
   $scope module ifu_t0 $end
    $var wire 1 b! clk $end
    $var wire 1 c! reset $end
    $var wire 1 K ifu_idu_valid $end
    $var wire 1 Q idu_ifu_ready $end
    $var wire 1 J i_ControlHazard $end
    $var wire 32 A i_imm [31:0] $end
    $var wire 1 D i_br_taken $end
    $var wire 32 $ i_pc_idu [31:0] $end
    $var wire 32 V i_ret [31:0] $end
    $var wire 32 C i_csr_data [31:0] $end
    $var wire 4 9 i_pc_cnt [3:0] $end
    $var wire 32 ' o_inst [31:0] $end
    $var wire 32 # o_pc [31:0] $end
    $var wire 1 T! jalr $end
    $var wire 1 U! jal $end
    $var wire 1 V! ecall $end
    $var wire 1 W! mret $end
    $var wire 1 X! bxx $end
    $var wire 32 Y! target_pc [31:0] $end
    $var wire 32 Z! inst_reg [31:0] $end
    $var wire 1 h! IDLE [0:0] $end
    $var wire 1 i! WAIT [0:0] $end
    $var wire 1 [! cstate $end
    $var wire 1 \! nstate $end
   $upscope $end
   $scope module lsu_t0 $end
    $var wire 1 b! clk $end
    $var wire 1 c! reset $end
    $var wire 1 M exu_mem_valid $end
    $var wire 1 S mem_exu_ready $end
    $var wire 1 N mem_wbu_valid $end
    $var wire 1 T wbu_mem_ready $end
    $var wire 32 4 o_wdata [31:0] $end
    $var wire 5 2 o_waddr [4:0] $end
    $var wire 1 , o_wbu_cnt $end
    $var wire 1 / o_ebreak $end
    $var wire 32 & o_pc [31:0] $end
    $var wire 32 % i_pc [31:0] $end
    $var wire 1 . i_ebreak $end
    $var wire 1 + i_wbu_cnt $end
    $var wire 5 1 i_waddr [4:0] $end
    $var wire 32 3 i_wdata [31:0] $end
    $var wire 4 ) i_lsu_cnt [3:0] $end
    $var wire 32 @ i_data_store [31:0] $end
    $var wire 32 > i_addr_load [31:0] $end
    $var wire 32 ? i_addr_store [31:0] $end
    $var wire 1 h! IDLE [0:0] $end
    $var wire 1 i! WAIT [0:0] $end
    $var wire 1 N cstate $end
    $var wire 1 ]! nstate $end
    $var wire 32 ^! temp_reg [31:0] $end
    $var wire 1 _! load $end
    $var wire 1 `! store $end
    $var wire 32 a! data_load [31:0] $end
   $upscope $end
  $upscope $end
 $upscope $end
$enddefinitions $end


#1
b00000000000000000000000000000000 #
b00000000000000000000000000000000 $
b00000000000000000000000000000000 %
b00000000000000000000000000000000 &
b00000000000000000000000000000000 '
b0000 (
b0000 )
0*
0+
0,
0-
0.
0/
b00000 0
b00000 1
b00000 2
b00000000000000000000000000000000 3
b00000000000000000000000000000000 4
b0000 5
b000000 6
b000 7
b000 8
b0000 9
b00000 :
b00000 ;
b00000000000000000000000000000000 <
b00000000000000000000000000000000 =
b00000000000000000000000000000000 >
b00000000000000000000000000000000 ?
b00000000000000000000000000000000 @
b00000000000000000000000000000000 A
b000000000000 B
b00000000000000000000000000000000 C
0D
0E
0F
0G
0H
0I
0J
0K
0L
0M
0N
0O
0P
1Q
1R
1S
1T
0U
b00000000000000000000000000000000 V
b00 W
b00 X
b00000000000000000000000000000000 Y
b00000000000000000000000000000000 Z
b00000000000000000000000000000000 [
b00000000000000000000000000000000 \
b00000000000000000000000000000000 ]
b00000000000000000000000000000000 ^
b00000000000000000000000000000000 _
b00000000000000000000000000000000 `
b00000000000000000000000000000000 a
b000 b
b000000000000 c
b00000000000000000000000000000000 d
0e
0f
0g
0h
0i
0j
0k
0l
b00000000000000000000000000000000 m
b00000000000000000000000000000000 n
b0000000000000000000000000000000000000000000000000000000000000000 o
0q
0r
b00000000000000000000000000000000 s
b00000000000000000000000000000000 t
b00000000000000000000000000000000 u
b00000000000000000000000000000000 v
b00000000000000000000000000000000 w
b00000000000000000000000000000000 x
b00000000000000000000000000000000 y
b00000000000000000000000000000000 z
b00000000000000000000000000000000 {
b00000000000000000000000000000000 |
b00000000000000000000000000000000 }
b00000000000000000000000000000000 ~
b00000000000000000000000000000000 !!
b00000000000000000000000000000000 "!
b00000000000000000000000000000000 #!
b00000000000000000000000000000000 $!
b00000000000000000000000000000000 %!
b00000000000000000000000000000000 &!
b00000000000000000000000000000000 '!
b00000000000000000000000000000000 (!
b00000000000000000000000000000000 )!
b00000000000000000000000000000000 *!
b00000000000000000000000000000000 +!
b00000000000000000000000000000000 ,!
b00000000000000000000000000000000 -!
b00000000000000000000000000000000 .!
b00000000000000000000000000000000 /!
b00000000000000000000000000000000 0!
b00000000000000000000000000000000 1!
b00000000000000000000000000000000 2!
b00000000000000000000000000000000 3!
b00000000000000000000000000000000 4!
b00000000000000000000000000000000 5!
b0000000 6!
b000 7!
b0000000 8!
b0000 9!
b0000 :!
0;!
b0000 <!
b000000 =!
b000 >!
b00000 ?!
b00000 @!
b00000 A!
b00000000000000000000000000000000 B!
b000000000000 C!
0D!
0E!
0F!
0G!
0H!
0I!
0J!
0K!
0L!
0M!
0N!
0O!
0P!
0Q!
0R!
0S!
0T!
0U!
0V!
0W!
0X!
b00000000000000000000000000000100 Y!
b00000000000000000000000000000000 Z!
0[!
1\!
0]!
b00000000000000000000000000000000 ^!
0_!
0`!
b00000000000000000000000000000000 a!
1b!
1c!
b00 d!
b01 e!
b10 f!
b11 g!
0h!
1i!
#2
0b!
#3
b10000000000000000000000000000000 #
b10000000000000000000000000000000 $
b10000000000000000000000000000000 %
1U
b00000000000000000001100000000000 [
b00000000000000000000000000100000 5!
b10000000000000000000000000000100 Y!
1b!
#4
0b!
#5
b00000000000000000000010000010011 '
1K
b00000000000000000000000000000001 ]
b0010011 6!
1;!
b0001 <!
b000100 =!
b01000 A!
1L!
1P!
1S!
b00000000000000000000010000010011 Z!
1[!
0\!
1b!
0c!
#6
0b!
#7
b10000000000000000000000000000100 #
b00000000000000000000000000000000 '
1*
b01000 0
b0001 5
b000100 6
0K
1L
b00000000000000000000000000000010 ]
1f
1j
b0000000 6!
0;!
b0000 <!
b000000 =!
b00000 A!
0L!
0P!
0S!
b10000000000000000000000000001000 Y!
0[!
1\!
1b!
#8
0b!
#9
b00000000000000001001000100010111 '
0*
1+
b00000 0
b01000 1
b0000 5
b000000 6
1K
0L
1M
0R
b00000000000000000000000000000011 ]
1e
0f
0j
b0010111 6!
b001 7!
1;!
b0001 <!
b100000 =!
b00001 ?!
b00010 A!
b00000000000000001001000000000000 B!
1D!
1J!
1S!
b00000000000000001001000100010111 Z!
1[!
0\!
1]!
1b!
#10
0b!
#11
b10000000000000000000000000001000 #
b10000000000000000000000000000100 $
b10000000000000000000000000000000 &
b00000000000000000000000000000000 '
1*
1,
b00010 0
b01000 2
b0001 5
b100000 6
b00001 :
b00000000000000001001000000000000 A
1E
0K
1L
0M
1N
1R
0S
b00000000000000000000000000000100 ]
0e
1f
1g
b10000000000000000000000000000100 m
b00000000000000001001000000000000 n
b1111111111111111111111111111111110000000000000000000000000000100 o
1r
b0000000 6!
b000 7!
0;!
b0000 <!
b000000 =!
b00000 ?!
b00000 A!
b00000000000000000000000000000000 B!
0D!
0J!
0S!
b10000000000000000000000000001100 Y!
0[!
1\!
0]!
1b!
#12
0b!
#13
b10000000000000000000000000000100 %
b11111111110000010000000100010011 '
0*
b00000 0
b00010 1
b00000 2
b10000000000000001001000000000100 3
b0000 5
b000000 6
b00000 :
b00000000000000001001000000000000 >
b00000000000000001001000000000000 ?
b00000000000000000000000000000000 A
0E
1K
0L
1M
0N
0R
1S
0T
b00000000000000000000000000000101 ]
1e
0f
0g
b00000000000000000000000000000000 m
b00000000000000000000000000000000 n
b0000000000000000000000000000000000000000000000000000000000000000 o
1q
0r
b0010011 6!
b1111111 8!
1;!
b0001 <!
b000100 =!
b00010 ?!
b11100 @!
b00010 A!
b11111111111111111111111111111100 B!
1L!
1P!
1S!
b11111111110000010000000100010011 Z!
1[!
0\!
1]!
1b!
#14
0b!
#15
b10000000000000000000000000001100 #
b10000000000000000000000000001000 $
b10000000000000000000000000000100 &
b00000000000000000000000000000000 '
1*
b00010 0
b00010 2
b10000000000000001001000000000100 4
b0001 5
b000100 6
b00010 :
b11100 ;
b11111111111111111111111111111100 A
0K
1L
0M
1N
1R
0S
1T
b10000000000000001001000000000100 V
b00000000000000000000000000000110 ]
0e
1f
1j
b10000000000000001001000000000100 m
b11111111111111111111111111111100 n
b0000000000000000000000000000111111111111111111111111111111111000 o
0q
1r
b0000000 6!
b0000000 8!
0;!
b0000 <!
b000000 =!
b00000 ?!
b00000 @!
b00000 A!
b00000000000000000000000000000000 B!
0L!
0P!
0S!
b10000000000000000000000000010000 Y!
0[!
1\!
0]!
1b!
#16
0b!
#17
b10000000000000000000000000001000 %
b00001110110000000000000011101111 '
0*
b00000 0
b00000 2
b10000000000000001001000000000000 3
b0000 5
b000000 6
b00000 :
b00000 ;
b10000000000000001001000000000000 >
b10000000000000001001000000000000 ?
b00000000000000000000000000000000 A
1K
0L
1M
0N
0R
1S
0T
b00000000000000000000000000000111 ]
1e
0f
0j
b00000000000000000000000000000000 m
b00000000000000000000000000000000 n
b0000000000000000000000000000000000000000000000000000000000000000 o
1q
0r
b10000000000000001001000000000100 u
b1101111 6!
b0000111 8!
b0111 9!
1;!
b0001 <!
b010000 =!
b01100 @!
b00001 A!
b00000000000000000000000011101100 B!
1H!
1S!
b00001110110000000000000011101111 Z!
1[!
0\!
1]!
1b!
#18
0b!
#19
b10000000000000000000000000010000 #
b10000000000000000000000000001100 $
b10000000000000000000000000001000 &
1*
b00001 0
b00010 2
b10000000000000001001000000000000 4
b0001 5
b010000 6
b0111 9
b01100 ;
b00000000000000000000000011101100 A
1I
1J
0K
1L
0M
1N
1R
0S
1T
b00000000000000000000000000000000 V
b00000000000000000000000000001000 ]
0e
1f
1h
b10000000000000000000000000001100 m
b00000000000000000000000000000100 n
b0000111111111111111111111111111111111000000000000000000000000000 o
0q
1r
0S!
1U!
b10000000000000000000000011111000 Y!
0[!
0]!
1b!
#20
0b!
#21
b10000000000000000000000011111000 #
b10000000000000000000000000001100 %
b00000000000000000000000000000000 '
0*
b00000 0
b00001 1
b00000 2
b10000000000000000000000000010000 3
b0000 5
b000000 6
b0000 9
b00000 ;
b00000000000000000000000011101100 >
b00000000000000000000000011101100 ?
b00000000000000000000000000000000 A
0I
0J
0L
1M
0N
0R
1S
0T
b10000000000000001001000000000000 V
b00000000000000000000000000001001 ]
1e
0f
0h
b00000000000000000000000000000000 m
b00000000000000000000000000000000 n
b0000000000000000000000000000000000000000000000000000000000000000 o
1q
0r
b10000000000000001001000000000000 u
b0000000 6!
b0000000 8!
b0000 9!
0;!
b0000 <!
b000000 =!
b00000 @!
b00000 A!
b00000000000000000000000000000000 B!
0H!
0U!
b10000000000000000000000011111100 Y!
b00000000000000000000000000000000 Z!
1\!
1]!
1b!
#22
0b!
#23
b10000000000000000000000000001100 &
b11111111010000010000000100010011 '
b00001 2
b10000000000000000000000000010000 4
1K
0M
1N
1R
0S
1T
b00000000000000000000000000000000 V
b00000000000000000000000000001010 ]
0e
0q
1r
b0010011 6!
b1111111 8!
1;!
b0001 <!
b000100 =!
b00010 ?!
b10100 @!
b00010 A!
b11111111111111111111111111110100 B!
1L!
1P!
1S!
b11111111010000010000000100010011 Z!
1[!
0\!
0]!
1b!
#24
0b!
#25
b10000000000000000000000011111100 #
b10000000000000000000000011111000 $
b00000000000000000000000000000000 '
1*
b00010 0
b00000 2
b0001 5
b000100 6
b00010 :
b10100 ;
b10000000000000001001000000000000 <
b11111111111111111111111111110100 A
0K
1L
0N
1S
0T
b10000000000000001001000000000000 V
b00000000000000000000000000001011 ]
1f
1j
b10000000000000001001000000000000 m
b11111111111111111111111111110100 n
b0000000000000000000011111111111111111111111111111111100000000000 o
1q
0r
b10000000000000000000000000010000 t
b0000000 6!
b0000000 8!
0;!
b0000 <!
b000000 =!
b00000 ?!
b00000 @!
b00000 A!
b00000000000000000000000000000000 B!
0L!
0P!
0S!
b10000000000000000000000100000000 Y!
0[!
1\!
1b!
#26
0b!
#27
b10000000000000000000000011111000 %
b00000000000000000000010100010111 '
0*
b00000 0
b00010 1
b10000000000000001000111111110100 3
b0000 5
b000000 6
b00000 :
b00000 ;
b00000000000000000000000000000000 <
b10000000000000001000111111110100 >
b10000000000000001000111111110100 ?
b00000000000000000000000000000000 A
1K
0L
1M
0R
1T
b10000000000000000000000000010000 V
b00000000000000000000000000001100 ]
1e
0f
0j
b00000000000000000000000000000000 m
b00000000000000000000000000000000 n
b0000000000000000000000000000000000000000000000000000000000000000 o
0q
b0010111 6!
1;!
b0001 <!
b100000 =!
b01010 A!
1D!
1J!
1S!
b00000000000000000000010100010111 Z!
1[!
0\!
1]!
1b!
#28
0b!
#29
b10000000000000000000000100000000 #
b10000000000000000000000011111100 $
b10000000000000000000000011111000 &
b00000000000000000000000000000000 '
1*
b01010 0
b00010 2
b10000000000000001000111111110100 4
b0001 5
b100000 6
1E
0K
1L
0M
1N
1R
0S
b00000000000000000000000000000000 V
b00000000000000000000000000001101 ]
0e
1f
1g
b10000000000000000000000011111100 m
b1111111111111111111111111111111110000000000000000000000011111100 o
1r
b0000000 6!
0;!
b0000 <!
b000000 =!
b00000 A!
0D!
0J!
0S!
b10000000000000000000000100000100 Y!
0[!
1\!
0]!
1b!
#30
0b!
#31
b10000000000000000000000011111100 %
b00000001100001010000010100010011 '
0*
b00000 0
b01010 1
b00000 2
b10000000000000000000000011111100 3
b0000 5
b000000 6
b00000000000000000000000000000000 >
b00000000000000000000000000000000 ?
0E
1K
0L
1M
0N
0R
1S
0T
b10000000000000001000111111110100 V
b00000000000000000000000000001110 ]
1e
0f
0g
b00000000000000000000000000000000 m
b0000000000000000000000000000000000000000000000000000000000000000 o
1q
0r
b10000000000000001000111111110100 u
b0010011 6!
1;!
b0001 <!
b000100 =!
b01010 ?!
b11000 @!
b01010 A!
b00000000000000000000000000011000 B!
1L!
1P!
1S!
b00000001100001010000010100010011 Z!
1[!
0\!
1]!
1b!
#32
0b!
#33
b10000000000000000000000100000100 #
b10000000000000000000000100000000 $
b10000000000000000000000011111100 &
b00000000000000000000000000000000 '
1*
b01010 0
b01010 2
b10000000000000000000000011111100 4
b0001 5
b000100 6
b01010 :
b11000 ;
b00000000000000000000000000011000 A
0K
1L
0M
1N
1R
0S
1T
b10000000000000000000000011111100 V
b00000000000000000000000000001111 ]
0e
1f
1j
b10000000000000000000000011111100 m
b00000000000000000000000000011000 n
b0000000000000000000000001111111111111111111111111111111110000000 o
0q
1r
b0000000 6!
0;!
b0000 <!
b000000 =!
b00000 ?!
b00000 @!
b00000 A!
b00000000000000000000000000000000 B!
0L!
0P!
0S!
b10000000000000000000000100001000 Y!
0[!
1\!
0]!
1b!
#34
0b!
#35
b10000000000000000000000100000000 %
b00000000000100010010010000100011 '
0*
b00000 0
b00000 2
b10000000000000000000000100010100 3
b0000 5
b000000 6
b00000 :
b00000 ;
b10000000000000000000000100010100 >
b10000000000000000000000100010100 ?
b00000000000000000000000000000000 A
1K
0L
1M
0N
0R
1S
0T
b00000000000000000000000000010000 ]
1e
0f
0j
b00000000000000000000000000000000 m
b00000000000000000000000000000000 n
b0000000000000000000000000000000000000000000000000000000000000000 o
1q
0r
b10000000000000000000000011111100 }
b0100011 6!
b010 7!
b0011 :!
b000010 =!
b00010 ?!
b00001 @!
b01000 A!
b00000000000000000000000000001000 B!
1M!
1S!
b00000000000100010010010000100011 Z!
1[!
0\!
1]!
1b!
#36
0b!
#37
b10000000000000000000000100001000 #
b10000000000000000000000100000100 $
b10000000000000000000000100000000 &
b00000000000000000000000000000000 '
b0011 (
b01010 2
b10000000000000000000000100010100 4
b000010 6
b00010 :
b00001 ;
b10000000000000001000111111110100 <
b10000000000000000000000000010000 =
b00000000000000000000000000001000 A
0K
1L
0M
1N
1R
0S
1T
b10000000000000001000111111110100 V
b00000000000000000000000000010001 ]
0e
1f
1k
b10000000000000001000111111110100 m
b10000000000000000000000000010000 n
b0000000000000000111111111111111111111111111111111000000000000000 o
0q
1r
b0000000 6!
b000 7!
b0000 :!
b000000 =!
b00000 ?!
b00000 @!
b00000 A!
b00000000000000000000000000000000 B!
0M!
0S!
b10000000000000000000000100001100 Y!
0[!
1\!
0]!
1b!
#38
0b!
#39
b10000000000000000000000100000100 %
b11110010000111111111000011101111 '
b0000 (
b0011 )
0+
b00000 1
b00000 2
b00000000000000000000000000000000 3
b000000 6
b00000 :
b00000 ;
b00000000000000000000000000000000 <
b00000000000000000000000000000000 =
b10000000000000001000111111111100 >
b10000000000000001000111111111100 ?
b10000000000000000000000000010000 @
b00000000000000000000000000000000 A
1K
0L
1M
0N
0R
1S
0T
b10000000000000000000000100010100 V
b00000000000000000000000000010010 ]
1e
0f
0k
b00000000000000000000000000000000 m
b00000000000000000000000000000000 n
b0000000000000000000000000000000000000000000000000000000000000000 o
1q
0r
b10000000000000000000000100010100 }
b1101111 6!
b111 7!
b1111001 8!
b0111 9!
1;!
b0001 <!
b010000 =!
b11111 ?!
b00001 @!
b00001 A!
b11111111111111111111111100100000 B!
1H!
1S!
b11110010000111111111000011101111 Z!
1[!
0\!
1]!
1`!
1b!
#40
0b!
#41
b10000000000000000000000100001100 #
b10000000000000000000000100001000 $
b10000000000000000000000100000100 &
1*
0,
b00001 0
b00000000000000000000000000000000 4
b0001 5
b010000 6
b0111 9
b11111 :
b00001 ;
b10000000000000000000000000010000 =
b11111111111111111111111100100000 A
1I
1J
0K
1L
0M
1N
1R
0S
1T
b00000000000000000000000000000000 V
b00000000000000000000000000010011 ]
0e
1f
1h
b10000000000000000000000100001000 m
b00000000000000000000000000000100 n
b0000111111111111111111111111111111111000000000000000000000010000 o
0q
1r
0S!
1U!
b10000000000000000000000000101000 Y!
0[!
0]!
1b!
#42
0b!
#43
b10000000000000000000000000101000 #
b10000000000000000000000100001000 %
b00000000000000000000000000000000 '
b0000 )
0*
1+
b00000 0
b00001 1
b10000000000000000000000100001100 3
b0000 5
b000000 6
b0000 9
b00000 :
b00000 ;
b00000000000000000000000000000000 =
b11111111111111111111111100100000 >
b11111111111111111111111100100000 ?
b00000000000000000000000000000000 A
0I
0J
0L
1M
0N
0R
1S
0T
b00000000000000000000000000010100 ]
1e
0f
0h
b00000000000000000000000000000000 m
b00000000000000000000000000000000 n
b0000000000000000000000000000000000000000000000000000000000000000 o
1q
0r
b0000000 6!
b000 7!
b0000000 8!
b0000 9!
0;!
b0000 <!
b000000 =!
b00000 ?!
b00000 @!
b00000 A!
b00000000000000000000000000000000 B!
0H!
0U!
b10000000000000000000000000101100 Y!
b00000000000000000000000000000000 Z!
1\!
1]!
0`!
1b!
#44
0b!
